:100000005A013A40A21A8BF67822C938D8C7B35C95
:10001000CB0422BAEA08167D500799A6CEDD6B61A3
:10002000DD6FB33465AE669BE1B13E441114F48FCD
:1000300079600B8F515B321DEADDA333E9F9FFE0F4
:10004000042AB46E14D826B3A329D6F03F5032C781
:100050001DDA96695FCACF64BE3742B29AC7581696
:10006000258D059D43F4C00FF91ADDBD0B4F7B288C
:100070003F9A563287DC2DD7C22C363A76E1D4B877
:10008000E7C4A4CE70B7BE38B453A383A25C93ABCD
:10009000A8BFA668142975F5BBFB306ED1DAA2752E
:1000A00082EAE47A4C9B524E02B9BA70D44353862A
:1000B000567EB4EBA807D6CC3A9904B7BD011A1FF7
:1000C000966AC4B93AE1787D4DA08D86EBD7F406E7
:1000D000507DFFDD29F4F9896F7B9B0DF18AF29E3B
:1000E000B2A639307C6E2A62F894CA31AB7DF867CB
:1000F000B24F05989B044B1367FF1037FD0E024F5C
:100100008A015C6E77EFED2D4C86796ABB341567FA
:100110006F6E9A4A1B561EAF80CC779C7166C18960
:10012000BB5740000F99587BCD9B669680F302F435
:1001300061DD86B2B4F21684FB0212C636770490F3
:100140006A913F57DC72C3D42D0996910C12CB50A3
:100150001C13BB93A96D2E9A22440CBB627FAF3453
:10016000D6B12DD79E1A35DE7EEBBB78B9E819EFF4
:100170001F791DC3A5EDC0892DE9325D9185882EBB
:100180007BD69D0F36EF32D3179BF5A5D90D95E998
:100190005995FBF9DF3B3AA0F66C12E6ADE80ABBD5
:1001A000D3DFA2914CBD65B0EAFA56586C874EA6D3
:1001B000782FBC7FD86F29CAB6D503E212FC71A094
:1001C00051F581A792E25AD3CAB0665AE83F241784
:1001D000A12329C1F357E2334C6623C6F7711BE60E
:1001E000C37F255564B9071547CB2382AE66B31A82
:1001F0004B5BEEB071A18092500A8E7A55594D49F1
:10020000433E39BD702D35F9E6557539F340768199
:10021000A3A560D52C2638968E69BD624208A28BB4
:100220007213DABDB23971513FE5AAF62E56EE804F
:10023000972C23100D8B747658DB9D15B052E290ED
:10024000089301404CA907D76D41C975EAADFE94EA
:10025000461187D5C82280468C8D34BA3CD0BFE782
:10026000701DA154B2D2366F27FDD94B02DBB0F717
:1002700029337CF21B14BEDA818C89B7A02B4AED9E
:10028000813F309C10A207224FE58059CC69EF29AD
:100290005DE43442A9E562028DC351317E8C185968
:1002A000F10054CAABE228ADF714AC39421480A96E
:1002B000615E952C571557FEF3B06E46951884D5A0
:1002C000F5F90CED28EFF40F054430EBD1AC08FA4A
:1002D00012C88F2666C0751A684EAAA8FF8D60E402
:1002E000E756572BF2DED35D54E1EA3227CDE02CFE
:1002F00098DD354831A35018B474DB3E3CF6D40980
:1003000003DDBB0617CA19DC032D1AAB065438EA05
:10031000BAD62959C00D05A00E3D27F8BC83EAF1D5
:10032000290E605794AFD1885560C98C3A3DEE6D67
:10033000EA29C245C9BDF260B8F685BE05D558E1C7
:10034000EE3BBCB3061BA16EBB8221D39753A0200A
:1003500065DE22C81BED99E076790FE7143018614D
:1003600099D09A27DD166264B0A01E5D42C65F1365
:10037000D89CDC512A5C831C971972C27F996F51FB
:10038000DDDD28EFEB1C9E39FC00ED4B55BCF7F38F
:10039000156751E23140F23D142F64631D47551239
:1003A000B1D2E32D339AAB63BB12C7A08A24910765
:1003B000F267A7A9A837BAFA7C192DBE5C0060D5F0
:1003C000B3EFC20B8CA51E303C4382A1B241118C0D
:1003D0006F1B233568C14B27D6EB1E2A3DA99321FD
:1003E0009E431E561963C2F43214519EA4027EDE4F
:1003F00060853B5B74946C785A29A8C1C062B4557F
:10040000041A88920CC0399F0CD960F4E73919316D
:10041000592504C20BAADBC8D2FDE345C66C4A913C
:100420001FD999F4548D5BC2147267F2E2CEE45086
:100430002FB439FB965CCBA3E3171DBFBF2C2392CF
:1004400030CE0B2F32FCFD6B91F502D1356CDBEA1F
:100450001F00DB1F5AE20BCE6BAF06C591F150CCEB
:1004600036D0EAC2C18F2F0D299372D169623EAF97
:10047000A37D63AAA15EC15CA8DC2DA95B477D3A80
:10048000819A6A1F443D497227301A786864693935
:100490006066B6DCF877CC67C43113F42996290579
:1004A000B04E80B7378A805A5BBDD34CF92893ACE5
:1004B000A3DB3A3608ED18590438D09FE5098DE9D9
:1004C000A86EAB268EE3750F136ED596CE15C2C7F8
:1004D000805DC500C28E454CD0236B26C847EE0A0E
:1004E0007E422592DAC5D846D33342841F697E9373
:1004F0007C07876903EF2B0C4F5D26859BAE4D98DB
:1005000098E6DB048D2E354061C9E648D448BE77B5
:100510007C30A42010A115FCFF09F798948F1423B8
:10052000CEB84FB5A35C995BF2A12D3059E814DC2D
:1005300022244C43A9428F8FBFBAE4BA6D272C877F
:100540003DCFC19387A755B95E83E772F43F8F69AA
:100550004268D512170F904AED82B1B38ED672C1A0
:1005600053E6E258E9016B057020E38D0B94360DDC
:10057000B70F1DFAC2F8E82A18F88854986CD38F80
:100580006DD3AC54FE658A2A5A81497DC27B1DDF3A
:100590008825FBA1ABCA6FAE470B35403F1C19390C
:1005A0009630B0B454D6D45925E69B042F7E3D6DC9
:1005B000226CD3AFD0B1F85B7C308B0F2698AB8226
:1005C000E6597391CDC29C7A02C6E3C3D7F62E5981
:1005D00016B8CE3774EB0B57C210888730DADE4E70
:1005E0001B97A02269AE1332EB78DA11EC2FCBBD4A
:1005F000B3FE157CA75B062DF44B9A46C87C71317F
:100600004432BBB8AB363DF1547C384DED08B71AD7
:100610000D9EE8861E4FFD6D50486D1435D336F99A
:10062000DDB64FEB59D1B83BEC56A60E87BD17BED1
:100630005E01026C6D09A447E13C9B7C474A2B7B21
:1006400038087C4A2F01CF61A8DCA9B35C56D310CF
:100650004047B819014841358F1BE3BFE36899F162
:10066000CFBD286DEBCFCAB9C9E5E28768305842E3
:10067000A6DC234D7DE2B21B4D64F53B8793F76802
:100680007933D91FD9A65600DAC90AED940220623F
:100690007DC39A27F065B865DB39EC8029BA61F132
:1006A0006A882D2D0055555BFB3C2F43D546B6433C
:1006B000782B20BA954A48DF0CDE7DCC0BA359E697
:1006C000A0DE95D6B3617FC1E03DC32DA34C05E903
:1006D00085F494B050A10515A8899DCF496F6BA8EA
:1006E000457149E8967243C18F581B3A0151DD6B41
:1006F0009871E045F4B2AFE2D5FA5D78682B6EBC34
:10070000CBCAA75E81B581FB3A691C6634CD917175
:100710000354B126A71796296FCB5E6A87ABA7143F
:10072000D7DDE2C9CEB81C954B7FA6062DBDB1968C
:100730003EA201D315F1414321CE3BBCF8D0420982
:100740003935D4346AFD27B4D921698DAC1EAEE2A7
:10075000F8A01FD0559990C8E47670FD55C0B9E552
:10076000C6C4762F1FE64CDDE1B17CEF88458D5F76
:10077000F6F4EFD43A35B04A38D8E7FB53401A15AF
:1007800049F4355BF60A0671082F569F8CFCEA1D6A
:10079000373EE03AEE865DCAD8E14074BFD7D30E4B
:1007A000D96932E115CBE470AC529CC59271FAEA7A
:1007B000486AB57094E62C4CA180E18BBB4BA20A31
:1007C0000CB3E8F7DB0C483CB7E32301ABABB19CBF
:1007D000B271E131CB55928F4707329A7678396FF3
:1007E0004BF6E9B58A52B6C4C79BCCB8707206CA3C
:1007F000E333F3FAC0E57900D59690F9ED2202448F
:100800009F1C5FCF231919EABD2AA0A4C44FF4B6D8
:10081000FE77FDE28C57F5AD2EA7DAB0FFCF296C3D
:100820004FB6DFAC43691D984B35D2C6F926A29965
:1008300080FF8DC3C8E2525344A900AA4077BE7F0F
:10084000769ACF2527EE6141D5BA9B228B6F983BD4
:10085000EF68E459F536577A44FBD2780B70BEE462
:10086000A3C500339FB43B0EAA7EC9ED27892D7125
:10087000F8713DF5E68D7ACC7023728F1E1217A6A3
:100880009B7842663044401DBD1AEB761592B5AA9E
:100890002B30C48AEE7BB5A719D1130CA44F2D2899
:1008A000080115B7907BC147E075670801D9148F1F
:1008B00037D7268F950C2869232C8C12E3ACE5FDE5
:1008C0000D9B6E131CA72E7D61B2BEBB7A0D670A0D
:1008D000331AEBD4CE23EDEBA3DC73251439D06DA2
:1008E0002C5C0E30CAAB1A40B56A2DF89E4D931C95
:1008F0000ECFFDC44186382ED3A9F316175927CA47
:1009000076D4B35391E4668101E49BAD8B4295BDEF
:100910001C90B31D967B1E2E43BD59733BCB837138
:1009200090DB15B4744356C4BA6D680B4E1E1B8918
:1009300006ED4AA6268476D2022B9BA2046A67257E
:10094000ECED5EE1C664D89C19994CCDF8B070DD31
:100950008871AE87F4560A47B5E342842B71598FEC
:10096000734B3550C4F5AB0127C5FE9A41D27F7158
:10097000B41D27F6EAAA08BCBC1CC213AE18AF8689
:10098000980E1FDACCEDF9ED9C835EE945E0E06E50
:10099000547771E9748E12D6AB1580478DAD1F4D1B
:1009A000FDD39F1EB1584C424D8692FC50DAE19126
:1009B00047B786701E055D46941D99208326104C0E
:1009C000A052A760760FFC48396378B0D1EBD86AA3
:1009D000F870103505ED1940A0C022216408FC9480
:1009E000CE17A505DDDD307A026FFA7F7F88139878
:1009F000765F7F943D9AA0A60D6735775418B4357D
:100A00008A75D1F572342D0E01D115281C703FBEA8
:100A10004919F37AD09F2A789E0935E6BE7AD56EB9
:100A2000D886D684948FD117051015A2DF9DE7D004
:100A30005A9ACC2A0DEC3D53E5899E831E5FD9411D
:100A400088284268EE1D5D9803CDF829619EE00F6D
:100A5000A16EE093CF4BED7A3E5313F27C4B161808
:100A6000456C844D35B328D6138027487563C7F489
:100A7000C6E06F0E788ED4B0EE51E69A86D4B5B14A
:100A800065C379C156F435C871B4A53C35F8C7FCC7
:100A90004B1A5386C0209116262CDD07CF45B994FA
:100AA000C53BB3829AC9FD410F38348E86AE7916A4
:100AB00044304CA2E18B93094EA70055E61C8630CA
:100AC000D5BD124CF4F72FA09C5B11A44C9314D508
:100AD0009DECCE017606509B87F5A47155D151C887
:100AE000059C9E8E9E196E84F6A3D0C9F8054865B4
:100AF000D44B441121C936193C04E8F9BCA7CE0BEC
:100B00000788FF8B7DF5B05F97BD76ED86B3E56016
:100B1000ACAE168DA83F120F21EC805F0D1E69CB85
:100B2000DAF81942F81225CC8F35DD04D7C16B36BF
:100B3000990AC5095C1E0AC4354C4D164DDD466B3D
:100B40005876C985F3D551F25A4F177DAAF5FDD3D2
:100B5000FE062DE9EFC1FF6015F2B607567E2B1297
:100B6000B52AE9C1E2193B7B4CA404FE072F6BF0C8
:100B7000273D2CC9A85D954AFF60F431E4AA937122
:100B80002337F4B3697551221E1BF46593E5BC87C6
:100B900077732100C2377EC65625439AB78ACECED8
:100BA000768E63F25FF6AC5194C84BFFB66278D292
:100BB000B8A73E0E5E1A9CF124ADAAF68A733E4891
:100BC000264719AA5A92B0BB70535F6175BEE6AC56
:100BD000F70F02A6AF98278E2906D4A6443D7F5270
:100BE0008E0A2893C7EE96E587426B39F292E5C5E7
:100BF0008223524C1A879E425F55F7CD8CAAB0468D
:100C0000B00033A3FE6C0F3C50AD995BE7F45C265B
:100C1000EBCC78200CB440DED5D861013BD3F58E07
:100C200047049BE3AAF553A23A661EB94184DCD57A
:100C3000EBC89A338F9A271C0A90DCB8B5783FDD51
:100C400056B99B0AB875DA87383C1FEB1DD494D48B
:100C50003C42A65D0347F4F7518317C5ACDA7268CE
:100C600074FEBCD035B261145C6C7D1321CEDD7E88
:100C7000A0B908B2C7C611FD0DE5C1978FBD50CC14
:100C80003985D4DE395820B2EEC26AFBDBA462A6F5
:100C90007DB88AEDD4E05B73A4641FE313DFB4F086
:100CA00067E96E48AEFC2BE24F69458B6F96637522
:100CB000D240FBB7738F36F66FBF4A18A820036087
:100CC000D6756714B324865FCA9F0D3FE3FC768C0C
:100CD000D545ECC4AAAD6CE33D6E784A0B08567E50
:100CE0005035084A5572ACE9D796D4DE97288DFB6B
:100CF000DC19CC8CC2C9EE952103BAB4042358A8E0
:100D0000ACF765984A771874147BD06FBFB3922AFA
:100D1000CE7D77FCEB8DA50BC20D3BF84D5457787B
:100D20009A492D49EF25BC7E4EFC3C73AA08052448
:100D3000E28D74A2896D2F43E3D6A81054E55B952C
:100D40002294476FE4F9E0BD566BAB929E16E371B7
:100D500033875629C81B81BE98187D8289E106C752
:100D6000A5196442B1DB5EF30449EABD8CC7DBA080
:100D7000884ABDBC61D7752AFBF3B9404E9255FA3B
:100D80008784D1D21E81C90443270258CFA214A35D
:100D900027982D707B314337229B8D97369C124FBD
:100DA0005BF454B72C0BBC72D526DBF7DDF55BDFAB
:100DB0004D496F6CC6B666010903F3FAD1C6CE0D74
:100DC000F21D33697204B6AA748AB60952DD025262
:100DD0000DC658A749CE4FC855623490C2B80C56BC
:100DE0006D07F78910FF7530071EBD552F880A065D
:100DF00069F58438585904E342AF84B12BC1B880F7
:100E00009B3C375BB092D42B6443C06EBAD2B8C35C
:100E1000DF88D19E8D67EB103DA1B0B8131791A765
:100E200039A03327BAE0D4C3CBD4EDB1DAF0537D87
:100E3000CB2F224C8892AE919295091DF874BFC0B9
:100E4000E47B495AA83A75C919CFA8D952EE0B19B3
:100E5000522FFBDEB7B2426A86273708F3A20C6531
:100E60006198BE1BF32D8665644611F20601BE55DE
:100E700055CB44F6F1A07BF17F2308EBF4420AC581
:100E8000BF48C3E115FC87ED96988A62B34C3909D7
:100E900013BBBBB220F119C2DE7AA4C32441E9D44A
:100EA000B92BF3E483399E64BA9CD5555F0877FB70
:100EB0002D1DD9C44EC6B6CA1E47ED5033255B68FA
:100EC0009E51FA0BDB945526D837B491FBDE1B7983
:100ED0002041EF3D48A1590E2E6522BF86DB371613
:100EE00033212BB534C2EBCDE52F32FFE09579E30A
:100EF0008E0EF182A8F1381608269FA4B60DD1B245
:100F00003DA05CACD76A6207FA7EFC36EAD576EC87
:100F1000CA1C25214F2CEC51553800AFF7DB810856
:100F2000A3B8C8B1599830009B9C55B0EE627B04C1
:100F3000419F8BE22041855044B88379FABDC27C41
:100F40007D213C8A3B70C6B319E371C3A7197016A3
:100F5000A590436704C2D34F52FA27AF151E0975F7
:100F60002D3B4EAA6AC718AEE92D046DEF8AD96DE4
:100F7000FED77A4F4E8AFCF62B23D6E783A209EDE3
:100F8000E5DCD329A21D19A577A7A652152154F88F
:100F9000707658481A3534BB086F64DE6D4747C217
:100FA0008E7E5D2ABD81FF0D021B8151DCC14DCBC0
:100FB0001A258B921E78F5857C3320F691AB6DE86F
:100FC00091A918DCEE88CAF38ADE8DA5AE7A518924
:100FD00073D49A732839301A4B200FCDAEE7971986
:100FE000E978E0FD13065CD1C433F046CB47660ACE
:100FF0001008EA516E50DC1668643C8FE9D36D5CD2
:10100000D6CD1B9344E30F426ADB368F81F54863EC
:1010100069B362B930AFED6985EA43BE0AFEE39871
:10102000070056A09852269E1DC441E4DD2D537042
:1010300016C12F1B64C3FAD25B13F2A0D75D6011F7
:101040007131B1B010AD086C39540833E84F0E2C33
:1010500021EC41E77DBD2FD3D283D5C2A25E83654B
:10106000FB3EECEBCAC1F5142F9EF15E50269F7F2C
:10107000E9A1346CB503F649D11BD3519AD60EE9D8
:10108000EA2D8402C2A1FC571E35BA49D25E5E2207
:1010900088028852FAF4A9D7489579EC1E41931832
:1010A0007C5F39311EE3168C85A568BF6A5DFC1C28
:1010B00050420ADAA3971B0C134B47647E8C60984E
:1010C000A52324F5CD428394D9C3E855BC6A995829
:1010D0001DC842690FCA5401923EA79ECB2AB3CBCA
:1010E000F8650740C86FAD1F6D2D84E4FF2D0259D0
:1010F0002730A771566D0783E186F19E6848FE048C
:1011000076DF020F9942FCE4D106150B6319269A8B
:1011100052BE980FDBABB361B8FEA84DD2F5EFD746
:101120007CF76DF16B5545BA831B6A9BB60CA54ED7
:10113000E6A59EEEA85409EC06AEEDB731B5E1DBAD
:10114000F6B530AE36611CAFA621603218808C1522
:10115000B61558F490CDDCD104A749313D791E7104
:10116000868C35B598AA6B34BDEB3374C3C10F932D
:1011700032BBDE190F50E5C9D740A1EDA3768F979A
:10118000984EFE2CAB92ED075F2CD80A3566CE0048
:101190001079E45A842F0497F1F8ED37B9EB92A552
:1011A000C2AE1C60002E597F63E62255F2C1A52213
:1011B0005D784F6450C53DD4D6F6B137EDBC31866D
:1011C000F49818DE6367F7C530F7A95E95F75DCD33
:1011D0000DCC0C8DE990202EE90A57615EDA61D2C0
:1011E0005487D574CC78E2C70F0639D2E8A59FC8DA
:1011F000AC5FE58C37CA06E950C0ABB85A5554DA33
:1012000046C193F1C0103B54427DED2B21758BC636
:10121000BD8F764BD496A53C9C89AF02F3F0931911
:10122000FE91B8559CE03871CE73341973502A93EF
:1012300083A9E5F8D1DF446584A1BA3455C891CDBE
:10124000B870BB05C854F0127A28830E4317F0AD6E
:101250004891BC0A7908C271EA8FF1566EFF83FE8D
:101260008863122B4861B486240E05393D0F97CC54
:101270003B9589FC905706BE33F7C749ECE81E3A08
:10128000917A9E554FE4B2D1124044D9E505CEEC97
:10129000F8DAE743E31D8A0E747AAE9FB7EC190BB8
:1012A00081E0D7D4D1EEABADB79CAF3CADE4EB570A
:1012B000FE712DD463074775FECAAAF105DCAD2384
:1012C00077A4B0831807A3F899DEEE6BEC8690E262
:1012D000A81327CEA9828E7330387373CD4D4AB1CF
:1012E0009B77FEBD1F1E163CC9D7B25E3F517906E3
:1012F000ADA6E9A9734852DA2BE3DFD8FD778E9CBF
:101300004874249A72BE02425C21DA3DF9F469AB5A
:101310000A97586E8E93361F71C130CC1982F2E64F
:101320009A8CF6B24D91467BAB905DEC854064851E
:1013300098C3BE4184AD5FA57688AB21BCEE175E35
:101340002A89CF3055EE762C657794A94A31F1B3CE
:10135000FF58250851F6138B4D46563756CCCB1007
:1013600057EA543001F0E1BF0F415B561CF4E4DA58
:10137000F037C449191512F812FF7FABE9F22CB609
:101380008475031D6E5FD249B099C511E83B5AA020
:101390008F7B6252A67F096A1C1ABF1049009FFB0F
:1013A000BB54BB7CD12030E1608AC0647109CF7529
:1013B000E70D91EA9465E8E6E8A6972F247D27C318
:1013C0003AA139F0FF974323296F6ACAD47A80ABD8
:1013D000A3E85EBE87FEAF264F60E5AFE70C0E8543
:1013E00057EC594A1D7EE4D972402C569ABD54E1FF
:1013F000276629C8D64F0F76E866969865EA999AC7
:10140000FA734D7683FDB2C2B210FF7713866BA6D6
:10141000CEF9D5C2A824C8AF2950C0A0DB71CAC17B
:10142000E3B82E24B19EEB7B24C4A337E273F83AD1
:1014300055C578347E0B188F800A136111D86177F7
:10144000EAFDD22B48861A51E788FE05EFBDE6ED8E
:101450009A2CE077A9D6AE697434B453A15D178E87
:10146000FA252C8F6EA11E9CD980C51B97BD98FBB9
:101470008B3BDB1CDB4039306C039774D7A1D57AEA
:10148000755AC79682A67497665F9459AFCFE4D019
:10149000BAA6DD6AC331F9850B346E28A76C1C9F90
:1014A0006186F31FC0169E4CD0BF2A609E4C879B5E
:1014B00063F84D39BC69AEB52457A92745F17E3E86
:1014C000FB91DDB10C13D6574725076AE63563A5B6
:1014D000ED8267A0FE83F2A7D0BD91F6BD514C61AD
:1014E0003CF57ED981F817983568B96EA34B5452F4
:1014F000ED2924054FEE18764D61EB73CA1632289C
:10150000D2E72F46AAFA8411BCD926457D6AA734B2
:101510004F864801A49A1E8C41A0BD5C07B6D7F641
:101520000429774F5C9269A86B7B037A9B06354F41
:10153000557655F1CE1F30DF0E5666D5002BED598E
:101540003591A8A1EA7B76999E45CB6328EAAA5EED
:101550009738A0165141312E634C6C08E5A79FDBEC
:1015600069A06AE11779BC473D0A7240A26CCA5B68
:10157000500DFC709F4757B755F313DC3CB057ED47
:10158000B4573713A020345C51F4269268EF981BAF
:10159000F2C66FAAA3B739A50936683599AB867428
:1015A0005A3A3A6E10A3A221732F86EDC5AF315D72
:1015B0001FF99CBD75800C98958667F16F4932D9EB
:1015C0005C50F644F95C114735538256E3CFC04A6C
:1015D0008AEE6FB208101A09B5D6383DF0BF5CA28A
:1015E000E1C035FA440EF7BC9A36D7E2577DE9528E
:1015F0000141A76F2188627617A86D86B79CACAEB3
:10160000FA20CBAB39F9BE9D6CAB3CB22E5C274FB8
:101610009140402F307B7CD44280BD7AE2AE6EE8B0
:1016200068EC35EE53AB738D4BFEE9F4585D899E43
:10163000A1A6091D06F61E8C3499990DD3B17F53CE
:10164000EF33B381FD5FDC7B06E3843AC62E64DDB5
:101650002A3B5665D287B885A9DE6D8F02964CD598
:101660002A5BF19638F827CE6E254A6DCBA23962F7
:10167000A6CC02090B807DF1D19A71C03121AEB1A7
:101680004C34C46789E68D1C9CF98DA93286627F33
:1016900018245096978DA4C25509353CF3CC5009B7
:1016A000E44D0EB2C3666A6CB58971262E3347DAF3
:1016B0008C9EB245EAE63BD7AEB48751F703F49768
:1016C000E24F16B8806FEC67298D07B8D9BF8B1D24
:1016D000A7EBF0A227643E98F5FDC7F068167221CB
:1016E00061FCE507B37F82B74CEBDF11450D751741
:1016F000219DE2156D4A0BB26C01F696856A28E1D0
:10170000667DA7D9E54960EAFFC5A442F910E3CF99
:10171000CCF587E652E458A4D8630759783A4F08C5
:10172000CC9D93E61027A89210A6DEE80A9C29AF6C
:101730005AFC045A1C7F0B607ACCD4F18E68DC0210
:101740009E4A6CE030ABBB57036C4E618B3C5471CE
:101750000AF76F7519BDE18F7841F9759B465D42B7
:10176000984AEB8836A6F16E71DDE84503117C2DB1
:10177000D0E121DC23F2FD82B6A5C2A5024E02E82B
:101780003481EB9408DAE8B5B705B382581822F033
:10179000B34CC7C5C676ABD95A573423A82ECFD67B
:1017A0000095A0339D93D77F8B13631C2E01C0DC63
:1017B000B8A1E608527476F13943CEAE6910B2553D
:1017C00060727C61925CB6F22680CAD3D472C71F65
:1017D0001CABBF42359A9222A8F8EB6637237FBF35
:1017E0009B2682A2977206F619348C1DB7996E4B10
:1017F000A8182D5B55D5F04B87BFC284C4F5F009FE
:1018000035E1C631DA74FF7E32D0B8C79E1F880931
:10181000D15C101D6E4E14133401C4FE3E3877594E
:10182000778DB11CEDFF6698E6FD875CD3F668B353
:10183000F8CD16973A9570B7FCD854F49BEA2E96DB
:101840005EFD18C01405C15BA5E9B04757668EB0B0
:101850003909CC000B495733156517A51B43AAB9A5
:101860006BDC884B9E064C088CC28D20B11C021785
:101870004563681EFA97930FDC698770E64547C198
:10188000F6C747EB80407EE37BBA94898D0D9EF9C5
:10189000423AEC990F059961A0F3950C8E43930F92
:1018A0007B58DF30F58EB03D384D7F6F804B3BBCB1
:1018B0003344F1A7471A258D43F95EC0FADB49345A
:1018C000471B35E3F24B63CB475019A48321C43641
:1018D0007AC6CB6A25205EAF1072824F92082F61C4
:1018E0001223C152921CF99BC0089403FA15014CB3
:1018F0006249C9D53ACCE9EA2C9F8314D929DB5E29
:1019000096BF6C0D36A0BA94AD3E46B633B33343A2
:10191000C7A38BA27C936B2D26E9FC6270A96CBDDA
:10192000F766F1FA1462531A969B84B9B7D09B5CA0
:10193000D134A2AD9287404E0DEA6DF45E31870638
:10194000E2343002E558EBAB0CC7A02C76D0607BBC
:1019500023E2328A8DAB949CFFC7D0AE64B6EA6DA9
:10196000970352ABEE53BD85E091E2DF75025992C9
:101970008B475468144B8115CB964F68814CA54713
:101980007DCB1EA81D3304FF87238E5512B1E306BD
:10199000C82FC2D2FD510AFCDCFFB8BE4900EB885B
:1019A0000AF2C21FD5F23AC60FEC411C5224EFE2F4
:1019B00045DDB045094266FE46E2F6B8BA61EC8CF8
:1019C00028862A69AC2F9878EBEBA9CB233D320B04
:1019D000BFB1FAC08C8A58E4863F77CA622222AC33
:1019E0009B55E1EA783D490A1C5F4D3FD57A173A8D
:1019F0005357777E0CC392340C995B25628F85AE6A
:101A00007A92D7D08D3CEC0D63B5B2729316FABCC6
:101A10007B0EAD584039EA85AF68841A9502B57ED1
:101A200007F750438AD9EF75033657C7F19232C68C
:101A300061CE1C64E90135E079FE71AF2EC28C12D3
:101A4000338D31322C392C494B6F7515D35FDA5AEF
:101A5000DF9E58C26AC6899624D99885B0011D07B1
:101A60004AE834EAE4AE356B39333ECC2820A24D47
:101A7000DAAC4BFCB3D7E81D54BE130F136F8E03C3
:101A8000A0210E306A48F8D6C61CD6F79133680AF2
:101A90003B1E9A0CF1654CA03F082887F8AC139DBB
:101AA000D8C609AE71398CCCC41C458B683EC5457F
:101AB000C00453FF1310A29D02F54946F3BABFF1CB
:101AC00065D7619EC10763A9F26A98D1EE9A6C0E40
:101AD0002A2B9E18BC7E978C2979423910A75D3934
:101AE000EE54968967AEC98C14B91CEC8FEB19D0F3
:101AF000D47D41E4F6AAD6D8510BEADFF6062B498D
:101B00004E233C2947B41ED950740A2346801452F0
:101B1000E186265219540215E2DF64BCDEEEB28D76
:101B2000059C442C43034CB7C25CCA63704479994A
:101B3000A838D41B296BC28C47DEEE2B8792B3DC0E
:101B4000714236B901B505992C57AC2E667E506AA4
:101B50005E1D32F96E458713F40EC46CB5BB07AC3D
:101B600084E57904C89EF4CB4DA8FC5C43D329BE20
:101B70007BB02C5F503E5E08BE1171F09CF7BE9E9C
:101B8000F4836F8ED0241816BDDB472F401B89705D
:101B900042DF9150018226F03DDBB8005E9C131DB0
:101BA000F0C467D7E048269F6BADDCA67CA04A074F
:101BB0000D86A5EFF4E74BBDC3880FD4FBA0B5E8B5
:101BC00049020CA1327E1A1B8F2EA6C5C45496045E
:101BD000E317CF8EF92265362303B420AEA8BCBD2F
:101BE0009B94500087A44920D2C55FB6B230829B37
:101BF000B5461530D36C0339837F7A5F0EEBDE5325
:101C000075F2959DDC059FE7AE33AC0D93A8E0E23D
:101C1000FB6F3B4A0E8751F9E5EA109AC14DE3ABE1
:101C2000049F2D49900C70F521BF50A656FA9E1EB8
:101C30002C94A2A72BCBA6674020D12BFF1A1C48BF
:101C40001D9292E0027442F3320D11EECBFF53E687
:101C5000AF0015DFAC57E56F1BFEEFB9D1949A8842
:101C60002DBD14424851C4215AE795ACED9F820026
:101C70000AA905B1F9F44A8D019B0E972A8DBFF789
:101C8000E509A412BDC8BB4530F470C1FE9D3FE21A
:101C9000CEA8AC693EEC4E6489BD4D2352D5B667E3
:101CA0007B7FD7C1B9138DE421F00C31C8214D954C
:101CB000D59E7A124A7C707B045533E1ED83C8F2DD
:101CC0000D4B5448EFC48F479B129E07EB13E8F46B
:101CD000E90A29D7D5DCD7B717C15FD5C2B9212802
:101CE000B0130C6841112EFF0701CAD4BCE4A4CD87
:101CF000951974E37B8A7926FF1705F15DA6663393
:101D00007D47EAA9C35BB3B91A6345E8663691D04B
:101D1000D25F59841478CB08E26A8464A3C9F2398B
:101D2000FDEB55C21AAD615369495E8F269BC8DA37
:101D300039F7F891E9B57560156233A040C431BC3C
:101D4000E3524A0210E28AFCD8BC8638FD37BF76DF
:101D50000BF962F9320E27D018FA964AFCD127F017
:101D6000A9C40F655E3D8B0C0C3EF7F7305D44ED6A
:101D7000A7B7C1DEF9A5F1918642E152EDB00FA6F9
:101D8000A7D94E7039C56058B6E39B0015DE25C251
:101D90009E09D25DABDE0D423146960E1838C1ED7C
:101DA00051F3040932449B6872F28A95FEA14056B1
:101DB000E7736C57A2637A48A4F7B30D9FF70F61DE
:101DC00055B1BDE6D0D2372AEDAB67842464A43484
:101DD0001C7FB2B0B705D1F3F89158C4CFB3C4E8B3
:101DE0004A904859B3B5AD940223DC12920EACB4BC
:101DF0000E752BD21263F54277E308FD13C6F1DEB0
:101E000013705857D5DE3279A36A61B16D40E91776
:101E10009271ABA36FC51A9F07E223C19E24E9A26A
:101E2000BB9146BB064E67ED81D5222C7ABEA60338
:101E3000627F968A77EB28FE502BF508AD45D46576
:101E4000184800B72AEA34388B06B2EE14C5787CFD
:101E500097D605E22AF23146146AE374E95EA9EDE9
:101E60001796ECC0A1AFE72D202067F298878A0C67
:101E7000A781EC5A90405685C006DFA85AFBED9822
:101E80003EBC53408C8BA58455B70B6D88C0A665AE
:101E9000180F9C19266072B5E0091518BBE305F40C
:101EA0005A2483C7FFE8A9F86F87A077EAC061B416
:101EB000D26ADDE1CDF113EEA0A4FE7BBCB5131315
:101EC0009BE610B0BE18C1D6839D81868AF1B59479
:101ED0006B8D7B127EA0B5487E9E15B747222A984F
:101EE000E027F5FB171B90C1637F53586691FAB04A
:101EF000D977877561B0319043E01F09E05E38EC17
:101F0000EEED6A66CD7FFE73BD3B750645DE0A8445
:101F1000DA0F09C8D6EB879E51A8B672EA860AA4E2
:101F2000FF9B5D5FA3D037CDD98E6D1F7C0E9FD6F2
:101F30000B55E1C890FC3B828315A843A3ADD00BA1
:101F4000A8776C05286F4C3C041D77D1936300453E
:101F500067291DEAE251B06713A16B076F126DD1BB
:101F60005AB6DE1C45205F06243EE1CA2EFFD4DFB0
:101F7000B3876A107A0B92BEB6AA9143DBD0AF5BEF
:101F8000A42F28545D2E88027979C392717A48CAA9
:101F9000183761D9032392B7A64023B5324CB6AFA8
:101FA000CA8C61F7A58B4C97AA63EBCD91AB7A7382
:101FB000D5DAD725C176B654A916174A3C06379A02
:101FC000098D5DF73264E4A8DF6280E411B7635BDA
:101FD0004EA007895AF6FCA7B4958CB691754ED3DE
:101FE00095CDDF32D194782B13D6C4606EDCC33D1F
:101FF0003ABACC8D93D9812061A9CD58406F911800
:10200000E5A2F0C16E92CF95E862A89DE7A284D8C0
:102010005762B98DA7EEA4E5B694934DC147ED9CE8
:10202000F1F437B65BDC7703BFAC4DBD5E37A56F0F
:102030006456C14298FD0184D0531C7BC80CB3EF99
:1020400080B40A2E4F2E238511A370AB7F2909710E
:10205000AB8525346E461D794F092FE805794FE091
:102060007A5771AA9380D1E987A1DB38EA81078387
:10207000832D332FCA9F69F6AC8D8348C4B91EBD2A
:1020800071F0A9654B0D9706758D03ACEE759EE456
:102090008597BB758A1113FAB9FCB84DA72BD309E4
:1020A000B1A86DF00397ADDBE38933D018BE496E5C
:1020B000827FAAE10C3F86361FD20665036A6D0552
:1020C000D773844E0D8DF89B5B8D00FD220A374D32
:1020D000E9B3CDABBEFE252E2458CDB29874FD6376
:1020E000DCA8F3C28E78CC0D059FF5B297DF93EC98
:1020F0002727E1156F9A91882C048F172EFB1778EC
:102100008C15AC07692FF5D4ECC7171179F5926FD0
:1021100030CE3D196D8DB44A2A85DE413A8A69E98F
:1021200049FF129E113404660063D4AE243E372268
:10213000291F27FADD8F3A4CD503B5FC1512BDCA0D
:10214000008E7E2BD94F0B6D4D8BDB5B42E97956B0
:1021500015A367C935C9D6DB1CBC5F1A7E5C0A1D96
:102160003F691CD68609E688BB0140C2671BB8FEE2
:1021700093AE2AF11B1B8B3A36E9AC94FDD4D36A9B
:10218000FBC25BF562A4E21B84035F241C4C7C68E9
:102190002E757E5FC1180EBABDC2B0EC07CF11DD3F
:1021A0006FB5BFCB2A06703596EADA097A68937B59
:1021B000435902C09857C8D7697826590E221C7E09
:1021C000B49A63D734C7C658675C054B2A3204AE4D
:1021D0004B68FA8918EFEC32691C2FCC2BE75DE7CE
:1021E00065070EC1BE0BA5B056C68DFC62620246E5
:1021F0007BC0E261519FA819DD2E74914310F29DBE
:102200001607F7E09BC6D293F3E141D827F3E7CB5B
:10221000291991D41D17F6820DDEBB6474B1092112
:102220001E7713EEE3399632C2E43778E93685EC4F
:10223000134917E0BC3718A3F17D35FEB89E1A9BF1
:10224000F0AAD121137279D391678D0C706D90E44F
:102250001ED92749FB2B6B1E23DD336BC37721E18E
:102260007223283B26D5A1D25886BD9D75E11084E6
:10227000DC1213B21789BDB67DE526FA155C7AF437
:10228000F289E65358A2DCC9D82F64E34629EB77DC
:1022900011440E31B579B982F3C15CC7D8B1E27E81
:1022A0001857B172657C279D779BA32284B602B92B
:1022B000363BA4E9D05F29ADC62C54364878780A5D
:1022C000E89DC164AC3C7164B88B772B973FCADA48
:1022D00083B77F59B18A17DE57EC7ED8AFAD3CA4E7
:1022E000FA02996F19AFE38E2C9DC6B621C1B7D003
:1022F000165A402331D42E90F5E13DE7CB9A715028
:10230000296AD3139C726BEDF9E121D8DAB2AAE302
:1023100051775E53F8FFDB25144FBB0BAD84DD60B6
:102320003D29155AD5173E960646851755A5A19500
:1023300081CBBAB2D84D20ADAABE31DA8C25429AF3
:10234000F2E6A3B3A488EB67CA4CF17732F4FBEC56
:10235000F9440619766BAFB9FD461C82E2B247D14B
:10236000A0316246B0A5025C356ECEEDED2BC640C5
:10237000F3CC3AB8515AE1B63CE53DAC78D2DCBA80
:10238000FB98CED6297274B250D9F3190F388AB897
:10239000A3227CF3FD04ACC2A01E03EA4576C777F6
:1023A000291B61A29C70D9726BCBD930C45040C23A
:1023B000240840B80F935BE028B51DF6E625347E6F
:1023C000B803D47AF5C47D3100C04E3CBF9ABBEF50
:1023D000EC7D0B4CD8848162806262B752B85DD8C4
:1023E00016F1E8CACAF47CD8927FB65B593ADA583B
:1023F0002752FCA683F8B68420B6DF31F742E2E22A
:102400006110C38D3C2194C938EB08276571A6C7BC
:10241000BA2B5ADB71782A27531376AA14C14E5768
:102420004EBC2CF64979530729F7B4F7EE11EB2E81
:1024300085E53F43BD2F65E4A6E2C7017CFC7750EC
:102440009D6A3E083CC9361546E8FEDB09933E4EC0
:1024500098AA440DC5BFECEC1D89797EB07E6D5500
:1024600028949421717CC42FE2BCDFD371FABCDCC8
:10247000F1CAF2D894975015B27E0BDB34D751FED7
:1024800039C493031EF408DDCB380D27499F1ADBAE
:10249000549E12F5174E67E0E99A186D838F92608B
:1024A0000A42C773C991F77148C112F7D253BEA748
:1024B000D74EC7E6EBCFFBE277FF626BFB877494E6
:1024C00073FA1AC4FEFC738AAFEF23FC731B6D030F
:1024D000552B0C45149EA113E0B2062ADF611902A8
:1024E000CA38D2F9577800C7E2ABA55463E506C8ED
:1024F0000492F253090461C3D9EC956C0192B21CA9
:10250000AF387D2F3EFA0D893964DBC01F6CE68938
:10251000EC96671AC7D9D5FBB6269C2CC2B00ED450
:1025200099AE1087AC2E69ACE2F43F1B270A4FB678
:10253000977DEE76690EC3750B46D8F8AC43790FDC
:102540001E9AA494AE985700AA63EDA260AD45E52B
:102550008DB21276309BA5E547E2487C8D87FD2E33
:102560001427A1014DBE50BD8AFB11F2DD35A8DF55
:1025700051CE9464607BDBE672FCEBEB29BDA501D8
:102580006D23E8E870F8888A4AA248D29DF68B3F0E
:102590005E6E93827F0719F42C11E7388E1659A0CE
:1025A000412A8B919DA8BCCEDD6017C15F136B7271
:1025B00080B5834D6755C5D992590116BDF6A1D690
:1025C000B391A30400A94CC94CE06978A4E1D623D7
:1025D000D33F1B03366FC505B3A87B16E2005666D2
:1025E000DC3E083801C49F25742C64C19F468EC40C
:1025F000B740C325D450F90D54F9953DA2E59E1975
:10260000C9403737CC877FE5EAF13699AA4D26EFE6
:10261000A775E201C57A72EFE2AEB4B7FFA52BB899
:10262000927C273EE1C3F02D88657F43BD4DC6BD3A
:10263000E18B29F36606F50450F28247C7185A7BEE
:102640009B6FA6F952F278685C39298B75B897921E
:10265000DF9C052AB7115AB944762E66812E964F13
:10266000CCF359D9FF883D06CFD1E30C19F2E49998
:102670006AED17805261248F703B04FEBA2E7707F3
:10268000256C4F897602C4DED646352A4DA6C2A3F4
:10269000D9F04BBB14E7BDEDAFE6C6056553C2EC00
:1026A00099C3FB2434D98F58FE6135CA4C228CDE85
:1026B000F508242F03B10D47888C21B45C88500B9A
:1026C0005720DBD39B29F10A2BF94D3700C29AA37F
:1026D0008970BEFE28AAC5E6EE994D30463F5BD311
:1026E000FCEAA35050E789948E47072D1ACBDEE30E
:1026F000B74296DDB42FACC09EC4498555FDB57F69
:10270000D8FFEAF6870AC573F9C68C0D51CCE8AF3D
:10271000978ED4D9AD89985953248E415350A32D07
:1027200033164120D039356D0DB43089D89B42F332
:1027300046700991416C470C07D67E7271D02A957C
:10274000D758398CBF453BACB42AFB365C19B10372
:10275000391584B34B975C9B3350BFCC25BD7C2986
:10276000009B5B5C19CA41A28D74E0F36EDD516F72
:10277000AE488833D528183A6495293CE72292F56B
:10278000EA62249B29277D0B809A4E65B2A4885F5C
:10279000D906F2B51ADDFEC6E6F6CEADA62B992017
:1027A0001173A637CC874A82B2BFA95AC9414F5488
:1027B0008ABD5A06069C791ED855341138960816DB
:1027C000CE5800AAFF1BE3912695F561BF882550DE
:1027D0006C1197C177527B6C54C13FC48C9B618153
:1027E00075AC199591228563D1CF2A4F396C4D98DC
:1027F000F9902318D776FB85C70B20E69C2426BCCE
:10280000039BA62B51673D386B8EC64EAFBF20A2EF
:102810002CD5DDC6A1B4A059E817D80147B2C3B67C
:102820004FCEE4121C52053784AAB9DD75132B2C48
:102830002EA1D8DB6897EEC319958A64F2668324CB
:10284000174F0AA810494EA3F90D6C7DFDCE91D902
:102850005DDCE136C25FE8D970E67D3399AA5D5B45
:10286000EE7CC94497D65ADCB67578BF21997810AA
:102870008E5BFBDCB7DABCCF9696FB6786259FCED6
:10288000C670AE2116509D4AF459CFD185494221D8
:102890005699E6E26D5F3AB86729F277783052C50B
:1028A000262DB98905E01E280973AFC27CF20DC63A
:1028B0007B4F565C673D4CE21C5498522F98C6B82B
:1028C000561F67AB2DFBEF005D993AD3CC137CC844
:1028D000421E468C03469F5C477FE72BD26ED36433
:1028E00045026E8A8762ACAC14566ADBEB2EC7C910
:1028F0000791819666DE16647498A9B700FD921E52
:102900001D6D6B99CE7B6875ECB903EA2844A1E391
:10291000D57D6BC0D019ED821C46377928E96B2C28
:102920001DE398D6F022BF7E479A0AD18802FF772E
:1029300034916F9BF09CC8AC0B15F1C9AD1A2802FD
:102940004AB2BAD3C13A61D702FA84B55FA50D374E
:10295000CBF3279CA9BE2DD0115CBFA50174F9292A
:10296000085E8A0DA17761E11C59C134EB5AA8F2C7
:1029700076439205AD097A5CB4B2802125D7A94A85
:102980001BF45FD3270ECE4EEA51746E0D5D6619AF
:10299000551A6B07606BB6626E009D9D22C8951B31
:1029A00019EF573539925A9BBB5FA6D892BA1C4192
:1029B0008D6D0F24AEF921864FB01B304D1186C2AC
:1029C000C263B040513C4500EE3A4F5DB4CB426823
:1029D0009C5EB2A3D7AABE64A8261E06619727D71D
:1029E00019532233D2509A5C94E80A0525BB48E07B
:1029F0009324AA9447C8A00CA6A716A204D54459AC
:102A00002E23B34C4F000009FF00C266BBAB745DC0
:102A100053C2553C87F150A7A6A5BB16D56721A97F
:102A20002D722639A1A59B9E7C92E65B636B569521
:102A30002AC56DB3EC7D159C3B89959F118B277939
:102A40002BA136A9761383D46BD61EEE97B580CF13
:102A500012237C0A20FC51F2B72CE88F3066C62C7A
:102A6000B2830622F7461E75F37498D092CA5D9C15
:102A7000A49C9074B5C1357B4403CA45B722C637C0
:102A800073BDC208A8F74592A1E55E91ED5A35588D
:102A9000AC54C8D26B3264F9F85E768126C2E1DEAE
:102AA0009A4B6B44FDB35D3EEE0FE926FF17D6004F
:102AB000A646C1E3104D73CA6AEDC467CD25141C48
:102AC0001EE79A9A622168C062400DB89A06AEA7C6
:102AD000D13F3C2EC5EC4B7CEFAAC573C1CBF8EEC1
:102AE000EB74B93F666DA61E9891A0686361566845
:102AF000404AE5F6AF7FB7B71812DA437F72050890
:102B0000CEC6196EEBF9E965978328EB7193166FC2
:102B100025209F8FC802047DE800F04480F97DB92C
:102B2000D4DF7D37090CC32DC2C8EC147D080529FC
:102B30005D4A180782E6B85A65283E3C59C1D4B2AE
:102B4000BF4E648A84374CFAD1AC275634D5F71A75
:102B50007DD2C68B9123CA52CAC3E307F8DD9A0E11
:102B60002E9CE8E830D148E7CF7F29230FDAE66CC6
:102B70002F0942B83073321374A7F3AD33C7C9902D
:102B80006EB877ADB5D2D2AF4A38A765F10278CA30
:102B900060445C00D6A9546A4A4F1F7599CA330134
:102BA0004C449012BCB6421218F5C86C90BDC80DCA
:102BB0003432B6E5D190AE1BD9C7400D1C9D4ADB1F
:102BC000EA402F5DE1078B7557D32B1A7B112847FD
:102BD000E55AD8AA792498A8556D7DE162A05E08CF
:102BE000E8B828EC3BC3BA52166831F4CA30FFDCAF
:102BF000AAE9F6E3491C37509252B6ECB634D687B0
:102C000094E1FDFC7B2A80667E63B3D3F608998548
:102C1000F71EDEB1C7C724889A696553C7633BB204
:102C2000FEB471FCECEB248338BC687A52EAB064E1
:102C3000071353DF09FFC4BB30E88971065AAF9A06
:102C4000F910227B93BF08EFC756D46110F55FB32C
:102C5000D8B5835775961B07A252899DC398633BCD
:102C6000D5B415F6B77280896CD3F9A65B4D9F5920
:102C7000C506B0EC37EB53FC0A0E30D39228219CEA
:102C800052B1043E4781A948D2EBC3B5947D166882
:102C9000596EF67E0F9BEE102158715831AE6F3C85
:102CA00095A5D6B958A85E5A0D2F617CFC78AED593
:102CB000895325ECA4ED3563AB7889278937589281
:102CC000FE20EA0AE7DBEB5BBE2C8B4B45B82DF907
:102CD00033DCF99BCC80D4ED810E8BE79C40C5C5DD
:102CE00097656AA941EF894319C43C426CA6E65C2A
:102CF00050F581C2F27F422061CA97B701DDDC0C3A
:102D0000ECC3959FDF6816017A1E89FD95641A65EC
:102D10008D183EF70B78C8A35C6A4515578A9ADB75
:102D2000489BFFBB3BAE711AA9DF368DD05526FB01
:102D300043C273855C226DBA19D8C7AAC015DDF4E9
:102D400074E8C2B7CA065D8DE741FE6A061B51C032
:102D5000D6A5969D73306117F770C71EA142EF0389
:102D600078B53DBF220B13632B714B78DFDA9D5D85
:102D700081BE8010936B5E40774977992A87080857
:102D8000FF50A34A600E38C6F1B5CA0EDF36A972ED
:102D9000D86127D8C89A75346A2F8E4CC279CA86F2
:102DA000A53F3251035526D96072CB9792725FD0FE
:102DB00068733BB3A97201FC8DCCF9DE3C26BD42A1
:102DC0006A5D0EA857B664D5B4B055DA85A93596B4
:102DD00044752C0C35176A833E8FAD8F93B27734D0
:102DE0007B1BD926A545A9CD46E48484605AAECF85
:102DF0008CDCC8CDF2D1437B94B3EC0BDE1A543596
:102E000081476B8107699791223679672A529C62C4
:102E10009E0D3177A926A5E92B179DE24BCE0F0E0B
:102E2000F8EBA519872B52EF7B3BB8CF4D84CB7DB8
:102E30002A13DCE00A1066D2A8A0063C91478586DA
:102E400073D4737276704B12A29381B6B86F02334B
:102E5000D4BE8593F7B1CA223ED7EEFB654D0C7CFC
:102E6000814BD5C3B4118B7E5AB9C6FF56B7FA60F1
:102E70002851DC971244320629DBCE2AC68B47B78D
:102E8000F59356BBE1F7BF76CE83AF2A699B4A48DC
:102E900054EDF1E16B7C4E7FC76269359605AF1545
:102EA000B1A24B81C15FF7591CE75F1B555FF66606
:102EB000568EF1A02B8E8379048DE919E201FC95E1
:102EC000BD8BBFC60F390EAAD34C0F26614CBE99DD
:102ED0008E400879F9D04A179D18877D4C1C19AE91
:102EE000B40837DB27D93A8322C7CC22D5B4A5183A
:102EF000E7BFCAB4944EDACDC715364DAE916175B1
:102F0000AA1867C0A339C377D6F8C0647BA4E95276
:102F1000DCB60A669692592546166B45688E004ABD
:102F20008A1EFC847F1CDB13FA55D9FDCF4658223C
:102F300047F544DAA30F3DFA49590E653C5D046A32
:102F4000E1695EA80019FEC47700420CCE68FB134D
:102F50004745F63B04200B43C5242BDD53313CA5EC
:102F6000544A5C41A136A01C83FC14D3462457303C
:102F70000A6CA9C236363AC97B42050F693FC018B0
:102F8000E4EA4F002E6F1819C2283FA94A37B1FB57
:102F9000371F8A21083876D669ECBF6C67AE2E4899
:102FA0007B4C5395A29B19118EC567F5BA31EA7116
:102FB000A2CD9476A488512CF9037478E5BCAE04B4
:102FC000E1DC5762AF34F0E81B0E5302F1E2B8BF08
:102FD000FC72036677264649F4CADEBE1A95D9CB41
:102FE0003B15211604A418D0267917EA2313C457D9
:102FF0005D6669FE1D4BBDDCBF6AAD6D37B523EC68
:10300000F4D5AC2951A7A5F9F617FE9A191F6E70D1
:10301000819C30E01BFE5B5A9531D600BDAD65DC6E
:10302000CF17A823406FAA576849461687F850ADB6
:1030300055A1699939FE22918724C47D4B4B83A801
:10304000E0E736AFA0DF4C773904C3323ED95E01EA
:10305000FBFB37E0AE60DDDE2EA5305D366F38D28B
:1030600036F00854C7383F528E47A2D87FD95E9DAC
:1030700021343E4945DCD0AAA38831B9848D06208D
:10308000A769F66BE0F4B7489F0D8C5D0B56B1D085
:10309000489FC35DD836F42DF26C91169E6F0B6E6F
:1030A000E1379EDF9E74D285A8D4625003E5204D9F
:1030B000B8BC1F3AD017E7335B408AC2269E3C0D4E
:1030C000657580C5DE85C3317B115DEA0CBAC854D5
:1030D000B2E5D1FE91CB2B7DB04B94D633A7356DA5
:1030E000FAC59AF3034481DD7CCA06157DB515C285
:1030F0000953FC82E263CE1D303EB91F3AB7999D59
:1031000097E32B25B7AA2117E8D064F453F749DCDD
:10311000DB6FEEEB4EFF0D735CA2AE88504811835F
:10312000E415338FAC671BCEF06A2DAD6623371DD7
:1031300062DF459E6231FDEB6F8DF5F738C8F275A1
:1031400075FA97949B76763E11AE92AAF2CB052B38
:103150008F50977FD798DF03A8244D6D59136C3596
:1031600035EBCC669EFD15A5A0FF4132183D658369
:103170007FAD740D38071FDEB683CD96A27E38551D
:10318000EC649237B497645C25331E5FC30DC1DADB
:10319000851FE43D335BE7D70FE8F2C55FBDBA3D5D
:1031A000ECB67E1F9730E1D2FF235EE0E1303212B1
:1031B000F49B14543CB1B79527CD7B4D6C4DE21276
:1031C00041DAF6A81541D6907234AD935117059E99
:1031D000159B09A2147C32B854537C8419CE9C29C7
:1031E0005A1144C48396C2F16C9D01472901F490A1
:1031F000C5003EAFBFE3530D41FC12ABAB0377B349
:10320000881B2E3CA1FA9A2D13685FAE283BEFF382
:1032100020B4F4BCCDAC53F64A89DC53AC566F48AD
:1032200068ED6811A146DC1E760653824E0DC3245C
:10323000724E1FDD5A692ADEF2DF57163FF7E7228A
:10324000F6AED3FBC5C735EAE3FEEBBA245ACD93FD
:103250007B56795DB5F7C50829C4BCB6827D405D53
:1032600059AC22134185AE8D5161CF83DB3BE00821
:10327000C91E5CD659ECC05B8B1145997B53A32BBF
:103280006E9E420A6166DF8B8825725CBF95DEB94F
:10329000A232F4DAF81609D56F7D35F0CB9C558350
:1032A000D970CCAD0EF7AB97330495489324668E56
:1032B00021F00DE273AE2FF57E4C90CFA1902D69D9
:1032C000C65568CCDC6A7F7918C7C7A5A2ED94B64D
:1032D000D0628C636D084A9FFA8F5DB1F4054E7C15
:1032E000D0CBE46E938CF00304C6009369212E9139
:1032F000338DF5333BAC3801EE39685C0BA6F743F0
:10330000D1F4698431FDF3B187DA0BDAD584D2BD0B
:10331000B0A1FD3529E6F1A36CE0057C5C577DA6E4
:10332000E281B5E45ED7F39893771D626279DB6C36
:103330004BF294593B7DFF2F5FC0D9204A5DD69553
:103340002B8EA178EEE6A5994732C7BC8DBD35CB53
:10335000345A2C99E405280B448628BBAC52D7A0DC
:1033600098511C6CA6939FBBFDC2BD006845862E7C
:10337000487FAE647115DB8A919C6264F1FA29BAC8
:10338000FF3C7121E3C7A6BE9A2B90265DFAAD2CB7
:103390002400B8E1F21845D88BBBEAD14A9E414DD2
:1033A00060BD31B545AD334628AC1451A007931428
:1033B000C898355C47C05CBFA7368DCA2F13275FFE
:1033C000FCDFB04D0595ABEE114B13E6E85F151829
:1033D0003925E6631B7124808C10E93A188529622F
:1033E0000A8659C1144D2283BF459086D8609D2816
:1033F00067481B6C8E8620BFC2899DF731B11A3594
:10340000B5E2AFCA76A398301B87DAD3DD1E2ECE85
:10341000BD8F862F6743CC7A23FD8BE8D948CDE456
:103420004BA17A84A9E4E4BF7808903488D0AC64D6
:10343000BEA9A372D343ADB4EC186E3FD7754393C6
:103440001234666C66DAC5FEE704F5A7F209FFDA06
:103450008E1AFC90A6114D015803EEDA48EF3B9509
:10346000764F0E09F696CE6F00321C289656163609
:103470004CA0AF3D3C2A2E144EEE3280A3D531EA4B
:10348000870AFAD99974E9FFB73132B5F68DD2536C
:103490008C41BEE0867D990C528D4A29EAE9DE3DD9
:1034A00053F5F40E6E23249021599DACA58C38332E
:1034B00060EBDE20D7B050A2BF1BBDDB237040BB4A
:1034C0006CD65BE0BFE6F56ECB244BC252A16BA17C
:1034D00016B26400E3119C64FA2230F2FC40C63458
:1034E000D9B4082E8823C095247F4B937044764A24
:1034F000E62F420A8D7482AAB980AA3D0EF6D057F3
:103500000AA5F0DBEF5719890BE50599E63C233056
:103510006B147C42DC90367F1637CC180DC1D47901
:10352000248BEEE0F432D6B946CC2052FCF435C7F9
:103530008721C3AA97D73878626BB41C18737C8133
:10354000FC70A59848C7D8E54D5F04FB9A545C2DE4
:10355000F0BF661F03630A69C62C43D7E2E25DDE53
:103560008C7A1FF37CBBC645EAC395688C4222F077
:1035700017B8A282DB729CAF6066E482D675D87CF5
:10358000F3DAD7481E1538F7932E4ACB09FFD13FFF
:103590006DAFB7EEC13A821D8EBEF5FDB51E848CAF
:1035A000D583AF2285A39B2287AC29C603A3A64B54
:1035B000A7D6768BCC71E21A84832CEEC7B042D1A9
:1035C000AC2C364244F9E850DD5FFA9C784C1B99EC
:1035D000CB78B3085D3287521B31F00FE1D181F017
:1035E0002026BD89FBB6D1BA1AE2C5FB849BAD8506
:1035F000D0E3BB3030F42D170612BE668EC48BFCB0
:1036000002FFD58196C2E3430C46BC90D33CAF7811
:1036100049D8AD7760CD0C560A71D87935A1E88BC1
:10362000905F697CACB82809AD366660A7031C21A1
:1036300086B3820FE7FFCF1055D4A7651001A0AB6A
:1036400070E3C7E4E7BC199A8B01C7C7ECB37B836F
:103650001E702DF745528F0057BC74C9A9E85F5CF6
:10366000965F576B108E9CB058E67719713250C434
:103670005C10959BEA6E6D682B4346572C0B7E8041
:1036800063A4601A840C35BA40AA94B1326AF4CDAE
:103690004859A9AF0E4B9F59FFA3B775812A060D54
:1036A00060B85D31F3BFFFDDC39428CEEB825E6D61
:1036B0005C197C7A7123398D34CE5B176F0BF42F34
:1036C000223319DDC3AAF7439FDAC642C45CC5940E
:1036D000D3E91A0DDB0B275191BEBE36DB7722B73B
:1036E000F1BB717BACD29D5A6F41AAAB7D4163881F
:1036F000EF5A565B6DFBF173E29B4AEAAD3EDA127C
:10370000D11BD81786011E444DCAB6335FED48C1A0
:10371000518629E3A6FF7CF3E235B8E3B4989B49D0
:103720008DC95C19030A1E3EF2B55B10A8885AEDDC
:103730004688047058953FF335066D6860CF98F45D
:103740003CF74D33E2BCC1DCBA694E739C3565E68B
:10375000C25F37FE090B766EAABC392A52434E4A25
:1037600065E6AE9AAC7D97B167674DF10104B13360
:103770007E6F41C0B61D02230B547DA8AAA3B01DC5
:10378000F271B765D68B8AB27A17B90354664FFDCA
:1037900018C1FF2E6FF5E442DCF4C991CE7CFFBF67
:1037A00082493B43DFEF54557FEE1C362C3D19AF69
:1037B000A8CDBA5CC086DE1FEB28DBE62A13BB7BF4
:1037C000ADB5499D9B648FB982250FCD16EB47ABF4
:1037D0005D704E225C5C27D49B7FFD7B2ACC2CD471
:1037E000DC20D7251FCC9B79676158DB8167A2D984
:1037F00058315371605EBD033808CB80042D32FA16
:1038000030FC68AA33EAC857CBE48634BDB7CA8611
:10381000BCF122130C7FDC3891D6F23A10426CE7EF
:103820009EA1742C4778124FC64BA59AE90C263BF3
:1038300067862D5832CFFC4CECA14A3B238A51F8C5
:1038400066EF66EFD8800CF94FC5D229FBAF399AE5
:103850009C493A6194EE33A08163DF9DFE8A05C5E1
:103860000ACAC17BB4E87403F38F52B49168731F22
:103870009EE0861AC285EDDA110679B136262A2134
:10388000648029B84C49272A0A5A192827A4277581
:103890009E7725357EA0DBCE13B78C8E8727D1404F
:1038A000E98BA15260DF1F4A89B2746D8DF368D92C
:1038B000EB99035291ADED43813305B400100A7FBB
:1038C000A73EA635EF4A57145DD3223137B485A6FB
:1038D000574AF88368C78DD211A6F864529768FFDB
:1038E0003CD22CB3605B987185F8C681F2AE526011
:1038F0000961F665801983E96F141574A393D1FCEF
:10390000F32B5560C251C77C3A1DBF044ABE0F67F6
:10391000F3D94F957468415371D399B2D35073CA98
:10392000C37BCE8E469EC09C672112A7E73EFA5409
:103930004DF6CA5DEC70B37C7C1ECF397A0FD0C2D5
:10394000FA1E94091AF36715076A435296BC3BADF9
:1039500001DD73FBE3750F39D41BC3D4EBC91C0025
:103960006F0599ECC4433C4AB192A6132556FFF368
:1039700003379443C9427BCBC9057FBF9F7D783A0B
:1039800049839549C70C5DC2E32D5719D4BCE88023
:103990005CFF81CD0304CF266905AE7CF9F9F0DE2A
:1039A000A4A6BE86BE05035AABEE1B310D394AA252
:1039B00062323434E4B846BD0E69E0D4D2948EDC71
:1039C000BF3BA0262F85CF0511FF13A33BDA13E6DB
:1039D000BD4306153252402D564AC9649B5B9A413D
:1039E000E4D4DB736148C4BBF007FA89BF9EDBE710
:1039F0009BFD12B7A036CA35E2F1837194A7731408
:103A0000A5C8D303F3A3C7039C5AA45CFD000DC64D
:103A10004E5D88812196E58E6DDE55960166E02229
:103A200017BB22A7AF3549E3489D229B519105F86A
:103A3000231DF33DFDDB8A3A06CC8AC3D890DA1EFB
:103A4000406B3B5B7E20FEC16171F64AC0616EB285
:103A500041A2779D8679D52520CC07B56AE13275DC
:103A600089094FA3DC17CC4C308C2392907CDAFD73
:103A700062F5E7B701C72915193FDAE01A98242C37
:103A80008B192C52105DE5B1BC3F0D8A12478BCECD
:103A9000B9BEAFDC697B036DE5410D54ACA060336A
:103AA00024F6E09537334A5F50308C6F540C413E1A
:103AB00094443FE55CE7D7EE2920E65CE5A52BC4FE
:103AC0005C187E9E52E3AEF3268060D600187B40E1
:103AD0008B23AA7AFCF0C9BF14F757D9F569A1D88E
:103AE00015ABF63C12E59D76E68EB3DE3A244C9398
:103AF000381A5A916165D2A2E9F2423E48FF67DE68
:103B0000848D615273F5533E6C49E3F05BDC668251
:103B10001F6A17C3FFBA3EDC4DFB2B008592DC68A1
:103B2000E02DF50BB0AF6414DA1026DE90BC110561
:103B30009B7FBC1C899BC5463EF1AD8C0E18F3588B
:103B40007A6EF6F283200114DF737F25A960212DA0
:103B500060A2DCEE0CC62EBDC341AD26B36FB835F6
:103B60001CAB843A625C6BEBDE6B86D314A7E86F08
:103B700006A8BDF5B8DA14210C24D51043A41E2BD9
:103B80002B93BC4A51E5BADFC6F7E6CDC916B6801D
:103B9000B42FC848ECE8328D92CCBBA9077E6D5596
:103BA000C07345E8C4217A447EEA65C9D52CD4188F
:103BB0009734E45039B65BE729692562D6F15F791D
:103BC0006A0EAFF285C7C97C297446807888D22BEB
:103BD000FF0AAB39E52A7DF2192F0F81EDD285ACB2
:103BE0003529980B1E723629EB7747C10667596D48
:103BF000178DDEEF4857D73925B6753C582630D19A
:103C00004828B948901AA0F600CF7046B43ED7AF06
:103C10001AA8247FDD11A0A12D051753DEEEE9B40B
:103C2000B05D32D846B28968B0BDF2C3A46CA810AA
:103C30001AA545B9A4AA7A36820409686E1B2C78A5
:103C40007D081E04A02D3AF6DE56660CDCC224A0C8
:103C500029CBA67912E90D291CFAD63402BE916D42
:103C6000FD9B855EFB76D153FDA19360CDF2CA101A
:103C7000E13F034F49C16898D56EC7038195D9FBD1
:103C800066147F794185B496551B3D4BBC4DE8B613
:103C90005645D08538D5A24FCCB69650A95C7B82CC
:103CA0008A4871BD66055CF67E39FBD971FE9FE2DC
:103CB00030FC509C0E6181C2DCDB914A2DD209BAE6
:103CC0002C1962C8B83FF5650F154EC73D20158BFE
:103CD0006138B371F8CEC6BE83850AEC4B37F60463
:103CE0001835AC43B81B65D3FFF2AEEA95886E7AFF
:103CF00009033A370D57269B52D1058AB4D5AAA796
:103D00004CB5C4F386888E7F20CD566BF33CC3F848
:103D10002E0DBF765DAB5ACB16E23459FE1137B883
:103D2000B0732692B2F8B8FBBD098AD5CC652CA534
:103D3000C0D9647EAB1335982C902AEF4A77BB70BC
:103D40007A1F3D37963A0EA3A819A00693754478BA
:103D50006D1D94F1C7330F6E8F1FD41CDD18C5C5C0
:103D6000465A87E60BFFE86EB9BAF667A412F62B3F
:103D700046E300A018BFA0EB5DD38126D7567C5A3E
:103D8000848E4649A0EE457BE03A80052A4127A271
:103D90009FB1DC176C842C4AE8CACA6EF27C2C2FC7
:103DA00070149857947189FB08BD79325A81B946CD
:103DB00055486066AAB29A914B48FED487C8EA1E5D
:103DC00013B4C41577791C95AE66ED79E31CC18DEB
:103DD000E7391D7BC389157F2D4DC09F3B3845803A
:103DE00055609B18652D99F3A50B2EF210CC025F40
:103DF00058799009270593B24D0A63405AC5FD4A88
:103E0000299FAA99B6BDD2AB34AC83885007EE790E
:103E100007998B9E9AC25FDBD67B2CCA6672D9AC9F
:103E2000790AF25D274C974644565DBFA73E1613AC
:103E3000062D08B7E902F13091C9D70E1230D47BB4
:103E40006054AC11E37469FAD6C88623D92F92B1B5
:103E5000DCF8B251FF0D3AABD27291316008143CDC
:103E6000A7F859F64DC5707DD2F18F5B00A6CA89BF
:103E70001DB2F4937357EB8FA0477A9C1B2B2FFB3B
:103E80004F66ABE4486CAC8B7705370AA817A405DE
:103E90003814E51DD94A1BB8A51D26F507E5FF53C3
:103EA000F625EDD0081BB42A21894AA1BE3090B76F
:103EB000D0FB34AE3E652E2CC6852B162FFAAF19DB
:103EC00037EE67210416B8682A982819D33F5C8515
:103ED000483EA9E704AD555D5C1A6B2B929213CE58
:103EE000B5A1D19DFD6E11842E9266ADD6D18B60A9
:103EF000CFD8706DE35BEB77C9265D7F59CA01347B
:103F0000AFE0B166EB8AC46D2C3E827783735B8C25
:103F1000399AFACDFC1129A01601356008EA7AB069
:103F200053B231956A44F40EE30051446A911AEC9D
:103F300008088743D566BC10630100DEEFB4CA2AC7
:103F40005AA7BE74A5221021BC30A96AC23100490B
:103F50002728A712C74C363784C8E55C6B5734FF57
:103F6000A182C54333B8E84B81E18B2B3DBBB2AE98
:103F7000D43454C7527BBBDB20D0FB1359F8FBD49D
:103F8000DE0FE55166F4A8645D57DA1038FC631063
:103F900026B01BD22877EA1FFAD6CB829F587643E9
:103FA00048978898E3C72C5D6919C24E5D43C333B7
:103FB000A6055FCB29F0D2265660BF0D9846097939
:103FC000FA837E6E2D544A240D3B494207B6F11CFC
:103FD0009A572F388BF9444A2C0AF3F7628B50EA30
:103FE0009E6F5A05EF9B5148939E123EB40E3407C4
:103FF0008D6621E2AC04948FE497BEBCBBC131FC5A
:10400000F4D92EBC0AFD6CBE4251A95C5F7A7BD606
:10401000A9FAC2D7A4C1231A0594791C1FE4461932
:10402000A60961B1BC62437EBD7913F4A7101C7868
:10403000B8FB4140F476179F66768F39A0CAAFB2BD
:1040400090A78E3832DFE2C68A62D412C2232207DA
:1040500014A314FEAE55B65F8C1358669AF80CCDB7
:10406000044DE265726A92B33F06D5250D7A1C8233
:10407000B1ED918AF31C3C28CD5DF1E32E7F34290C
:1040800061F831831D2D320281B7A465A656914295
:10409000DFDFB6A66DC3D50414A17566E009030879
:1040A0009782EB0606FC34C32F2D0A4F996DD82258
:1040B000C48C8DF26D4461F84B8B58572D9FB5D44D
:1040C000415EDEABC2171D7789EE1496866B318395
:1040D00000703A8350D403A2ED34E9809C02F09939
:1040E0007DD0A6B8FA2C50A2402359D21B866B056E
:1040F00049ED14772F88529430E4434C7D84010BB2
:104100006B6DF497E0FE76C6CA6EDD8E6ECC0354FE
:1041100003A5950C921788C9B44093645AD5D2630D
:104120009E43E0C11352393C1423503EBC360095E7
:104130004EBCF3643A7C082C214C9693105946EF00
:10414000CB3A7346602B716679D14BF36E02A4E6CD
:10415000A9EA402CECCAD664DA0860BA3ED1EAA5D6
:104160000038686F2F828C1A78334554C2D445CBFF
:104170005B61DBB18737C4AC8E4C24DD82A6977EB1
:10418000D9EB202ECB462BF1509D78F3527110B312
:1041900035BBA988FA258187F29FACBEB1021918F8
:1041A0002ACA1395BD6BBE022FF325F55F0440DECE
:1041B00043CC410498FBB9F548F96CAC7AF3E65965
:1041C000F20909976DF771089B44ED153376D99C78
:1041D00012256B9243BFE7CFC5AF369A54E9B43F7F
:1041E000F030245F7EBEEC98381D1A8A0CDFCE8931
:1041F000DC6E9644E986ADEAED57896BE905825994
:104200002BF1DD42E62DB1939EDE7D5BEA169B1518
:1042100033CF7DE394201D478A175C8CA8D9C781D2
:10422000D324B6941DA351CD915AF3EA956E88D24A
:104230009B9A392A2B1016F3B68918C1E6E64ED59B
:104240007B7D1B0E273F3C00CF2D86838842FD2BB4
:1042500014B8DDC70FD0373E438660F64D839F3BD1
:104260002FB2EE292D476A68316E9D1CE9D6363093
:10427000E94D148A4FFCF5458F241035E4CE7B1CA4
:1042800029D291F79CCE090E327234EBC9435EE21B
:10429000575B81A991808F45F65BF15C9455CC55B5
:1042A000967B6CA52F1C3EFFDE33C576F1B72CB094
:1042B0001A916A28D8F596A4BA3BD76509FF78D534
:1042C000F1F1D8B14CEBE79CA699BE679945C94D71
:1042D000006A8D3C47A1DB20FAF69418D28273FA6B
:1042E0009A46DF62B7CC49C9C28FE04E6A78950C16
:1042F00067602F86FCD9D870FFB11EF62271310E8F
:1043000033D798F6DE2A75F53A82808183E813F375
:10431000129D7DD609275E8B48DED56F245F8955B7
:1043200008431B6920522EA8EF4CE5B70F68AEF585
:104330002EA3BC624C155789C557257C8AFF2D9F3B
:10434000ABDA4492FA9CA55FF3C974385B6202F061
:10435000730E441A5E21CC5FDC251553E48756B1F9
:10436000981981436C9CFE698326EA9D2E47C2C83A
:1043700032BE6998BF844EB0A450E4DEBF769B98ED
:104380001684591E32C79B7849FD9E844F2353C122
:104390005F7024D88AFF774E682DF9BC6017AB8117
:1043A0007758E7201CE573BCD81FDAB32F9EAC3FCB
:1043B00082761C37AA97447563831E2622EA02215F
:1043C0005C2E00CB902BCF96A2DA3DCE3BEC32E7B1
:1043D000423739362321C57F1D79C61F4B5BA5E3C4
:1043E00060A7AFA28696FD7F2DF5157E2A5D046934
:1043F00066B564CB7F46C1F07E76D20458B7C4560A
:10440000907EDA9C5D21600504847B2298BDB2C554
:104410007EF696B3935924C63D0B00D6057AFAA2D0
:1044200079CBA8C42B4DB31FF3029B0BC68CF39919
:10443000AD6401B6AD0D1C6C6A4796436778771D75
:104440002AA630F6456F78377A95540B0FC38E94B1
:10445000889E81D921423A613C9FAAE5B1178ACD55
:1044600070775FE7E67282F145220988A2905B2DA2
:104470001A0718187E1999C24FBC6C3D00B76650D8
:1044800053D0F7C12CF99F3CFC440CB0C4FEF21B86
:10449000B86BAF586B2B36E71AE60B6CFB905FFBE3
:1044A000C4C70F2C97D648EC213E8D477DFF84EE84
:1044B000B0AC4FA33FD33A680207C9C1E90E2459F3
:1044C000C85A23FB814C901DBB68E78397322FAB02
:1044D00005160E872D4B8C914FBBF81DF6A439D9CC
:1044E000155F8FF70855116666F0AEB9E2DEFEFA89
:1044F000066D16B58089C13E01181DC6249A934DDC
:10450000A623B89AD6CAFE3C3EEA3CFB19FAFB97B2
:1045100033179B284798C04855FA2DF347D92B8568
:10452000BED012D8EAD69401DA18A92F73244B9B77
:1045300087404BAC0576D99619F7EBA8998AFE818E
:10454000D2A258E9454C272595F453A3A581FE94A2
:1045500067A5990E2C874B5D612C51844D8379B7EB
:104560003DBBD0E9DEAA066131168872E7C9F9D4ED
:10457000BDB93ACA9123F9A278DCDF7C8EF2D874F7
:1045800036005EC80E1CDE1432353F885A9C9D12E0
:10459000329651B3793F9A45ADCBE0B2D7FD636611
:1045A0004352FB0B96831C8400D2CA70620C2E0E01
:1045B00092E85469AA83FC82A6627E3EF9D4DB713C
:1045C000EF864BCB6BFF4FFB22D03576D094CC4D92
:1045D000545F5BC170C95CA17B49270CDEDC8BB0EA
:1045E000D8EE90D280ECBD8D28CE76DC4E84E7A14B
:1045F00004BE92958FAC52A9DAB102F23B71F789F1
:104600003E216815E080E3DDDAB05518A6B76331C6
:10461000D71E5A79EF3C7531D070BE3B7B88C722DC
:10462000FC05F27313C21D36FA88A0F0497A319F57
:10463000B9FDB3396A4DC26259096B3AC21A797C25
:10464000EF999A559B1DE7E32CB8C573582DD21FDF
:10465000C685F7E491E161484ABEDECDF731FEAA96
:10466000F2B5F87267F6336C9C9896770B2BB4D83A
:1046700031DE9CCA1F110BF614BAB0F2E9C73AAC8E
:104680008B28676D39EA291D2E71078F8CE00F4446
:1046900060DE64C2127246B8BDCAA3B18CD96ABBCF
:1046A000E6FCC7E81B2F38D815D83CF8393E7A4CC1
:1046B0007C91FCA55C1015ED3890F2A3EEF5E44D6D
:1046C000B5005552ABAF4119B243BB0E69D02BDCDC
:1046D000217935F19196C57A39731A81300B8D3075
:1046E000511A46DF07E9B0415102C67220B876611F
:1046F0001793379D67A45A2FAF296D66AE84AFEA32
:1047000059AEA2D845F02BFA01D7545C371FB66FCB
:10471000038784F5955F7A7DE0CCE465264025C665
:10472000F65E9A6A4EFA8AC10793F7A5B5B22EF9DA
:1047300017D6FF7BC8F03F317EE61D4B5CEC31C3E2
:104740002C179C952F285390DE044033452EC97FAB
:1047500072E1E0B4F91DC581C720654949981BA6DF
:10476000B5CF5A9DB9C7A5F0526CEBF840284BB6AF
:104770007CD1D2235DE3EFA46A52CA9258B0D1270C
:10478000B8325DE61FFCC147D9E00642E2C8539645
:10479000A5FA8AF320574B82CEE2AB0EA6C659711A
:1047A000237220C0D125D65EF2B86DA8416A7BE1A4
:1047B000C8D50EE482F34D83BCC982E0C5754DBFF8
:1047C000F65099A1C091A9A60951B3871098B49049
:1047D00056F384A63A278DA78E42609082D226C2D5
:1047E0009DC7327A9657AEAF796C239150F3FC3166
:1047F000A27B3FBC376AC7C0BFE5FF0595DB2CF045
:104800003267FC39F8A933E44BECB1692D309916C5
:1048100056B27499B16441A3FF4030F7BA63C40043
:1048200012F92B4C2E086D0846121E252792DBC567
:10483000FB99B0CD0480840EEB1778DCE31FB868D9
:104840009857CCB47A2D6BBC8E86EA3E4B4753C743
:10485000FD36D3FB137DC8C64C6AF4D2DEB783B8ED
:10486000A82534A86B39465EF6F3B1C0ECE73B658A
:104870007B96A8F28755C7F2808C5F7525ACAA6C31
:10488000DA1A6A553320C8AEBA9545BBCC26A619AC
:1048900024794CF40FE8644B51B14187B57C59E35E
:1048A000BB2A339C89F539A9011F7D31292CB3BE60
:1048B0000358C45ED3A152D9AD4B9567289E38DA10
:1048C0009C0EC22431F6E50BF11832C6FC8D19009E
:1048D000A3ABE5EA8D10477858294427CDCC50FC8E
:1048E000D6A591B73E3B7D2F58110ED0DD2BFC682D
:1048F00051DE895B87A93CB0721782FDE2C566393B
:104900000019D8D250ADC3B9888D492D4DC5F5CA0F
:104910004E573743DF476C86E492172510B5B2D265
:10492000CDE97B27F5A9013B885E74506A9495AA6E
:10493000826A4DD5DFE358FA5AD9A8913A7A6E7552
:10494000DF091162249C61FC10B6381DD4960E0C50
:104950004123FC10F39997C70BD6FB2BC453A04EF1
:10496000D6A793633046F33A9A756076F55DCA5DD3
:10497000636ED09A85FE8AC5F68B34FB846F3DB991
:10498000F714550B1CFBA5A6939804AB1E35F10F2D
:10499000523584ABA9D621507EF98883C05BA85DCF
:1049A0000ED15B39A1598933E51A812590F0699DB3
:1049B000C9BF30E63EFC074F856A6665A0A5D6579D
:1049C0002521E4A56618D2CF4EBF768797ED232325
:1049D00074F7CDFB0F0E983A59CF2C60E72B861F4A
:1049E000924DF7A5938C750604BB3B587A5A3959FA
:1049F0009F2253DEAAA4F648E84DDD803B8C98C187
:104A00003733BF524C9F1A908799D3951279D09D16
:104A100046204E68E33DA527ED7BDAD6769585DB0B
:104A200077A98F70968758CAE63905AA7797AAEFB3
:104A3000DAE2EB27BD21ACBEA24279E57DC8A1F93F
:104A4000B98B4928377EC316A56184CAF7ABCF1549
:104A50005639A734DF01375E46234774478EB129A4
:104A6000491BB9808DA1DC1172BFFA79EEFC6AF1A5
:104A7000CB45CC7354CB71D303B6B8B62F6BFBFACE
:104A800090A8B14EE3862673D232B366647E267058
:104A9000C9318B451A2CF3BB046EDF915C3E91014A
:104AA000F060C317EFDD475F00DC14AB428BAF183B
:104AB0004A1AC61E8E985D35EF40CD79FE5A1126F2
:104AC000638A143259C514FA86F1D8B83439F2D24F
:104AD0008ED9838FC769CDFE1B53DFE0B2F45245F8
:104AE000433FAC5DB931400CC8E1A7B63F83AFA8E6
:104AF0004AB90DEAB89C2EC2DE0BA1A3586E9AAD3E
:104B0000F759039BDB6E9F9956C1C91B60BDD96ED7
:104B10008DAC3610DB6B951D84D7879B36040E3029
:104B2000CEB63CAE956F4CD6A78B5DD62B9AC39470
:104B300036A41521907FD6D7649C65A98BF0D24E00
:104B40007412F74125B2B565ADB71BDAB495D1AB98
:104B50004242E25A2642AAAFBFCB52EEAFA7332E53
:104B6000BB4E517DA2EEAA3003E65EDAF6686F1501
:104B7000EFA1B27547C1AEA211D33FD2AE14C2901D
:104B800084E63B6A5D47139FF9A4A2793D306BB27E
:104B9000941757945FB94DC5BF0C38D36CF86408AF
:104BA000634F12737D6867F51EDF1D23D531D52C49
:104BB00073FE5DB54755FE7FE063A8081603993183
:104BC000A7D72F687D00B39F5D15F3657B8BF788B2
:104BD00021AECB34385DAC520C95DBFA0D4B96CA46
:104BE0003AC2153D0CF6FF929BEB5A24BB589EC867
:104BF000C4F7A6F9A68655EBC1C797B48D0DBF348F
:104C0000E0B9DEEADFF8EBE9A3459E6E1BD15C411B
:104C1000C95553676022685695124B855F4E6A816D
:104C20007A0E7551F5D81BF2E74A4723605B256B76
:104C3000688F0EAE0883BEB0231ED4F6AE2D8D84D1
:104C400037EED764719B0CB760840F8A38557BFDB3
:104C50001410EAFE2630D98B0CB9076A02B9CE359A
:104C6000195B11C0DA16E03A3504827D15E4C7C23B
:104C7000FCF5C6282EF681F47FD08A576F7E313539
:104C80001915F75BFBDA98FA2FA9301CC4D2725AB7
:104C9000F9B51548DD5674723EE73D9A11E6826A11
:104CA00019C5C503550A1C5753CF17A1060E2C6B07
:104CB0003F70C34D7590FA5D51AC87199A763C20D0
:104CC000BF6032913A5F99804848B9E8A950DCBF8B
:104CD000F80958125B7081B27DDEC26BCAB140FA2E
:104CE000D72B4FDE4DB3C7E2A862E081A363557FA7
:104CF000E9BE6EFD9B27FD629C0CCEDA5BD95D6838
:104D0000CE2B991DCC6CA4BF8AA54F8039D009F158
:104D1000D12D8238BD36C7BC10F268C8856BB3E6AA
:104D20009DBC8F1A043EC6EF3C4A61A118E707A953
:104D3000F087F78D351A1F02B8845181BAA3B2D912
:104D4000FFCB52B4E5F808DC57B8E05D101B3C30EF
:104D50002A4A3C165EC0C88CE8AB60E2C48D858EE2
:104D60004C5F1727540E09529909C62A5E2882E81B
:104D7000078EC1822BBB63D377370BD211F5EF09B6
:104D8000AD04AB90DB32E16396F539417D41B3F67A
:104D900008FD7B821E8552B05053D5843D8A4B1945
:104DA000D21AE378DC9897EFB65E103130E00BF35F
:104DB000D9B0F539BD7B2D5846BB921A1BC0B12B1B
:104DC0002AD8E3C41A9A45343A87F8BFDAF400E5E2
:104DD000F650811C5BBC1AA663EA71DB16699A3433
:104DE000D8A191A4BA30B6BE0795B1139D664C18F0
:104DF00047F9204BC055A84CBEB3C5CAE166DA00DE
:104E00009CEF492CD118AFE7EE073BFEF3A1451903
:104E100008B5666E8438BCDC5376E4E77797DF0F1D
:104E200086FE112BF176AA3F59141BE1D1D3B6515E
:104E30009C3D42025450C212813049BCD789EEE2F7
:104E4000597E8E95483EDC3A6731BDCD6F57196F5C
:104E50009D77CC7D26CF229883CC3516E9C4A166F8
:104E60004658D6B02ADF98E52E4EBE088DDA11627C
:104E70008ED9C780EB6A7796E1F98473978B675C6C
:104E80004B857DE4C703B75FFE9E8325896B27CDE5
:104E90004B0428C77F7841114F3A7F0C527BE15970
:104EA000B3F7377F86681B395A7D7C363B2844BF71
:104EB0009FCF9CAA75EF283144FB7D5BE0BFCAE21F
:104EC0002C1A2C7110F0AFF95A01C00B4784727381
:104ED00034E74F1DAA2C1809C2397ABAC5CF1DDF95
:104EE000CE1103B1425E8B2D7E563E325442DA7FA4
:104EF0003CDA116F2E7D3BD65C6DE7FD3F76519914
:104F00000C7557A55DB4A388C309E3CB1382BD3DDF
:104F10004BED4FF4AD62BB9033B2C67A53152946C0
:104F2000E48E2ECFCC37D95275C50DAF612236E352
:104F3000347B13963BD206503E264C25996174A5CE
:104F4000F73575C30DB31F985CBC4FBB7E02EF7A7B
:104F5000DD1828B6627E0E3CC96DA20C1DF1955A73
:104F6000409CC568AFBD618DB69025B6CB22EF944D
:104F7000F822574DFC4A43DE0965FAB4650C1276F7
:104F80004D3E9BFA1069E48A341621E5E48B5C27D8
:104F900048C3799E19C12A99811CC19E4A12184C96
:104FA000B91697A07ED9C3BB9935908E48CD1A38D3
:104FB000C98FB222BDA3263C5EFF7819E9459DFB4F
:104FC0006E9D8E7956C6AA1F9408CFFD438CE0A72C
:104FD0000B6A8A86518F04DADB82DFB16D83F7BFFB
:104FE000880295204391A71E5A2E19A28250D7EC11
:104FF00058D3273E693ECA02518727D0328B900C86
:00000001FF
