:100000005A01C3BFD766B3D7A76D9E8CF0018D4749
:100010008E9E876892355A0FBDE08FCFAB7E2158F8
:10002000FE93C912F18257AC160B1C687FC3BF4800
:10003000DD16F1EDA69DEFCF0CAEB674E661EBB91F
:10004000705358BCB52DFC378BB04D958C70C0CF1C
:10005000FB3D234159F1919C6CCE642EE17FDBC4C2
:10006000D1E8F6D4F4574C22085EE67EB805973204
:100070000F7680BE6EBA63548ED0F2CD9F532B653F
:10008000F4E93B9D8CF888BFC475A20737E1E68A86
:10009000D2BA3559D663FC384B73AD69B6A86E58E1
:1000A000E4338F2DA261C884ADD0A83274D120ACC6
:1000B00041E2BAAB80DBECE856F7F0A3BDE48F0D6C
:1000C000388C3809FE88CE34410F0F688DCE4A65D2
:1000D000CA0E1A55EB1D9DC11D0B762B808774151A
:1000E0007DD668476C3781CDCAEEEC2C0A131220FE
:1000F00014793F7D9164DF26A69CDC5426DC6DF7E5
:10010000F0C2EE3A509B40B71473F3FE4E17094508
:1001100041DD22D1EC8A7F102AD5FD820B25D61D28
:1001200050D47AB11B4D186709F9FD623FCA1EDB36
:10013000D951ADAD8E39078438C42DDADE051CD80F
:10014000C1DBF57568D795D90910870B0FB800BCCE
:100150003D56B0C4C7380E80617A8319EFE743DAA1
:100160000BF6DB8E0E19881F11D0A757D54094FDD2
:1001700058A4D29933AF6F542FB6CB3E3D306F2188
:10018000360E316F5AF39DF4A08B9F703EA5C3C00D
:10019000DE6C2F13E5E202872C097DD6179A58EE04
:1001A0007967F6A7BA9BC081E760136870C93DD331
:1001B000FE245B08DF9048329AA79ACACE7577FF73
:1001C0003D7F3766D6132562819386F0B013C00F4A
:1001D000BA5159BCE94CB8594D560377264D97EDA5
:1001E0000B12CDF2EC0FBA56C881983F8E786EECA8
:1001F00072357DDAC56D343DB9714C26B8E1C7B9A9
:10020000B165BAB0B1BC22DCB17A055DC3498115D4
:100210002314BF3F1BE2C8DF460436351422945630
:10022000D64D54700AEE927E0C53F4A5261CF55060
:10023000557AD575CDF8B7F945D3BF61F2CED3AEB7
:10024000B4F3D3DD23F3CE97CABCC9DDE204E0DC0E
:100250001F2B3C6DCB574B2D8E0CB2B14E750961E7
:10026000132200C1DB4115BF0F59140D61F602E3E3
:1002700043631ACB379832D10C5B20C2E5365BC89A
:10028000FDE1C0508920EE382211FDD55D607C5D16
:10029000BF344C68E07E7996750A09D39CA20A4B5C
:1002A000F054C6667DEF0595180A78EEBA032DDD89
:1002B000AEB43B4089A3A51E4727DCF36656859F55
:1002C0008764555492C877FD43762804A1D459D346
:1002D00066BE86D88B10D3F23E0C915C88975FA2E5
:1002E000B174A11414BB0620E2815C0809FC3D0531
:1002F0002156C6817848672810CEB0B491A92D78D0
:100300004A8D38FF4E3BC90F83BBBF5DE4CB1FA8AE
:10031000B50B16E17D22ACFA7AAF51C42C492FE41B
:10032000720B7E21BA242CA3F7F1777ACB593206CF
:10033000FDDA6387971631E78E41056AB6BE092A52
:10034000C23B8729A7F563D5B20428E79DD651A300
:10035000C066DFDD45F000B953A54987284D43B598
:100360003AFEECB234DBEEF5E9D7110E9A77113094
:1003700083B0274E8F41A6B51BD504564BFC7C831A
:10038000DD2A54581AE0C5C4BCF4478EC8F730A023
:1003900010AFEAE4DD9233D78B5CEB7F8F305A48A5
:1003A000619CC88EC413B56ED3727BC8096BC5DE61
:1003B000EDA2F89DE47023AB77BE4874B9C9FE6620
:1003C000BDFCF18324186A6C2616550C6B9D408584
:1003D000F8E8802A08355F503B1BF2946D15BE6823
:1003E000BCC60144C419C47A5ABA8578C01896E9C3
:1003F000377916CC7AD3966CA7B70A62253C91233D
:10040000EF3692227FA5DC2CC48CFE5C49A9498979
:100410007B6DD13DB525787A77026134D73E87D0A0
:10042000E341F8CA6F93A7571EF378A6B9C6ABA6E7
:10043000681A3F32725E07C2194C0C357C2DCE37DC
:100440004C0FA187AD5C0538EF64F1943EA5C095D3
:1004500001EF12D7332D52051BF15CF67E096D2E8C
:10046000171CC99A844920B84067E0FE9F3EF9C333
:100470000071390816B5A6AC52D4D2DC5551C195DD
:100480003AE2E1846314076899899768593D42A963
:100490006968E7BE603270E4E2496E3F91ADBC47E7
:1004A0002E98D987F79C7DB916EF7C26FA776ABD1E
:1004B000EF6A72AB226BFCA167B718C9AB5CF5564B
:1004C000F52C3B5A5DDF9B6C37773F43EDD1968E21
:1004D000223080BD4BF89A38373C35A65F3853EF51
:1004E000ACC2CAF4D83B31361195418FDF332C258D
:1004F000F1E55D8713E23084AF32928A3A5841FBCE
:10050000FAB850B630AA1B8E702BC6036BB35ED8F8
:1005100007EC2962308259DFC7AEC1BDEDAA25F1D3
:10052000F5B497EFFBB2F1B893A5D6AE0DF78453AF
:1005300088857104C6DCC8B9E7DD54273C69CDCA9B
:10054000272E3A9F8996653D62CF4349F2CB65A23B
:1005500048534933D724257F131EB1127C3E71CDF9
:10056000A866222FCC5364B494235B45ADEE9C94D3
:10057000FFEEB0F73A098D0746AE3F41C2BAD3CD80
:1005800031B91A47C06C92ECB0CC8142828B3D3DB0
:10059000899CF36D38FF2476FC4B53C6E46F29E445
:1005A000EF285CD6715D7A21BA12C740646B5ACECF
:1005B000EEF3EB694B255AED2855291A36F0A6477C
:1005C0004546CD799F6D1DD94A6748C2746F528CDC
:1005D0005FFA037C363EEA942C44D28D153D27F811
:1005E000BA8C05A784EEB35AEDAF2300BC59BC43C7
:1005F000EFB5248934BF1C698A74F96BD154E1AF1B
:10060000870D5106886CAB9F54D06103E763AE95AC
:10061000C962B1FD7E141D1C4F9801EBABA94A398C
:10062000856F925769BE07CA3EC3A7F50BDA5370B0
:100630008AF7163686E8BCA6FD3534F57879C415F8
:1006400046533EAE75FEC7638F8D64B4FB47FE41D3
:1006500052718E20129E650B464162E6D2DED7C0F3
:100660005BD58FDD9C5DEACE70A1CEE7B4151BABE8
:10067000646BAC737012DE76CD489BF5DEEAB4870E
:1006800051558A9A850DC4FCED3258AA2239C21AF6
:1006900057508A217C68B89977BAA09E828F7129B9
:1006A0008740912BCEEF0EF02001C107642FB224BA
:1006B0000B3AE41063F438F71EBC669CE6A39F87F0
:1006C000586DA85C54698E94F0D2F1120ED4F9548E
:1006D00050417E8E1ED180069B2E45C417F11969AC
:1006E0005CC859A283320A2EE0EF7F38A4BC5712AF
:1006F000C7CACC30D65BEE21A806D52B7C2FEA6783
:1007000072734371F8DD8A97EA12A0776E99D197D8
:10071000DA4A2D18211F3CFF92CB1DCE22EA115A36
:10072000A27B72B69E2E79389094DDA0942541115B
:100730007E5B4DC3D21570B0F6513FFAB9AE0C5680
:10074000887892F383C66494E139F58F61126CEE78
:1007500022B64945AAA6737B24E65CCECCE3A0E38F
:100760007DDD8778CEE437B595FE9D7AE9682C93D8
:1007700088A4CC8D7F4BFF842C2CB56AA034D9A5DE
:10078000D0C47F46141127EDD4DC1C725CF4377D95
:100790008786E70466FA1961493F6C20211D4F8A5C
:1007A0009E0E481ADB35D2ED28191F7ED27176D203
:1007B0008ED0AD256785B4438F56C1E4D32DB61ACC
:1007C000FE59F06EFD526554502A83DF8064D5E1F6
:1007D00052E3DFCCD27A92B99197D889BF1129F828
:1007E0005DA4DB97CD01F1F3A49E0AF9316759634B
:1007F0007F81B269F56FF9953AA3E6EFDBF5499091
:1008000026ECD9DC32B56AB31064757C4B63AC9FBF
:10081000F4D7546CA3E9ADBDC276B341295E5DE85F
:10082000B8ED0D71C50CE412A241598B735D4DCE2C
:10083000B5183CA66F10AFA6484E71F286ED3B0787
:100840009B6D1E75AD1599710D9CF37C883FB4FBB3
:1008500078A08AAE8A52FC9B8698A17902BECA36DD
:1008600036FFC67B8CC3489C416A178AA001102BB7
:100870006DC65AB4C2472C649AB711D66B1C536C20
:10088000733C22B71C59231BD7238503FA5EC3F799
:1008900027384D000FD807D5D8D74DCD0C17049D5C
:1008A00087700478B2ABE7513B87ACBAC129FDDD54
:1008B0003FF92C49D54488980D4291CDCE4C86F80D
:1008C000651DC9E2AB6384ADEB325915B428DDE890
:1008D0004C5F84E444E738B8AF165D5F8D84CF5F2A
:1008E000788479A266AD13BE054FEBF15CC7E7775C
:1008F000AC484F91D83DC5AF7A0F5B4D7CADE9C791
:10090000C967857FE2A5A76DFD44594942EDA70E51
:10091000AEDFC3B2BAC44E2C88F027122858F7981D
:1009200085F39620F8E7D74A715F90622382458F5E
:10093000A298054F003B96ADFEAF98032877335839
:10094000713E7B1DA7305C9A62EE08C720D65F829D
:1009500025141A42BFD67BB5A3A3A7A085E6036DD5
:10096000D9BDBE5ADB37664FE634FBD6AF7559BBEF
:10097000D1FB0F7A3F34999F215E796CD901BFB9C1
:100980007B77717C67F2643C8CB7CCEE4A7DF3EAEE
:10099000380C930060CEF8B71B0D9AE1BCB7372E28
:1009A00015FB0A3AD43BAB24F4DA3B467EFD95298D
:1009B000AC637CA88EADB4237A3D95C2BD7AB3D129
:1009C0001CFF78DF6956411B8AC1E3D5C82912395B
:1009D000FAABDA0563FBF948DBAEFD38387E543DEF
:1009E00032E00979F99C8969614EEEA8F099920A82
:1009F0000ABB89984C5A5CDC07170CC1B27701E935
:100A0000BF69CB9B1626CB3A546AB03A50368B67F7
:100A100089F30B9599BCE56CB39CB23214494B78C1
:100A2000A0F5403D63AB2D021432CA94FF56702CE2
:100A300002D0CE633AE2B0AA2796F3EC33D8FF9601
:100A40003619A095A1A59AFF4168FF2DDA9B558222
:100A5000776FDFF74811CCDFA5338C9DD133E87673
:100A600029314842F92B062411CB3A60E3DF608B31
:100A700071B7E786EE6212FFDB865225BA076C0C6F
:100A8000D261BA2A354F39944D8E374EB9BF2FCF28
:100A90007BC52C4DBFF48538FB7CC2C91905AF1A44
:100AA000151E0A916865F6DF05CB77DB09CD086D69
:100AB0008A77766F2BCB28CF20A76674A61577810F
:100AC0007465D657D8F400298120C105C7D0010B21
:100AD000192D847B7A873EA89F5100BBF2AE7F5AC6
:100AE0006C1088E2560B307DA885A7A83FD9AE6F61
:100AF000E54FC917918DD8D3B435FD1EF7EF4F0CD4
:100B00007CF2E9247100291C61C61EB0EF8EE297C9
:100B100057F237AD83969ABB91313ED666401A980C
:100B20002B9E6AAD1BD399A54D76449584484C9174
:100B3000861082EC2C61454502CEF62C307E75C7BE
:100B4000F0EBC7E04E5DC00168977E2530667816F1
:100B500021D39954DB26535E8541AC427183080F43
:100B60007B38995230DAAB4FDEBED9AB8240EEC053
:100B700000DF9B763BDF038226D2AEE93784EF01AC
:100B8000C34281AA515BF056E53C3A2A33B38E7ECC
:100B900043CCFA146A40A966A6DF03CEC0BB29790C
:100BA000F22D06668CAC11E9FD0C507C05EB49B1C9
:100BB000040C32329539AD903D791E3F4B6D1D28A6
:100BC00080BFAAA0429E36E293C05ADAEF0966CEF1
:100BD000B080DAFB3A6ECFD9D603B48F86A6F888F8
:100BE0007D214223E2438B81BB5A332FCC65AD0775
:100BF0002D780F490B5306947C923605559EBCE721
:100C0000886BE5FA929D150569F30DDC19987A1F3A
:100C1000F96203B68F6E2A45A05B3700A8EFD25A5F
:100C2000973EAECCE00A9D5AE5E06207C3557CB121
:100C3000E2211D7A5C14221DA1EBA7315750E794E5
:100C4000D9D442CF88F6B6D05C319373D97E0622D0
:100C50001618A8D61E046D71B3DD51C508C782E011
:100C6000BCA510DB459EDD48DF6C16A5FE9A54FB43
:100C700069A3AB0BAAD75B23B180E3406652F1F4C2
:100C800037A27DC7DCD4A4AA0D57BEC74ECC5D8564
:100C9000A724BA33092F99CCBEA30DFA8D528D70BB
:100CA00049919E29D10D28437BC717AD7C11BBEE1E
:100CB000721CF36EB99BB54D60BD7D1A2924764236
:100CC0005E6B97B4424FAAB723E3D68ED202DE788A
:100CD000DDA28445E82B1DDD0B0FF5FC684979CFBB
:100CE000B78F5FE7FE8373EEE89A409DF9513EB8F7
:100CF000971CCBD9BE1F2AAE249BFCCDF71694D5EA
:100D0000F81BA9EABA88C4163EB9AC597F5483438C
:100D1000AD349C51A58701B62BA11ECBC4123BB4A8
:100D200037B8C101A8BA799CC5A20EBAC4E5BD23E3
:100D3000B33076C0CF5245C7E7059CA4C78E80CCA0
:100D40002C16BB01C41F9AEB779DAB5219103721AB
:100D50005EAE27FF5F86660A14528348E57BF16B1F
:100D6000A4E38DAB5CC6064D73D948943B125FAECD
:100D7000D3D59F6880DC7AD454B32C55D85405550C
:100D8000A13A01B9E7EBE36CD709C7AF8A77230F24
:100D90001705565BDCAD726A21B6C6EC0056906052
:100DA000CF4E408D3132981118487BA8D6833DEF45
:100DB0009344A361F8DA8E29BE0BEE837750782531
:100DC0006F12D7621507D1439D7FB5CF469D728BB9
:100DD000794347FCD7612CCF1D74F49BA1CEE25C14
:100DE00068A9186B6B95358F9AC9E9A4CA88F5B6BE
:100DF000436658E68AE2E09144A1504694F3A46524
:100E000094D79F2A6C99A237B7A36FED8180F436EF
:100E1000ACE7F501F38BE37D2D8AE705343CF5A4BF
:100E2000155D9D8018500337E73879B4FA06C88EEF
:100E3000446E2F662EC62F157D30522C77951FD508
:100E40009BE8CB44BD17F7A12DB8125D245DC0010E
:100E50000916D355A6C9AAD2199C8EA954BD0273EE
:100E6000041945122198D461DB94FCEBDBBD83F5BA
:100E7000B72E7D8BA8561382BEE8C2D68277165A4B
:100E80006BF14C2F534B44BD85D8564C60A37E5B11
:100E90004D03791B74386EEA197B206FF07480392A
:100EA000CB4570DAB2DA1DB9061BA1EB111DA57B8B
:100EB0002FA1D68DF43B0E164503D282A92B28F123
:100EC0006D1DD83E3A6457A4F5480E3E11D02379E3
:100ED000E943562AE558353FEFFDF7B9938255218E
:100EE0002135210171E1AC0188CADD2CA3931D9548
:100EF000A68A271DE257B567A586ED3954C1967DB0
:100F0000C771361B6B82ED72442281F24CB3D6D886
:100F1000C4018FAFB15643A08791EF66F0DFF5AF04
:100F2000CF00086037B72EA8C4C7EB1095D67C4E0B
:100F3000D796A9CEC34BABE365D89AAE06B21CFFD9
:100F4000ABFD190335CFC3AC462006AE81BB938EF3
:100F50006C00B7E0E817CC7BD33D309661124218A5
:100F600033654C542F7312653D5EF9161355676D4A
:100F70006E83B03F1BDF02C91D55ED200924E9CB6C
:100F8000C156CD76F831D8E36A486665204086E8D8
:100F90007B1DD4F1786DE6629D892644E9D3292929
:100FA0005D3C7A5D798A0BEFC7B8762F52C16F002E
:100FB000B64AC866FDBCDDE4F55F0FB8BC678CFAC5
:100FC0004FB22B77C478FB1EFFEB510A09B8B8B8B3
:100FD0004F6C4EFCFECEE10D0592D560B4A25B369F
:100FE000C0C81603EB49751FC4FC1773B66E46B331
:100FF000F63AA378824AAC722201F2EFEC38197308
:10100000455F19A34B8BB4871B991AFE1C070C1163
:10101000C3F4C7FD03C7174F940260E0A9FA706DCF
:101020005C577C22F543EEB9850DDC2A0120694F1F
:101030009A97EF329A871862FB0E36684EE12C5D64
:101040001EC5B5BC60DE216C357957EC3557B6113D
:101050003A10A7F34D31ED9F1919D08479160B641E
:101060001981835E8EDDDFB85A088CEFA4D4022488
:101070002A6DEC7CB20F60657C772C0DC1900A293B
:101080005C1E7B24D15912F216D4379B36E773B01D
:101090009074604A4D4BA99097A114DAC7E76FD1BD
:1010A000F8963FD584B7FFEC7DF5FA52054B4AD24E
:1010B000FA4247C0B188E30546D19BF345386DEA53
:1010C000A1F8CBE4E26F0097AA8E9697D47BDA2141
:1010D0007ED2D692639496B474B13BA2C8C5DBCAE3
:1010E0002EE094952AFA44D5DC16BBBE7B95741687
:1010F0006C85064FC0F1C229B4A8F826EA2AD46349
:10110000B7BA478DE961CE17F5987F6FF29DA87A3F
:10111000094D6446EC2E21CC4BFE310A09129B7618
:101120009E4F43FC729A724213B09C534E892245E3
:10113000BBC8BFE5730AEFF1D655DC02CC2028F31B
:10114000D031D581BB694E3D3A7FFD4965C378D525
:1011500077DED9331F96C568D3B7AB52228CC23421
:101160006D12977E0B72BA0F3B8595F7F3FD50D940
:101170009EA56BD7A780A9CD5905D0F116E767D8F2
:10118000B71FD52F049B5D8D2F705770000D8554B0
:10119000716D2F26EC13F43F352C8CD4545E98E0FF
:1011A00091A8040948CA73696D122EABE7E85CC6C2
:1011B000DBA24A1126E8974827C89C52DFE922AAF9
:1011C000B623035F1F2904BE64A548CBE2C3262DC6
:1011D000558CF0BFA3D14E8E03787F0A03488C64F0
:1011E0007080B05B547937DD13551F5845ACE2E58C
:1011F00059200F162908E84877DD75949291CB02A3
:10120000D34DDCA8DBCD55C534234F72F9F71A9FB7
:101210005AC9642434344FB90206C85610BFA96FA6
:10122000BF1ABA0657D217ADF0A0BAF584694DE5DA
:10123000379B93E2BEC3DEDCC1793BFAD1F37294F3
:101240009AE26CF7AE0851A370AB8158F379D022C3
:101250005F6B5F996006E057FC4252FB968C53E14E
:10126000C1EF0D306D14F1587ED483EBE485510A43
:101270003960F64D4D953A06440700CB3ACECC9AEC
:10128000DECC463EB9BC91E4FB44C03924E526F4EB
:10129000C1AB9E5BF8954DD049AE87782A3B86ABB3
:1012A000EF2F44312884311D9B3E7447EE854E95C7
:1012B00046F53A7A92036A98B52D5B23874D8127CC
:1012C0001C2CD37357B7CEA1697904E7D350AAD1A8
:1012D000500D9BD181EA54CF1FA6C59C1AD1131D76
:1012E000594767C5CCDBFF3BE66D09C18C6D0C7AB5
:1012F000BD8A53136C123CAC2F7CF2DF2C47215F6C
:1013000018051F08AD2C37037ECDAED746030DD48C
:101310003CFF286A84024A14820D69F3084BE3D625
:1013200031E56C35BB394B7AEA39D3E49C81F464FE
:10133000EFF8D02F05B3F9CC812E4E747507531CEE
:10134000F21DBAD1BCB2ED2EDC3294C40F0AF5D92D
:101350002D20F197F58D17D711F83F3DD1769B40A1
:10136000AF401BF6C31FDC4E50153A54D2B06F8607
:1013700009514475A07A58A2B24186406059B6D549
:10138000BD8013046918154A8088F445649FC77EA0
:10139000A6F8EEB2C9BFE0E5BE72F974AD5E45CC09
:1013A00063F150B3748347255217469C81923C9752
:1013B000959BCF47138CF74F94CF822C1A53797695
:1013C00068995AB4A288B665225510F767AA513CAD
:1013D000D97CBDCCF50698055F2AC25939FDDF9549
:1013E00075BF1B24BA65937971159AD2F3A229753A
:1013F00016470AF2EDF0BEDB08C6E851C99C5D4213
:10140000CBDE513E4CE0B45D5F5B1FF0022F467AAD
:101410006DE2669D45CADE6D7D8CCBBD496A189F25
:101420008A6257B3772DB4861B388245837FB172A9
:1014300002F1D9AA064C0CAF3678B11824FBB5FEE0
:1014400028452F18C2F457E61C267BE719FFECD17C
:10145000E329B02406CF55421CE7F503C38F12726F
:1014600025E49AAE9EB598062CAECC735EC1C285BB
:10147000182B33AE0C225C15ADF5E9995E77B5F00B
:101480005BEB8377B2A14C9F4A8F1C1B73183649C4
:10149000FB85F335C07F1EA628BED0699D8F68FCF2
:1014A000AE3ACF55FFF6F701CB1623A06BC1BDF4C2
:1014B000AC711DDDFE8CB019DD3CA439C126EE6691
:1014C0006CBCA5BF177DACDA9AD36E04F29EA387DD
:1014D00085270ED644835DAF071CDF0A1DE83FE475
:1014E0002E396F6A48E19033750D34D2B31CFC6914
:1014F000ADD639A0C1A7E2B25C21FB66EF3C20CD9E
:101500005E77BE6F665D4E08A0F565EE2C542F6ABF
:1015100048D87CE13D90A04C7158A5BABDF19089A6
:10152000652C3C9A96E470524566E3DD73513CA805
:10153000CDEBCFC62FAED9306FDB7502BD63EC4566
:10154000740DC8778CD91828CB2F461252F5FFFAA4
:10155000DAD49516A402F22682C542C153709DF5D5
:10156000F6B7D2C3E704FBF223C9F926F25EE3B073
:10157000FBEC89BD5A2DD390DFFFABD66C424A57A6
:10158000669730803F1AE6C83D93D7424DBD7981BA
:1015900039DE159B52862D85ADC43998B5A2BDF4B0
:1015A000D021D8F1CFA8240741DEFBDDD1BFFB99C4
:1015B00096449056F160C0C6E16DF3B4E576DA81E9
:1015C00072CA2D7353143A6AC446D47437B57A6A12
:1015D000E2E8D6BCC2E02C1A2FD92430134EDCBB73
:1015E000E256C83B1E282D9054861E2A81B4385AD4
:1015F000D89B902A9884EF5D241A546FF93EFF51CE
:10160000052C134E2A5B5223D27DAA895613E490EF
:10161000A374CD2E71300C3EABE52966C1A59AE1CD
:10162000D5815621A54C44E98AA121469145543CD7
:101630009850251A4A6DD292988EA99C8D1B4425EC
:10164000F27630CE127E1C1B02A5D3E8793B25B082
:10165000AF3E377AC99349D9C2178BD3D65FF631DB
:10166000DFB6F680B66B883F679F779A9716A559C5
:1016700077D52329C9D7A3034B51111307A643F1EB
:10168000BEBBDAB1690571FE93762FB631E9C68823
:1016900018480FE8897FE1F3F4FBF9851E41432FD9
:1016A00041A589D7102EDAD35BC77B459931E2A2D9
:1016B00045D8603A95B41AFEE5D505A44813EAC0AA
:1016C0000318FE5127E0A1D251EE47BB9559DA0A23
:1016D0008C3ACFD56245E3A3377F3B579414D91B8F
:1016E0009C120F04E487B00F618E925A8B366DFB0B
:1016F000E769CB01CE697F914CB242356ECD141DA6
:10170000BFEC85BBBBD8C412413477256A5324BAD9
:10171000388134B1E969251BCC52DDC6FCFFED866A
:101720007594126A3EDAFB5D4A7E836296D4CDF2EE
:101730005382035BB070672585B25B4E1989E5352E
:10174000FAA5846AF4141C9CF2CD3450B288251892
:10175000142753B358BB04A10C346836BF1FF90CCF
:10176000DEB588A3EF1DD855418D141D96252E4258
:101770004E714EB7CA657B1FEC8FF555917624C725
:1017800011E5C62E42F78B202D75DFA45CE53C0BDE
:101790008F499B582F791496D39A4DFF17F6C64B55
:1017A00001CF2C13FA0882DD52630A5683EE4F4EA6
:1017B00054AABF59C87DE5B86B292D7177EF0F4C3E
:1017C000A85D11390827FD4E7F97EC42541648C199
:1017D000EE0037356D00974337AA803E1B41518399
:1017E00027832D2473ADA478F5D0B45438E5D0EB1D
:1017F000CBC2ABA7F4F0B645517AD39E93C43283E3
:101800004A3CD9443A448FC96ECD147A76FFCE0D46
:101810005E2F219BE0A0BAACC43AA13E845D7CF16E
:10182000016C2242812EEC65FEA29B2CFCFDE1D1D5
:101830004B81B466CA8F5DB51D1F3E927680B1F2B2
:10184000DD1624865001AC6EE5A0A007B8C95F572D
:101850004EA40C476467BDDFC6909E128F2001E83E
:10186000F7FB4BFFAB960AD7765DCEB67F5359D0C8
:10187000E32E41AFE088161C8A9E0BA6A8F4A0B701
:10188000385BF11D21A9AA7533586F5879A4820FCE
:101890007D361B1F047186737F28BB6373F377AAA1
:1018A000FB6A3153F6669403ECC45CFB798D3A45D0
:1018B000911B2FA1A4DDBAD1D14A5EB740051C1BF4
:1018C0003E492C4C7A1FF036C15FA5445ED2C596C6
:1018D000134F1367704788B36FEF2CB27AF3F61883
:1018E000168A2CE5B3AD1D009777054D006958C4E5
:1018F0007C26A5ECD4342A1BC07D4F5B185363862D
:10190000E2FFADCBDA26922E28BA85BB83ED745761
:10191000AC03FAE2978A7F49E72D6CD032A4883471
:10192000A94C45BA7C0B145B4E61FD1BCEF80DC66D
:10193000EC4BF0C16DC8ED25FA0E0DE1FDC4FCE1E4
:10194000D016A892A4F5015EDC17F704AAFB019655
:101950006369D0F7FD1E37B402E6F9B3BA49866170
:10196000C5C72D9B04CEDC85FE5F1FC80010F309A0
:10197000C89742839829A741C9D38B4303529F3C00
:10198000B16C8AE00CE9024857BC4DD8E70F581FEC
:10199000816CA6790C4FC129EA48E9C4E1C8D0920C
:1019A000893D288815EFB5E90853B859BDB18C9F1A
:1019B000E580CDC8E8DC9FF8E8FAA4D8F331F4F468
:1019C000CEA373B057C4D373E0A7BD9300AE8D5EB2
:1019D000E224CB5151AFFC5D0E3E76AA885DEEBA93
:1019E000385D32467DD405DEAC1176EAB7764142E9
:1019F00052572D4050042F313713367B7605B7DD13
:101A0000F8401EB8C293A4DDD335051166DD80848D
:101A1000EFADEC3BC24338F71466FB2C118024C3B6
:101A20001A9F7BD3401EE3732CDBF3068C6E9D8DD7
:101A300031C52F906BB975D0762B416C288DCD3C7C
:101A400073619F76F1A14AE25D00565B126784F5EF
:101A50007EE9D6F410FE857D6CDB49E807BA5C2C84
:101A600038189093F3C36BE475D8702E3DE173FE84
:101A7000FBB466BC579BF54DC8CB258D5210313554
:101A8000CF36ECF31D7E00835C971B32D771C2CA40
:101A90008848D0FD25E8E5B513335180DF717075B6
:101AA00059F20A7125CAC04D26605289A5161959E6
:101AB000B6FDECAA834A9541BEDE2F8BBEB67258A6
:101AC00096BD0D670C9D38F4827E9DBCCD1E8AB5F7
:101AD000254385AD8CF53A8C707F5ACE0F41B20507
:101AE000C980CB11E69FB79D74DCD68B30B91A6ADA
:101AF000461884C6358C9AA199273CDA2FB1BA1EB4
:101B000036F79DCC08262FA25627E8D55B561D97A1
:101B100095DDC230E2525A77919B7887AE962511B7
:101B200012EED345D5E5FE6DA18A84333857601B8C
:101B3000A185F99D3ADE22FB309FF0DE6E6E888033
:101B4000CC2466B71737C5F5100B951B439D43F59D
:101B5000D57D7211E36A6D04D0D8DD9743ECA95DA1
:101B60008613E68D7530CD84F70FADB81BA3EF0358
:101B700035DD0B8D669D484B9A8A21A63EBF446F8A
:101B800050DD869CEE6731B20A0D82F847F8FC936F
:101B90004A65C2E992D81517619F1EB236B798B749
:101BA000F28A00088397A6E76A68926E4DAADD2E36
:101BB000369F14C6ACDF05A250347303F179FF9B46
:101BC000CE0319C64DE0F57AB9A0C485E83D3A7850
:101BD00073BC8BB7C84941D424DAC2E4F141E0B602
:101BE0004A83D0A2144B7D556826F2EFDB767E3611
:101BF000D34161A74B761506D078AAFDF51F7F1358
:101C00008B54E7ECE31977291C98029B30F4A899D0
:101C1000B715295F12ECBEB84641B065896775D427
:101C2000B46ECDFE4052B884AFA2679551AC42135A
:101C3000DA08C83E270B1CA634A271234E287678FA
:101C400092B582FC3ED385B027F9AFFD94A7559895
:101C50008CB46C199C1208918B1EA35A6051E2A699
:101C60007103908C5B3F6A6876872A8051998991CD
:101C700045C2344CA37A7BE4B0BE4DCA758E335B4B
:101C800030E9BD5C26A1EEABAD7E98D68A79F7E946
:101C90006F37D2C15E9155E0F82DE1BDDF3393136C
:101CA000C43DE6715DC6477F97511932155C64F7F4
:101CB00018A1A92643A99D07F133CC633837A24860
:101CC000CCC9B4DE378DCB942A9B6C148500E6BE5C
:101CD0003821739F926ECC62BFB0767DC9D638FA38
:101CE000DA61B00379921E69AA9CE1EF38B945AE7A
:101CF0003CD249F7DF8F7566DB96080B252CCD4863
:101D000072C061E89F703DAB0660648600F5C65AFC
:101D1000157791C9DA1B3E9FABFBD6CA7EC0E9D6C8
:101D200095B5FFC6FEF5D8E2EBDDB7A9B014EC5EC1
:101D3000A0D729752A23FF2F222A399328792C3AF4
:101D40001FB23F59997F2452A82546EDB00E1A21A3
:101D50003631642953EF92F5C5382234A83DFF5E31
:101D6000083260022DBF3B0D44BEE7CF2B34AA6E74
:101D70003E2A96F61B60AEDA99D5BB0F6EDCEE728A
:101D80008D9AB54A13230B211F1AE5D7006DB85C55
:101D90004560B83A86598D47386A9316DF30F5FDAD
:101DA000DBAF6B242F5D107E4663F28C0A8109B491
:101DB0007B6FA1E5D180FEBEBB18B9EF61872DB660
:101DC000DA8FE17B61E6507791E19B3C60987FE997
:101DD000DD484E862E7D545CC087BCCA527AC177DE
:101DE000B59F5B437F4181A3A90604834330A09B39
:101DF0005064413752F93D0F7F801F8BBE922B1CE0
:101E0000155DD0677CA7B1489F6721BA108C685ECA
:101E1000FB8EABFBF039FFA2EFF1A6DE9C0F2B4748
:101E2000ABEB4D7ABBFB0A0F6BACCCF687F7249576
:101E3000B6E619C968AFE5D61AB61492FC7D2B8DAB
:101E4000E6D62F682FC3E16FF5E53619E2D3B71157
:101E50003FC34E626994F125F0CB3CB90861FCBEEA
:101E6000B72703DE6749AFBBE97E9E526C2BDD28A6
:101E7000126DC94E1B0E35491C830CE7ACF7B047F9
:101E8000CCE71AC96E5160FF7B3C75B6A9A6CD8E12
:101E90006C9986CBA6463057CE1BD5B1B973705816
:101EA000B393C8B111538E08FC2621A4D49F0945D1
:101EB000C75909FCCAB9EF2AC3184A70A36FDC6B73
:101EC000F6D61426EAE45EC618D461F438ACBB0733
:101ED0001C23777BBA7A4C04A3D03396DB2BB3DD7B
:101EE00009845084531168C5C2AEF320FEFC9E7075
:101EF0005E4C4A8126ED7B34E8B397C15E612801D0
:101F0000558DEB0C57AD15BF5814A109D8BF2EAC99
:101F10007CF7F410B71BB79FD2D39704AF62345C41
:101F20005E4415F803767CC67EEE55F4B270D73C5D
:101F3000A63DEA445220B2458430173528DF8BDDB8
:101F4000D3B8BCBCC67E55FB6A74488A6CDB3CE7E0
:101F5000E038A322887B62053F71579DB7099A0D2F
:101F60000979D6DDE7A13CDE9463CD569C39C5B036
:101F700059B694E9BBD2903A4810AF02640864ABFA
:101F8000F3F96A59356712E993E8179D05EDF9D120
:101F9000690DE4A8810BA6889E1FFEE798B6F57030
:101FA000A6C441E6C8B6FA80CAC19C052ED2D76540
:101FB00028EE452422BE45DE2403CDD510A4036EB1
:101FC000A88E740759727847B7A6F00D9B3757460D
:101FD0006D9AC849D15CE083C4004F35C43DED5FC4
:101FE0009B8065F0A427EBD8C4468314BDF633C6A6
:101FF00048EF1113946E1F2DF08FF964CBFA6195A1
:10200000AF2CFEB4532C2F69B8CABE98B5FF873BDE
:102010005E936A1FB4F24B2D18F0614A48B6A82EA1
:102020000FAABF11CE19C5FB5FB2BF0557A1E28D44
:102030002165CB911EB38C2DFD25586E38F60C30E2
:10204000792CAF4928DA7DADE78A20168D4F3B9376
:10205000EF023B29D43E928FAA6D74095975C4A82A
:102060002C0CD54679BD96B46FD53C1C85CA2C2462
:10207000D2E64C2B530E83689C2C35B1C4B8ECCB04
:102080007A2AE24F3B36B882E887F98D732450E113
:102090008618A198931DDA13DC89C1DB57B7A9B163
:1020A000CC5ED620FB1BF03B97E826C41FBAC711B5
:1020B000BA15C3AAA38A672C367E03F0395E889FBF
:1020C0002803C2D6C2EA394F21C1E081EDFC5D3E52
:1020D000BF6DBFCEF54969928C951126A239953511
:1020E000FC21F6F5D57FAB3519C3BCC83094D36A53
:1020F000A13F18B2EE0F070A13EB81DBB8498A3310
:102100008669BB19FBF9B2A25D4DF355D999FFEF72
:1021100058A6E4773D175FDEB2F73B6452DB1195BA
:1021200001A3CAD089C7B5AADFADEC7284D7AA0DC6
:10213000B500275B3BF0328AB4DDCCB1FEAD5B026B
:102140003F0A8BF6E0408204CF396B60C1753DAA2F
:10215000F2DBE34C483F8B2C3274F9DBE879D11584
:10216000CC1F1F60B79DE355B7F5FAB995CD0ACDE1
:102170000E9CCA574773BCF65465EE4422D2857B49
:10218000316224F12C9E871D6A82EBF7498C9D53A6
:10219000BBE0023F5E7C469F0B7C7373DAA5579EC3
:1021A0000D7E2F311E37CCBAD19E006CB20168046F
:1021B0009871B060D19E540D58F081C55057E1C35D
:1021C000E41A60A0F1B04A7AD877BB2E9847BBDEFC
:1021D000155A61739C71474A13A7163C24882CF545
:1021E000C244581646D333ECDFCA5E756A08865F70
:1021F00059F7B9A4E0AA31F790D2FA46CA693FFF6D
:10220000812B56B077DE82132B28978E5D7B37E0CB
:1022100083B1911F2BFBBE9187AB06799A804769EA
:1022200065B33841FD09CE8314B4645FDF65B9A995
:10223000FFD456C1138A3F7E98415EB9C1F0EC715C
:10224000BC0F1B3D091F8F57B581A7D541B8044E60
:10225000ED09AA59A66C2FD2E77A006B4DC9A2638B
:10226000D40DCBCD22254C565818DA50664E6473E7
:102270000D1DDAB05EC6B22F4EDEA7B66FABDE75AF
:10228000558EAF91FE169DE71CC4F4A1762F580D14
:102290003E4DC885F57870544DA6D96B1BD9A0EC7E
:1022A00081C75EB47FFFA0AC37B6615C088A912419
:1022B000730A6467ECD8DA3B09928134F0FF6BF063
:1022C0001A2FCD79FEA7191F832D4D079C41076C4E
:1022D00040EAE8EDCD2DCC613143A8323845479B2B
:1022E0009ACB00A1317DA8ECEDB6468B0ADF68E2FF
:1022F000489A9077279892A6D3AFEDB9BE48E141AE
:102300006D4C7BDFADA7A70834C85287F37A877777
:1023100035D34D2CA2357A867093E290151D3D7110
:1023200054B2DE5FEF649B49EA4028792381A084A0
:102330005A09575AB28496E08D655CDFF43C5877B1
:102340007EDFD7CB2A40921C99FCE84355470223F5
:102350001B583DFA2B40D898ADD539A2CAE04404A9
:10236000BCE12B5AD0C23786EC09FFACB68A85CDCA
:10237000C42C221DAC8D3C088FA7A50831BDB8E048
:102380004102CC584B70DFDEF837B9AB0CFBCE22E4
:10239000EF418C46F6AE7D6FC4AC4F9B498314B9B8
:1023A0009D03110CAABFDC00DE27FFB1B2FF5DA2C6
:1023B000E7D9A0A84A90DA347E436F37AD277A5028
:1023C000DFB8C2368008E5A49C9A49BBA9D79973A7
:1023D000EAA13716D23177E1D5EFE1416569C7E966
:1023E000BEF12FBCE3CA47616AB248D4E30F304B59
:1023F000C4E8A612647F738A36A1FAB0938C24B223
:1024000060E89AE06954BA0BF0834D9B52368945D7
:102410006CE982808890BD15B0C02865CF94399D45
:102420000F3895393B3B3742699505C8C749315448
:102430001AC38AEB364CEDC10579442243003E5065
:10244000B8B640AAE69CE4D0840F5C11EE28D33DD8
:10245000763E7CA6BAE15D58C1DAC5CB9434F95218
:10246000BEE60E429E4C0A0ACDD7DE2934E5989688
:102470007B342AB7DF1D81CAE73548B1EDBEB3A171
:1024800059EDC3812DBB692BEE984AFE8A55048F06
:102490003E9F7EC158CC16D0AD074929696D49D8F9
:1024A00066243B09B16B49A1D17AD59CD71B140E88
:1024B0001CE1F40D04CA892E64201E4A9B28952332
:1024C00090DE3F4020E3F93EADF1A6EAA70BA378EA
:1024D00048C51B2EF7C277C6F3EC43C758158E5973
:1024E00020B4BAACCE57D0B0AB771CD35E4012A4A8
:1024F0005CC0A3CD1CACC546CC22F62C2067E39073
:10250000EE7C2E0E8E5A958422595A8A4C9F33FCAB
:1025100099B329D126CEA4F9C39C1F88C63289F16C
:102520006931661DC7A98E8F872387B5F14567621C
:10253000A2C9FAF54CADD2477D47EF8721A3D982D6
:102540008A0DCEA763975E1ED14CA023D6C684E128
:1025500065CCC65087E1610F561D67B998C93751E0
:1025600003369639618691278FD8AA12448107EFE6
:10257000ACA46968D11DF4BF2A6CAABCE06FEEAAB6
:10258000932554C7C6676643E6272156EF050E0715
:102590003BD555F1ED50379D658406A2697DFE0A55
:1025A00038CABE459B725AA0C9F8ADEB01EBF0E109
:1025B0003A3EC47A086A9699C508F7A5FDE1FC374A
:1025C000E743266FE36C874582E0BFD019011DB653
:1025D0001BD4ED0FB3015E463A03EAAE72B815E4C0
:1025E000CFAC5BFBF0447B93D7C06BB2FF01891982
:1025F000D12517E6396B600101E68EB0F0C8C4A59D
:10260000AAA5B22A82A6C66EBA60CB98E9172B1883
:10261000E98E652B53A7D2822B780F1007D00626A0
:102620004A96533932438103FDE55AAB742DF617B0
:10263000AA99D9F8C8E9622D13D08C7572CB2EC037
:102640001A74377B02E68CF0AC8D74C321BE17542C
:10265000A40B6F4ECE512A684E0B0C2CDC5A7524FD
:10266000737E59CFA7FEE7A75B43FA5AC8B71EE8A7
:10267000E44BAF75597DA0702F0A592255CB06B394
:102680009AAF3F2AE3615BA046333A4E9776F085D6
:10269000B8A1284ABAD7012E04E096855B1D609840
:1026A0003FDA2E780D5695642E4EA592013AB3F579
:1026B0007C280FC99079A3C0C7BF1BB35D2D2B2504
:1026C000EF11CDE8BAD6BD799944EEF68EC2043B3F
:1026D000E498D83ABC7ACB2385EE9AFC9464FDF159
:1026E000CE922DFD248A55AB7D81D31A0036C63F8C
:1026F0003895B9C64488051E4F9D119B692927410D
:10270000CB8E92CED94EE0AA3E44F130C1A2776E74
:10271000DBD8E483F3FE6536E2BC7DFDE96886AE76
:102720001251046DA5B478B755F44CD990EFF4D399
:102730009665725613F811F8173C79311FE41FB2F1
:10274000954BED7B2EC3B146C3F5227BF92572AFC5
:10275000E77AB129D5BE2837FE2272CA40423DA68B
:10276000CB3C9F737A3B81DEE7485870A520978762
:10277000FD19A2214035E7780526672C20FFB0D34C
:10278000A96711F2CED5CEA1BB8D1209B83C372373
:102790007DC7F44DB9DF2ECC5046077699ECEF7B20
:1027A000A277D393812543DA2BD4B20259F681F76D
:1027B00059DE56C883215CC7C686E360BDBFC882A8
:1027C000F924260E752B3AD6F9017944EA41BE7AEE
:1027D000E5F8AB719EEED22953FA5539E78827AA5E
:1027E0005B3FD47C6D7A364286A7E2ACFF8CD0E6A4
:1027F000DAEDACC8AC3259B623D59603ECE0B61985
:102800008AA073A09B2702B126B917648D1F2DA83B
:10281000405BF03862EB1D41821FABD235469DE52F
:102820001308629B3DAF621B6E7B207897CC458B73
:1028300045B8AE2A3E83E2C2E68EAE9ABB90BA821B
:102840001F547CF568053EE7AD15CA7CF601219062
:10285000A62538B53A303EDC968D31AAECA6A445C3
:10286000779E1B4A969220E33BF4765B1E01BB05E4
:1028700016372EA8A56B501D26022AAF159EDEAE78
:10288000B40D4FB8EA79723DE1CCF37E5AD2580FBD
:1028900015137C2E5F1845FFAD370E2EC984F08DC1
:1028A000838C16ED4C5C85F5648AB0F83BC53044EA
:1028B0008E22D3FBBBEAC2B4542EB94A6E730126F2
:1028C00074DEC909258602F024074999F4202847B7
:1028D00078D9E0F83BBBE6B425E3AB96530BA2C234
:1028E000BD3DA530FB08700E16398829982B845BF6
:1028F0008B2B3AB024A47E776E168B2B2EBA982E93
:10290000248380EF6AC4D93F0F8EEE721362E837DA
:102910005BB342A4616B68A53D6A89463E5F6D6A00
:102920009747A75A97DE3315CEF5CBE2247117DB14
:10293000C671206E250FAA6EA1E5CE610316AAB45A
:10294000EA9AB2F9776C7D0306F312AAF86D9CFF40
:10295000ABA13CCF8209F9318FD955C63B07B19065
:102960006B8BEFAC80C41FFC8600A0549A4EEE2106
:1029700031CF4CAB3A18E0698DA1731FF0BFAF0E99
:1029800086800D2EE120A24FFB84F805588EB7EF0C
:102990003BBEBC8B9221E60BE3F38C0E781CC5DCAE
:1029A00020E2D62B267AD2E5DB42988A1FF39924BF
:1029B000272BB5EA179403A4C303D35597321C04FD
:1029C000D7E346052027817007B6676600947A45ED
:1029D00044B2C02AAF6B92F9FF3F9335167D4CE0AD
:1029E00082F95B514B41F27D2D38AC896E67E7145B
:1029F0006255975484781427312AF864E485F22CC0
:102A0000C07DEFD8517D7D2D5A11A4FC7EAD17936A
:102A100093419B4A2779C3C7EA7BB83200A5696610
:102A2000E5DC5C09741B12077AD8D7C60C7EA9DFD7
:102A30005C04B842E05A914B07D4748B1662D98972
:102A4000BCF6CD812897BB4708A808C1EF0A203BF8
:102A5000B3AAEEA0F7BF5FF69822D0221528030B89
:102A6000D21288E9E45624E4CA399ABAE0A4495F4C
:102A7000FC1F107904AD232E6A30387A51C4C63950
:102A8000D81B200C9F8CAA82392EAA25C16A7DAB47
:102A900060A1AC4DB483091EEE4A76EC3D7E76C64D
:102AA000449710E785A86621389B84229485126597
:102AB0001A6E357375FBEC804BE9DBD2885AB8FF90
:102AC000538ED11D9143ADD3B4C2B0F2274441AE71
:102AD0009A8B01008A480C1562C5C91ED82481C989
:102AE000EB071C8B12DC00FD9CA9BFE3E9673923CF
:102AF000C299556AC640371775E1CA6F4039CE7B17
:102B0000CE738C5BF750356778A35C5DC8B0140B4F
:102B10006E55B7FB16513FDAB7DF468D961CF107AD
:102B20008D7E921716015DF9522E11C83E881A8DBE
:102B3000620B2D061940F0BB9E27DF274E6D5ECF3E
:102B4000EB75677EDAABC9100DDD86544106C714FC
:102B500049720880F7EE3B4626D0C411D67588CA64
:102B6000FACFBAD01AFEE47C41180EC82544A9DF7A
:102B7000EDA485CF87FA735109EB718E3F3F63D97E
:102B80006E55B4EB942F1DBD9A0265B36C72DD7B5C
:102B900050ABFA57C18659E9FB2A8DF36CE2499E86
:102BA0004ABAE6BB33C55C3A8645D107D15B1CD037
:102BB000359620453598FE983D7E71BD24D1BE5E88
:102BC0003DDDAD38FAEC93F0E391B72D41F2D985B4
:102BD0009DC243EA44D18477B54565D524B8E5F76D
:102BE00033F097574080A4C9C18258FA19B567BE1F
:102BF00060FB1BB154A3A0330255FEE266FAC6A8DF
:102C0000EE864E7871223A2E9DB72869048D5D6557
:102C10003458AE9525274DECE6B746A3BAD26DCD14
:102C2000B81C4AB8B5C2FD3AD89C9DCBF496022C8C
:102C3000B9758EAE233B08A686A6A7A5937C21591D
:102C40001BD43499B34CEC66860B115354AE85D328
:102C50009444718F5758A658FD408ED15B2142167F
:102C60000AA7BBEEEADD0B6C157F890ED2AF80336D
:102C7000E03CD6BC887A9D84373B50B4EE289D3228
:102C8000CAF75A18AE701CEC2BD5BE004CD75117A2
:102C9000002FC09BC513A5380557CC0447B37E252C
:102CA0004CB137BF364E87FA260CE7D32E84373324
:102CB000753969F49ECE7DBBBCC118AA7C9A0535D6
:102CC000D97304E1998FE83F91C7EC024A2C2BBEDF
:102CD000CE479AE1D8BA8CD304690366A48C8647A0
:102CE000AD17DA9C7BB35DC402B8B1FD125C3B8EBC
:102CF000B0AEC74CA70ABEEF8413536E2EA1345555
:102D0000263A7F97D3A088890974E8F89F0941CFB4
:102D10008C7EE61CBCA77C26B826D35DCCCB1937AD
:102D2000EEA150A6A89914C6909348981F9E960BA2
:102D3000A818CB5FC0492A41900D4A58733C7B7D4F
:102D400024A32EF246D55C4149471A503198DE5CE7
:102D500041C461199934EFFA53CCE00B878B6B04B3
:102D60007AECD6A1710F14172AFFEFC3766E5B4C75
:102D70005D92728D53549616C886E17D74ABACC7D4
:102D800061A6E84F3979010CBFE134433B9AC60391
:102D90002100180D9124B8946265FB236FE0024E68
:102DA0001E58A05DAD015FC325BA64BD26E895FF3E
:102DB000A7AA3596A9AA66FE698215168A03492C28
:102DC0007179C3BE61E547DEA8C9ACB4E2CA7CAA8A
:102DD0005A7FF72DDC6BFF71C207AD445BE42F8592
:102DE0005EDFDA1BC3B1467217B47694D2A97AEBD0
:102DF0001F57AC3735533F86808975CBE9C88BE7C1
:102E0000A96A4BC82DDC7F76D3A09283E554276551
:102E10004F9F4E362389C9D995F4AE6AF9FEE2B9BF
:102E2000CDB5481474708AC66E0F1119887508677D
:102E30003F07987C2EF8E914AC0ECFF29EAFCAA6DD
:102E400067C2A871B2287EE01EC1491DCBE80EA161
:102E500092C227A85E2F39A0BE149925CC734E3C90
:102E60000358FD149A43270F11E044AB860C94439A
:102E700010DB366C82BB592126CA6DA8905C08CF46
:102E80005EBD67FC4B5B2E2CBF0E5D85444E96CF1E
:102E90000634AF82C77056A76A89C6221062477A85
:102EA000128C44024DF13564DBC339A79B359A1966
:102EB0005C81AF77086D1E15E6C84E88A10EBF96DF
:102EC000EBA5B63F172865C331ACC4AFB73802FFD6
:102ED0003C697A8DB39F433280F6AF81B8F97A6B43
:102EE00088CFCEF70A5131C3247BD9F9C2218B2375
:102EF000C428E57818F2669FB8299B229332CD1F2B
:102F000042CEEA9908ECA737AA611065454937BA5D
:102F1000C273FCCD40AD7D8D0C7475BC3FE4735B1A
:102F2000E9D554100A2356A7DA4F6708DE50C3BD0F
:102F3000755483DF6532DD58F2F6332A7AD7B7E06D
:102F400033060DC98CEEDE968DA11E75E5696F58AE
:102F5000FA923477020204F306F1C4BC78A9F82F80
:102F6000BAC2DEAEA0ECCDA1EC13B78C57E0B3D162
:102F7000F142DCDF0DBCB8073EA908A7762314FC9C
:102F80004D1EAC5AD536B5BE8C64F5FFD7CAB06BB2
:102F9000030A6D0F77B20871D3937A68FC55D43B5E
:102FA00039B030F3DCAAF35F77384621C1D8A1E00D
:102FB0002A43863CF8843366CA8D56A359F9928D0C
:102FC000B1B9F839CE22E3F05FA1247CAAE89026BB
:102FD000EDB3324107B3DECF033B6812E20395370E
:102FE0000D851171374827C878DE04617901E4AD99
:102FF000C73E23E62D16C92A0A0F9FB16D8D1AA070
:10300000BA0595E06D734A4B370C2FA2D697AED612
:103010005305245D515E266ECA095A25F3FBF389D8
:103020003B9ACBA8A1550C65901559600E933FFAB9
:103030004D2ABEC9CEB65A54A158180A827194922C
:10304000B708BCBD2427538A955A4903C39F921BD6
:103050003381766F0BAC13308FCFEA48E9D569E343
:10306000D56DE3FBEC845949E870CEBB00340B5DB1
:103070003D341C14C55A6ED66773117625B375ACF2
:103080008825C9784D65A91AFC6513F4BE8A2114F8
:10309000EBD848667F9E3301576E0BAD021584FC5A
:1030A0003BB239642316565B4C4BDBB5CA189DBB4B
:1030B0001BAA7067D0B9FD304720BDE05D63348A3C
:1030C00003BACD6FFB02653B7FB2F3235317FD8735
:1030D000764E3347552BD224E36B48659AC55F265D
:1030E0007F091B9F91D72B8DE3A35CA910A8BF97E5
:1030F000E38380F8EF0F622A5C587E208B413519FC
:103100005507B2EFDC6858E0A2854475E4144BB96A
:10311000C9F58671A5682E50DC6CAADC45DA3F2E15
:103120004F9FB2075478D70C687599AF9D1A61ED1F
:10313000A4B30B7169893A3A62461F89C13613B14B
:1031400038790E4E09EE5B24942372307DC9BF2B73
:10315000DF9589219BB0799543D0BA305356A24C64
:1031600004C60F0B206530690C3F4A79F5916A6BF4
:1031700051443A638C22633A7AFA65E8845BB1037E
:103180005A96673D30FC77FE3A3488663440BA6917
:10319000E5D20F4BF08CBFC66CFA5C6D57980231CC
:1031A0006D4DDD7C1A28281D0BA08B573A50131A41
:1031B000590D425FACD3354060E38C3D23D7F545D4
:1031C0003552E5905EBC85B4213768C493B676A7C6
:1031D0002085743E1379934AD6CCF989BAF319EE57
:1031E000464679C14599839FB2C663C8BF078B4CD9
:1031F00047458CD4D2F4AF431B86A002D2B799C7FF
:10320000BF0699103EF899D04F60DEAEE758AC206B
:103210000A8B17EEF342C812080589CC9FF64ADCE8
:10322000FF0A459278C86406DCB6BBE5C49C0B6A0D
:103230003F5F6EC79E13EAB81E47EB69BE3AF28144
:1032400007D2E0F26EDC0911C3CF3C3133B6B5C80A
:103250005EB3A7FED2ECC9D2BB77ACF5AEE7D30123
:10326000183B87AFCC2674153D52A3BFB7B0553974
:103270009216DFBFB890A2B4D8AB59CCF294C07408
:1032800006770E419106C351FBFA9FA056E0C2415A
:10329000FFEBC6124EA8D522A6A9A263481644C8C1
:1032A00075E2F70FAACDB277C1AEA3F7F3E691525C
:1032B000328A99B225CCFF469D44D36C033BE599F5
:1032C000B051CB1680062A33A2704991B51678E426
:1032D00090669C077706E3E8FCAC72AD3B5F7836FE
:1032E00063DEF54D3B634A1493A8802DA0EFA08CBC
:1032F000FF97954461B9E13CC22A80E77C0CF5DA7E
:103300008DA2593D567D365A84271898058093AF73
:103310003A053E5F6F6112BDC8BB81F4852B09067B
:10332000A52348B056DC243D64DCAB6F2FF3EBB132
:10333000599E65AF2640853D286610F1B2838E7C8C
:103340001AD21846737053B2EC1ACFBA23795D6A59
:1033500024C24E3F577AB4C6DD342EBF2417344AF8
:10336000C4E26604420923B0F6F1CAC7EEE565EF90
:10337000FFD0B4CAAD839BA5056CF3DAA61290DC2E
:10338000F13FB12C3B8D26DBB90C6CFE37F652EFCA
:10339000E496D097341403F3379F28E9394E8EB45E
:1033A0004A78D98C188F27ACAFF6DC19AD28502895
:1033B0007F05C6B6048B34E0C48C35BB80AEBB98A9
:1033C000A7474B0293D70A2746A769014F2EF2D58C
:1033D00097EFBD15EDFA82E705132D56E156F8C8B3
:1033E00014C02B7A3D5695DE20A5E09739C90CC450
:1033F0008732D3B94C0A86B4BB0A019B256C53A60D
:10340000CDD12222DD2E29E863E9CFBCE2FDDF0029
:10341000152DEC74AEEEA5555E4CC1282D29F2B2E7
:10342000FB3B896F42B8046901FD6504BEA746AA4B
:10343000313E9E57470670E63B436D3901E657E340
:10344000F4E59D5C77B60C2F530EF4AA7488A7722E
:10345000E7550AA70EF385CE98BD2B3E7CEE2E01D4
:10346000E8DAA2B3958D39FF123E21B14E4E04E643
:10347000CAD9BBF724114FCD58009D024363D1A395
:103480005AF53CF970F5D7B241AFE9AE65703CD65C
:103490008B105BCC1FE74A3C8842F528CC0BDD99AA
:1034A00051EA86A4E2BE6DC1FF9DBD73817B3119D7
:1034B00006BE090C0651931F3303DFF17486615277
:1034C0003868F0891202A304C9EF11DDF6CE8C5FD3
:1034D000830073C4BF4BF9E847E487F30B9FC91A15
:1034E000A0DE363FA98C42CF44EF3C3851697B5572
:1034F00066CF2EE97C9AB6A099E514892872E1324C
:10350000A325AFF8008E01D3E45E966D75DD64FFF0
:10351000E789978DE1BA0F55C4BF81F947DD04B043
:10352000E51CB7E325D239D2A04E326E9EEFACC374
:10353000E59189E7B54847489770A4532C738E747A
:103540008E65A0A2C0CF0D48336F395F1EE3D38FC5
:10355000E50E3B3E97F463E0679B072EB9012E3DD5
:10356000D39D7DFBD8F99AC424EF48904E6BA23DC1
:10357000DC8F92DF7345985A4074AFCEEC848A3862
:103580002AC24EFDDA2B9EDF168A9C87CE6E744AC5
:10359000C86E9B11E8E4108DF1309E9957EFF17ED3
:1035A000AFBEB9E277D8A1A4FB158D498145E0F6FD
:1035B000BABBD50A4F0556FE5CF416F373A4D2814C
:1035C0004D1D4318E26E2FDFCC2F598D742972A048
:1035D00001A657291804FC6D4C95A609D875BCFFA7
:1035E000F29362C5C8BD5F1D339BBD55D1A3FEC517
:1035F0007FAFF5F72AE2EC89639A3CF2EDAAE4D8B2
:10360000D1D99D14FD3A9BD66B4C1C14DD88188CC7
:10361000377DC80E8EF1CD03FDAF266A6AEB3628E2
:10362000A053D4F581EF5134A039A3E63C53828DE9
:1036300010B336C47CD65A595829F185ECD444D2FB
:10364000ED9BB2BFD6231688328D41AB4951AC4FAA
:103650001F230BA9C069D5F9C0D55A044C2F671395
:10366000518A4032920C830E4A8E4150996322E86F
:10367000595C76E774D2094705BB87A7862F914D21
:1036800081B4DE0013C875DD08685D04B87090C9A8
:103690008ACEC9E91E6BF2C50B183193BA9CB70FDD
:1036A000F121B81E01D53320B03C10045213829D85
:1036B000971F379BA61407A9831D85AFA145876D6A
:1036C000F36B60FF476989973CEBA2DA42F4671518
:1036D000AE5BD187102082BA45E0C26DBB2F379B0D
:1036E000803428F0AFFEE8A520B77E2269CBD4F85D
:1036F0001A9910C71CE3534DFE5034F19F13F67016
:103700005E7ECEF3BF1BAF6A8FB24EF33B8040FDAF
:10371000386D82A82134DB9D624ED615568901454D
:103720005624E77C78B23E9BD737B16C616EF2CA03
:10373000B7FFCAD91BA9A0E353896469E8A353BFA3
:10374000866B12150A95DED814D13C6DA63D3F2339
:10375000E381025D2A6531CAB075FC2816F599D05F
:10376000EFD49AA667114ADEE50C5D0A21BC172E3C
:1037700095DBCB0DA7319BF4633AD76F25849B383B
:103780004C9BA9849471F8BC1BF893C7792A2440F8
:10379000B412666E8C9AF9AD3C3474BD851879BB51
:1037A00036A920B8521CBBD943FCA69881FFB62687
:1037B000780AFEB2A26074C51523F1B62B644EA43C
:1037C00086234F0CB7443A747B913C6838E8B05577
:1037D00010C4483ADB59B137B324FB75E8C6D27937
:1037E000CFB1D973B3AEC4D6818C93626D9CB5BF93
:1037F000A3111574C654514F014B686E4766D453DC
:10380000263346DBDB400D1124770BABB0BEAE395F
:10381000B2122B7E752C4A169605CCA78B0E813DD5
:10382000A67A2E660A767E52EDBADD9EA788E5A3BB
:1038300046D3FC224C67C6E51379E8ADB5F00E55CA
:103840000EC77358F8F80C02FFA5DFF3A9A6B2DD86
:10385000EA6236409DACAEAEB9B46BEE3BBF3DA163
:1038600047EB9E21E52A2C3EC69844EB3FDA0A9F9F
:103870007E60A1742E04C712102647560882BB181A
:1038800063FBC8F8806AD98C506A44D436976FFCC1
:10389000B4DB33E0FA5C7012216D0F37AC6EFA9E28
:1038A0000095C0D8E1FA4E6C1704F87D1C22DB604D
:1038B000D06777496F97610286DC44D34BB176CDF0
:1038C00085FC6696D932B94192C82332E4F7E410F8
:1038D0000B9B436194A26B46CCA4F1C82CAB87032D
:1038E0009A98D6C7A695C3AB53B3A755A262137CCB
:1038F0008607A4720882223F02D0D187342C959784
:103900001D38CAAED121BB0B500B0C617EE7F26FA4
:10391000A761DC17DA1BC1DB6ECDDF8325EEC98919
:10392000A875E46F94971FABBFA73F9A3125AEC02F
:10393000D230A684758A137B3097D28C2125048DD2
:10394000DBF7B4777E04538AEDFAC6C4519F53E384
:10395000E8448F6EE572574EF8B2BA11ED58D22195
:10396000359E7DD69FB22DE44C7AA2C08967D88F50
:103970006695374668DDFF0E617909F2F05CA29A20
:103980009E4635B814761B98C495E3D73346D8FDC8
:10399000210430321FCB58E714C25710EA4B68E4B9
:1039A000FB781440062346C9C9A7D8088BA208A8EB
:1039B000FF3362A6566417CF60CCBC6E51E8228BF1
:1039C0006554F4F9258EEBB7786368343D6471591A
:1039D0000750639BD8B01780DC5FA117E5635B914C
:1039E000421D122636EF83E9AC2DF08F4FB6A9E9C0
:1039F000C21928C7D45567A97375433DF81B0D8EAE
:103A0000B01D50E53C4C590F13669F5D7F3076B773
:103A10003C1551F0A878A9B7E6E59B66CD4E7543F5
:103A2000559015E67F5AF448E476E04B6A5D1992AA
:103A30008509A64D06FBDF44BC695B77C86AFDB803
:103A400099AC6780454EF142425C5A6E03D3FEBB8F
:103A5000B19E564940104AF0BFB2D54B626C2F2937
:103A6000C1D29651CD8B46F091294D103FDEA295E3
:103A70005685D1497E36BF25AA3438D215F0B88C88
:103A80006565C939CC12FC4F22445B47DF248DC9E0
:103A90001B08A81406835B2B0B9D91916C65830D0D
:103AA0000F5B5091FB68DE9E696B3046BD8BF2AFB9
:103AB0007EADC7C74A0D1EC11E4B55F84B29F21EDD
:103AC000958180E39700360583D519C43128D1E963
:103AD0009672449B4D2CF2A59B10BE24454D790A4D
:103AE000EEA45DAA961533CD336429F845111B7EEB
:103AF00034303A16DC82974B3FC739455390A708BC
:103B00005CD37CF8A35E11436554B0C8F7CBA57BAA
:103B10008AF43568960639DF11E72743393E7C1B66
:103B200036FF523E7E9BA89908B5A92D462CD1930D
:103B300062785740A3C2A708CF115211524FFDC35C
:103B4000034FED4DF410AA11E3BB419FC0E4E9FE21
:103B5000F2C98066E77D4A1612D30D4FFDFC590766
:103B600022C69C9BE902750D717685BA1FDB223750
:103B7000E78D90AA5525FEA33C795C93D58B95C61D
:103B800093A7233B4AAACA9C5A1BCA4E80DDDCA5D8
:103B9000B9DCFE5C96AC21850D17D7716565277B76
:103BA000DB78551254C1C9191DCBBBB9901460CF35
:103BB00055B901950CAF0A93AE791FBD79BB2CB5F1
:103BC00060A521BEF24E84620431F22EC042609C98
:103BD00015467472A199ED22E5867426ADF45A1A41
:103BE000D4DF23569D87914E6555D445729A42A0E5
:103BF00033A7F7FF27EE5BDD4DC0B7D8846B3CCE13
:103C000082B50EB2FD01A6526B9345926CEBFD7F1F
:103C1000014FE6D75B52E0B62A1605B4DFC67DFB3E
:103C2000D83A6E505040FEDDAE821EF69390226070
:103C3000D14F0B5FAB74F6A762495D2033A61E5FC0
:103C4000F59FC01715AB6371B3C97DBC5B1EF62D24
:103C5000FE2A2E92614156C7B875D8F98109B94C30
:103C60008546248C7919D34BE64E0FC7BC2702B981
:103C7000C81F6773411205890229E427ABBD20FDE7
:103C8000E2832351D95CACE75D8169D8E9D63EEE89
:103C9000876E140D158C5D36AAAFEFAA01416E7DBB
:103CA000AD69674DA4F8489DB1B279181E9585425B
:103CB00016FE30A2EFFD8EC3C331CC3DD5588958D6
:103CC000ADF72D5B0DC2EBEA13477BAA91C632CF4D
:103CD000307EAE247E4AD71B5B0EE55C3AAE0A749A
:103CE000D2E138DB7D2A2D3101A8ADF89AD5DFDA93
:103CF00079783151D798BBD14891BC23BA7138EC4F
:103D000018E2799EA5B0C8997382C3F37015C56097
:103D1000810B6FFA7F29B4BBB1A3BD476225290D82
:103D200028506877B8DA253863C34B90AA64AA5044
:103D30002194A37B7B9A2E1D8E1E40C46ABD6E23E8
:103D40008770CA47FE9354CD4BF580C55403D10804
:103D500042B06E1BA171A5F08F4AF718910F91CD5B
:103D60008D6CDCF6A1BA4AE1352D8B1796E41C84E4
:103D7000DC42E88F88C85B6890F6B651B57264E49F
:103D80000A4FDF00577CC207E0815EA026BFD79AAA
:103D900087182542D545FBA46E484C99B442A67EAF
:103DA0002824FD4FC0D9DB164F38C9A0B57180E17A
:103DB000B198D382F72754C02529FBA5E86F693C49
:103DC000098C13447234DCA7A4CBA1AE74EABE7A8A
:103DD00020E1AA85E257C249A92ADE2E1E6D1BE505
:103DE000B9C56CAB083F35B73E2F103B9A24BAE8F3
:103DF0001384E123E0CD67FB33A3C6B4537CCA84AC
:103E000042CD501CAB0FA15E2DAD471D2531A7F053
:103E100067D546F8CE28A25497356701F2ABFFE587
:103E2000FC58B71BDEF1853E5948C094AF9E7DD645
:103E3000A7F484F871856D5975EA96F92C860B28DC
:103E4000D3DE19B2702FDBBE919DCE4DC712C01BC1
:103E5000674DB4D10911E2665DBE97F5CEC1289FCA
:103E6000BB676BBAD07F174CAF4C545A1168BAF786
:103E7000C48FEBB83B9E93C92244B16C491ACBB9AD
:103E80000C56BD7115B2FA3FE5EDD9094B15E5FBAE
:103E90002058CAC9A0C2C7B4E4D964C2E47DBD78C1
:103EA000E13F794C6551BAE86C7E2632872E571D6A
:103EB000226BB9E45AC5918D79E72FDCE7016FEEEB
:103EC000C463543DDB8C92DE9C4E0B8DAAFC875262
:103ED000010AAA6177747F44DCDEAB767009C23BCD
:103EE0004F57D113EA5021EC61561A77BE11CC66B8
:103EF000FA8689A0EF49C6EFBB82DAC12CBC39E64D
:103F00005B9BCD19A7A0F6B5353BF6CFE804E99F3A
:103F10001F1A387AEBB1A9584E8ED3AD42ECF8C8CF
:103F2000541980CF08A803E80D9D39718263F67A91
:103F3000FF69949BB7F48B938B9AB00420567886D4
:103F4000B4426A7816B386F8F9CEC5636A79F4E7A5
:103F500063A51CF451BA2771AD278133BD081A152A
:103F60002130D20478BE8F396D11D6D65A6988F1C6
:103F7000AE488926647F3DC6D964C5E774B86CD362
:103F8000F35AD5709BC8BC3808EC4021B3DD7ED411
:103F90004F2FC6D1B594F3A2DEE3EE90012722E4C1
:103FA000A44B00FE5C73E8D918F7D725D356B2D2DC
:103FB00093D5A4569F1BE80D03745DE64B22C67093
:103FC000E10A8A7F27993841EFBBB1408B874AE3EA
:103FD000A788B0E6A75A92B02A58C6E061C1FC553E
:103FE00042C8FC6A713CE00A5CBB36630A91966C7D
:103FF000A1C413DB51CF1C1BD10B5DB6FD0E0E1CF3
:1040000018136726954919A07308F5363378D869CF
:10401000732A1627C47196F5102DE461EA9869DBBE
:104020006E035B80A6BDADEA49211A815ED039B02E
:10403000E37331621557BB8861434A7DF40BA9FADB
:104040008E42A8DBD4E71DE822860BABAB72E056AC
:1040500050457CDE8562A8622C69E9CBD6FFC4EEB0
:104060000F3F775CCA87F77232812B4395D9D46BA7
:1040700086A4280A60EA7BD027373E1B921870B0CE
:1040800030C45702308B20473DAF1C745396030356
:10409000DF062DE1FB96F14DB7E4E69E19F20DA97E
:1040A000AE4025E08180B14AFB03079CA5A3CAF876
:1040B000D17064E26AFE88299D0B7409C97BC295A0
:1040C00041F9A5A7F98FE621353613D0C59A5C6D65
:1040D0009655B042FF9FF2656596C2C0F19C21776C
:1040E000176F1E3A2753D204635EFBD7F5F03EA24A
:1040F0001FCFFD2B591E2E6F6DE33C739C418CE945
:1041000093DBB51CDF33C22CA0781AD113F94CAC69
:10411000FBB6A82F81243DFB782D1BFFA7E6168553
:10412000F7CCC8F2C258FBA88B731F97F03D9D02D5
:10413000D66B5B77AFFF5D09D982731CC680F6EE44
:1041400021FBFBE50EF9A15C211387E582B3C36176
:1041500006BBEA415917E30860757DBABB1BEBD477
:104160005918916FC9A8C32A97747D7F87B496A602
:1041700015A9B0FB90AF4805F20DB3F542AF4385EA
:10418000C8649A7FEF32D01CCA5D0A392160E47B93
:10419000D5E58BEC153AD007473A2C21B61447DA0F
:1041A00045DAE88099F584C3A8BDAA23609B5A1517
:1041B00082F34AD1211A6609543EE94EFD22F6C621
:1041C000951143F0099CA9F240CE71585164C4F096
:1041D000BAB912E6527A0F74C7C57487C5E692D48D
:1041E000E1E001E5DFA2F1A61C7D1FC92708E891E7
:1041F0002E95F36B191AE73B2F724ED877EE4817BE
:10420000B495EEBAC3D3725F5265393FD6BC2FF175
:104210005D11547E13E2C983CCA7A18C2745B8AAAF
:104220008B3856EA25C90D155141200B870E31EB0D
:1042300077B5F67FD0A01282F0FD3768841D023872
:10424000353F89055254B05335224B19909B5EA3DC
:104250000E4DABC79A09ECC24F2833CDB661D65884
:104260004C582EEC81E95F5D7A25DE87C671935A42
:10427000D4DA035DD743FD90CB3C96A4979EC293BE
:10428000E2B242C722C95D270A82BBB4DA34DD3EFE
:1042900067D9220E698DBC5C14847CEDE75D7D538B
:1042A000DF736549CE7FAC4695DEA0F7301BD2F0B8
:1042B000A0B68DF02B2647EA0B064EE83851F6F2F1
:1042C000642679E1A791F9B7D954258E78A6990B80
:1042D000DE4FF9514C2351AFAFA79693D2A43BF3D5
:1042E0004B075223EEB325089F5B707DC489E2C55E
:1042F00012005E71C06BB6AF4D71A445785334A601
:104300009E72F20C55A3AEBFD40C408587B1FF79E5
:10431000FA7F770C23EC796BF43A7EA1E3BB2EEDA8
:104320003C83A7F64846BD3A9AE08AE6CCEB34C611
:104330006010687D815DB500604E06B97A5DE777F3
:104340002B7749F14573FA416472E6965C1E94B18D
:1043500051883282A0FFB269EEC2578790C6997D1C
:10436000EB8C6F4461F7847F2E477CAE605CFC0E63
:10437000F6A544913DDE618921E6C2B260BBCA2B3D
:1043800079DA69F6FCB49E6090FBBF2B39AE2FF54D
:10439000F7B3AF010A35EF882F9864330211CA7D55
:1043A000FD76BC7509D88C4CD81E901A281E33EEA9
:1043B0000D8B9C838F871313DEB16F02C9A69C807F
:1043C000439C68AC85C83801BBD87A8A7C1A6F4395
:1043D0006D58D13D35398A8D0771E285EB0BFD595A
:1043E00043EF63E7614BF25B68EE67831057B00EF3
:1043F000A2A7FD4CC3981E9C87BD98C80AEC07C7AE
:1044000023A4DB5495CBE198E098BB5DA140DB365B
:10441000247D4F6C7AAC4B5F12D8062CCCA615517C
:10442000803DF33CE31D7B3F699D962477C3EBF40D
:10443000DF4C70F0B5E2C97F6063C709ACF21C1EA7
:10444000DEC90075F9FB0BC729A15A53442157A8AF
:10445000CE72876FE74F2486471DC38CEC3613E27C
:10446000EC85A1D965C9431A12EA03F46421AB991A
:104470007614CD5B727304EBD1D218F230AD5EA12D
:10448000FBDF1CC2E9AE971A731A07D05C83BEDF4C
:104490007912B3C46BF474C59A3BC8669BCAFE8696
:1044A000EF15A91C8B9C90E007C87250279DB77F21
:1044B0005639FC22783F47CE95985CC956CF337861
:1044C000A9F7D09D0324D3B1E2A770AA1067D20F39
:1044D000F1DE416310C3BB3365F86ED0F7FC2042B8
:1044E000DF5BDA7E7575FC4DA502AAE19ED64467B6
:1044F0007FAB17BC7DB1705CF1DD75FE85C922868E
:104500009DEBD4748736AD2007A32BC4C4CB67556D
:10451000464B1C9AC523C7FB0242D9A8FA7D901DC1
:104520000A598C1ACBD30E4462970B535A7FC3C2DD
:104530009043F6CEDF9A41ADE5590DE97E756AC725
:104540000535BCE1B12FDF8566D9E783EE5D282E06
:1045500093DE0A759D75D6269AB2C0A4740F3254A4
:104560002FA19D36D3C18EF1FB7C6F50E3717CD9B6
:1045700086E584976E6C7728BC7A22DA77CE3E5136
:104580005076FA3A1C8FEA69512AF1B47E1A8638BD
:10459000D17B621FDF765BC6553F9243452E12BA30
:1045A00037B30F1E748718C4287BDB56AFD9094870
:1045B000A272AB8F5D485B0C00BF28B178B66A5B16
:1045C00026BDB858CF20C9F3098647F3E4E08781B8
:1045D000D5E96CD8BA01B9E177029EF832FB4D7784
:1045E000B80F1E7C87670CFA90C134BC4B60F10E8B
:1045F000027E69C2D281AC5D0F3A3AF76EC8AC90C8
:10460000731D2E71B46626E140264FA66CB87594D2
:10461000A37836C4DB9011B3DE489BE6D0D954DBD7
:10462000D36B4249FB996C104F4B6B0D3207335CD7
:10463000E8EA17041656EF84A2C60EB56432B49A9F
:10464000E91F96F091E4AD56A02F648714E1A57997
:104650002CD20765A6AF19DDB60554230941973959
:104660004379F63AEE9C863FCE1ECE5C9C93371D76
:10467000BE2F96D2C22A808654180DCA6117A54D46
:10468000E92E597C64B721962EEAD34786B8A0510B
:10469000D1EA2842C4AABD9936D5A197AB30B20E53
:1046A000D7257F0D2D66BCAED19E98FA6AC70C51F6
:1046B000A0C746694B1A1E2A92ECCC34328530C40E
:1046C0009F23E98D9BED4E970D77A9581703031B88
:1046D0005072061E6FDCB430CCDF69ED65797DF871
:1046E00094982ED0BE3E6782B42CF3855ABB0CD86A
:1046F00099882122D3EFC26DC695619CB878CC040D
:10470000E1E58D5514865C1CCBB8488BFF1F5E22FB
:10471000D2E256C199D84DA15A6932D2CA16092897
:104720001C41DDDDA8039DE0028980945F7CA0D65A
:1047300031D0BC81FFAF20FFDC4856380E8419E72A
:10474000FE163AEAD0556FDF12DC4A192D61E9AF47
:104750001FC5EFC5DBDF558825659BF00DB863D617
:10476000E868651C074F548DA15DC38E2A55776D8F
:10477000F006EA8D72FFC5ED494FFC16AFCD53EE42
:1047800051E129B97E7DA1FACF171D0B2FAB9DE317
:1047900098CD8BD821A25F00B3980DA897E9D033AC
:1047A000D56DD34CBE9A4EC7F5568CC61732C0088D
:1047B000C234FCEA1CE0EE85E3FD66A583A6B90ED3
:1047C000D7F43408B27721C548C059CBF4D90008D2
:1047D0006F224321F34ADCF17A99F2B74C347357D4
:1047E000BD9862E275626B1267D6E397FF99C31AB0
:1047F000DB835D01C54B2FA1E396DB465E110B19F0
:10480000CEBDB5DD0715CAA514EB85870CBFEE65D7
:1048100003A7A4057240013C6776B6102C86388049
:1048200020BF9E457CD9DE8E1B3172FA168B5FF459
:10483000CB7E9ED48EE90E806750EAEE18E9ED0833
:1048400076DEEDAC001DD22EFE20E8591E5348B591
:10485000DBFE3895392F842A8EAFFD69115AEE762A
:104860004309E24EAF5C3B3E4AFC6077CF3DA76513
:104870007C893C976E587590C917123E079FE7E7F1
:104880000E8EC7CE4D592136358A3F0B1A5635DC70
:10489000FF501D716AE9C249C658FB56F3B2C6B74C
:1048A0007912FD4905E6126B09E69E8EFBA6A84B20
:1048B000F10AEEF45AC02757AD6EDA7786C53DB9D6
:1048C00076F98DE0179D02EF753CA2232290836359
:1048D000456935F3C7E110124E3C1E838E16E0CEBB
:1048E00089E33B9889BB0C145A6386A49AC21D764F
:1048F000426CEC6DED8634CA897E6C48CF9F78009F
:104900000AEE922A8719870716B2CB1C6F3FDE2961
:10491000B953DB56A128A395EC16B79DDF9E5A37F5
:10492000BB9F8C884B3A0C380B4C7468A9BFEE5770
:104930001BB91B53DB4138AB083792CF66C725BD87
:1049400013867A75F3D6FE869CCA2DEACB99CAA542
:104950006199B74B042628E7C3C55FE7F1374D2EB1
:1049600004BE0A33C7A9A55F02D2C4A15B56CEAD6F
:10497000F57A1631CFE3E4DD4D7EDE445A6007B7A9
:104980006E895AACF7503028F31E19353D33899D96
:1049900002235CE573B45C6F23639089E5A3771B06
:1049A000185ADBECFE3A4281B84F2C8B152E6C6EF8
:1049B0000D1343114F956314D59370DF7F71393612
:1049C0008A1F0672D239C870CBBBFFC6C7ED56B678
:1049D000FCF4D3164E3DB1089DD43D897FF66EC3DD
:1049E00029EC32CAFFD44520FC25958318196C1791
:1049F000078E3E9D9202B08F2A145D670BA4766BE2
:104A0000AE75511B3F469DB57C156177CC93134B1A
:104A1000E1D5AF3211576346BB48B0169B7F702477
:104A20001844D1C0414D0BDFD9CE93AE82BEAB62EC
:104A300011A786C5D6B65D792D7F09C41B443C10ED
:104A400054F0FD7A592FD9BCA3F843757048F87813
:104A5000F27BE67AF04038C08BEC98C87A01B92333
:104A6000222A6FCD02F3CD4EBF108A1E1561CDCA2A
:104A7000EE974817DCB97465D677C4A9D7E36116F9
:104A8000F5EA4014E2A2312DA319EC43F3BC15253D
:104A9000DA165E2CB947834DD4A59040F174A4E991
:104AA000658B600E8DBCEB115AA246D875EFD67F90
:104AB00052718389AB82A7ED0E2F4A76B2C85AC8CD
:104AC00048F866C233532387E42245C237968C35B3
:104AD000013F2D32D4271CFB5683CA0B8B224B96E9
:104AE0007F4EAD84A7988A4FB473C0530A474629B6
:104AF000EFFEB7A70BC7932BDF0AB7EE7E7CCD8303
:104B0000DABCED6D8D53AD90032424E38F0024783F
:104B10002C7FA0B90225E659966C948E49D2E49375
:104B2000A543CB0A9B9D3A13C5FD8BBD2250A7E53B
:104B3000BF8D649D9BB1C0E8A4B1D79C709EC85A3C
:104B4000938980C727F3A1B07C6D2AA7312C48FE3A
:104B500096B32E05587D5A84E41C75A533A0FB1628
:104B60008B19033572BA27A4B6D7B41529780D96D8
:104B700066B0347F59914D57050F5F43EA2C2308E7
:104B8000E376AC4DDBF6900EFD1F8E86DCE128E867
:104B900098037EFAE15554AB4762909722356B70CB
:104BA000C95A5B17C525D4624B15AAA00FDA57D492
:104BB0005B8B756DC13BDC81CE2B19ECC7248E8CD1
:104BC00008D0BD53B14748990949F18269A04C43C7
:104BD000B69F40DC2C7444AC067AFF8AC41857BBDD
:104BE000388F5A4EA8C55F8F03261DE99F04B7B2C0
:104BF00092B4263362E7810A6A71BCE8B924F9B33A
:104C00009EF85C8AE9BFAD86C3D354A8B72527496F
:104C1000FF77B2F02C3A0F9AD5508F1E2F2648E618
:104C20005D92F8797A3DB783044BA4FF1F953CBD94
:104C30003AF707D093B7D5273A73CBB4997EB0D162
:104C4000B3DE0C88DB566A483104CDEE7376723ED3
:104C5000CA1A8F17DC294F8F2524D18A92C9C9140B
:104C60001372D1FB0814E9DACFB0DDEEC2B32067CE
:104C70004394FFC6F73EA732BAC4C4A0ABDDF230FE
:104C8000D4CCCFCCC6A45C6105306EF6274DE58050
:104C9000BC31F8616D2173D969660E3EDE0DA65EEA
:104CA000B1A72731BD5B4133BD3012784FE286D9C1
:104CB00095BF41C0B614A4F132E107F6599276D7F8
:104CC000D9773F36F31747711C47825D85E0B534CD
:104CD000CC013808FD94E18C3DFA2380E6E0F3D95D
:104CE0004747992CE967C8C254950909B6F02AFECE
:104CF00088E873D0DAA0302175B7F69141EC5E15E3
:104D0000DF321A5364C7CAD01BD0572E1530DD5E70
:104D10002AD70293E381202CA33B2B0E9642C79CFB
:104D2000D2D40AE68506211D2929ECA674A4DAF35B
:104D300056297CD7397267101462A50CC48D314393
:104D4000DD7D5F09DB44E92421EA433028DFCBC362
:104D5000931E7B00126305331EF8677ABCFD8D300D
:104D6000E55E456C240C66BF3A73C19E8439E34FFF
:104D700097C3002DC6ADE2F435B01B05A31E37CD99
:104D8000D963902D0FC5C7EE1D3E9997CA42948CEA
:104D9000A076393DAFDDB0A995562B87080D601080
:104DA0006E302698EA549B64978B079383026C7E3F
:104DB0006393ECB97BBC7B86A854D5C47D717AE241
:104DC000608E8DA568938D02FB6B462AD403D5387F
:104DD0000C748C6BD8C6C7CB51AFB2888C1F4547BB
:104DE00068E83D90100AC7ED22C266922D7AB1386C
:104DF000F8C7A553F52890A28EA893C20302595B69
:104E0000482703149F4834198B809FBF683A9DD66A
:104E100005704F32EF4E7A4100AAB489DEBDFDB86D
:104E2000A6A2EEF264EBA988047A91583A3E1C23BC
:104E300044EC4CD7A2E379D903536A0ECE5E657E6B
:104E40002ED6EA32CA2CE3899041DFD854D09BF8A1
:104E5000C99E4A478311D6F49FCD9AC5C636C1D89C
:104E6000FBCB2BA539E81BE76E3BF8C3155884959F
:104E70001C51D389A85A8B21D7357AA30D837C6B1B
:104E8000E73E015E6B56184D8A233DEBE2D9AB2D10
:104E9000EE6211F9EA2C06F2ECCD40B7D8CFC69AF3
:104EA00061EECAD9A0AAD6A2F76B1407CA3E899AA6
:104EB00092F3D1E5A537E77E1CE382332D186DD53B
:104EC000EACB98BD1C7DBCD737AF0C604410833053
:104ED000463ADDF53E7148355101A510E962F98386
:104EE0002EF86962E96CAC9312AB0B1E618A141D3B
:104EF00077EA9782F417900E9246C54EDFDCB2F047
:104F0000ED81061C1AB445FC53AF01EA18122BF0D0
:104F100073C0997EFA7EBE3E68F9D5BFDE23711B51
:104F200034B58A43D774BB2594E32133B2E4D5C0AA
:104F30008A1003B4DA0ABA76E9FF182D96A148223E
:104F4000AE6A45AD392A1E34A16502D2393CA0892A
:104F5000480AB95A2C5528B46ADFAD1AFA13507AA8
:104F6000C979E74062CC0DEC002701ED2F5FAB4320
:104F70000CB204E3EF64D3B15BEBB51A5928F2AF7E
:104F8000707EE12B9835AE5CCEBB19A1702E7CC92A
:104F90002C42E8FB7A1ED727FAE4965622BDE8ADEC
:104FA0001463B1AD4942F1065A3CC8AF4FF955A15F
:104FB0008A88B9B98D1725B649054FFC888F5FF7E8
:104FC0004308ACD6BC29D74A796441B78E45B75E51
:104FD000E42C093A3A3B9C4DF6BFB7A7C50A8CEBC7
:104FE0006CCCB156EBA56066974551CE2C0AAA99B8
:104FF000EDB7AF4AFE9B07474C996A7270A2B22880
:10500000D839C9A67DC220C37E5A0FC19A500CF16F
:10501000B4D1068D999F1A565224FE86D104FAF413
:105020000EE6C80C00DB55CDA1867CC671C386E5B3
:105030003DD6CEF5A3CFFDD942D3546488552B324B
:105040007E08FAAB4060C9CCE7B4E27F9C454FDAFA
:10505000E6E889CAD497BE9F0308E76B7010E01793
:10506000D451AB009D667555EEB1637C25E3D582C6
:105070006C20DA0731F611CB8004FD48C501AFB6CC
:10508000287578672021DD51DB21BD4124D954AF3B
:105090006F43A9C94DF4C0F31AE144499B6D6DDB20
:1050A000E90639FBB01F988DFF55BF56D76CB8D5B0
:1050B0006697498EA5BE8099239DA8B301CD2CB7D4
:1050C00082FAAF551225143A43343740F46CD16656
:1050D0002800BDE0D7FA9F7AED2E4C79BE348E1EA3
:1050E0006897B33212D4B5DEA5EAC6CF364563F071
:1050F00036384DE1C2B203396911D62292248B377A
:1051000085461B14652FB1EE8247D7A1F1BD39E565
:105110001D9B7B593E2CD8215310A065A299B9D470
:10512000BD04BAFBF48023A14CC1D260D57D92BBF3
:10513000D892BB0C121FE68E5605466AF9AA02DB0E
:10514000D076EB8A162446284CF11626DAC36A2557
:1051500086EA9FBB013D27CD3ADA92BF40584CF812
:105160006D4F87134E3625AA17CD6DE351C7B9C3CE
:10517000F88AE3E9D9045D438F6A686A8EA0A08645
:10518000A288E8820312E317C8E1C8A595C2DC2211
:10519000224EAE9E237215CE2A8CE62BF15147B3D8
:1051A0004F7ED483255896805700058640D747A662
:1051B00097E38374090255679F584D7D097F8A9054
:1051C000CDE65FAD9875E511AE88ABF2002B484F88
:1051D000862C96A9A3797344E8E93B1432240CBBCE
:1051E000261AF3318EF6DF1828DB75FAD37732D81A
:1051F000A01F1386E3CA8F5007B44378B58A713570
:10520000927DCAB117A0CB11EBC092475ED933652E
:10521000C496080DC4B8DD4B09343D1670A20A656A
:10522000012E380C1C5689A921344F2F266FDC53D0
:10523000D719B46397CDF546DFB721677D4699440A
:10524000AC009A8DF8124FA118F294D1E9D1A2C402
:10525000D9C3B9CF02C02293211CB036BA407779A6
:1052600082C803C080BBA8EE1A58CEEB4539B7A25E
:10527000D35B6B248F77291CB18B4F98D8A5328EC6
:10528000A9ECAD0A4CB48F2179861897ABAB2C5E94
:105290001B834647087079EC277C90C92CEBAF9EA6
:1052A00055FB05A69CB5F933CDBB937C8124E7A6BD
:1052B000934B96D0F63D9E39E9453DE874EB01B439
:1052C00099D497D5573AE884278A154561AA575A41
:1052D000EEE5525763D3F76242F84CC03C8D00FFB5
:1052E00086E6388B851B3083C90EB7104ADFB420A1
:1052F0003CAA37626FE9F375811A55F26650EE9257
:105300003EB0D5B5CD2E9DC81C118DE98ED268CC8E
:105310003034D7EB719792F56CA16AD73834B2F07C
:10532000D70AEBF9FC61111ED09306E070D73498D0
:105330009FB76E35ACE0126A28D2D4327DF1BFB08F
:10534000BE586CB11377E74EB57ACF7F69FB5E80AC
:1053500067B2472FEE94DF532622FAEA8870F2B242
:1053600080674BFF835CCDDB545053F8541D9D0880
:1053700024A874DA84667EB382BA415B342D1D386A
:105380000463098023AA6393AC40B84FCD23E2D3D2
:105390000A3CCC64C7E271C0BB08F6B62DD727BB68
:1053A000433F2D9DFC81FA9E22FA803DA04E37CFCF
:1053B000D59E50AB622BA175DBDB64827C57C33674
:1053C000A14CBB6C9F44A8AF37E140CB7DCB318073
:1053D000535FFF48B3588E9D4E8CE039C5639829C2
:1053E00008876DC20A22E3D5A54632A0BFA4CEF439
:1053F00066F8CBF45E9DE822730858C0933D8B4558
:10540000448B8934B793CDA7757D258130F3391945
:1054100098B60CAD5F9B46AE41AF1E27CFA836B500
:105420008FD8D84F82C4ABFE5CA84C430E8664AEC6
:10543000B9A2FC79966841EA5DC8ED4F03C797674A
:10544000D709D0610C2B5D19DB00E96BDEC952CBAB
:1054500043A501B2E29C0DCAE43354F810E7730689
:10546000CB015E5E71175378B9A0383427B7413944
:10547000D32402DBD884A9B081847DD4EBA53795F1
:1054800064F328723F33CE8E08ECEE2588614C0918
:105490007F4CD0189A4D485A055162E2A330F05221
:1054A00069DBDF22F6077DBCDBE8A70800789B27D5
:1054B000F3CFC1E0ACACFFBF3DBBC25C6F0328B60D
:1054C000B77650EBB33866F97D2AA07BED8ADBD93D
:1054D0005BB6429340131F487A77FDEF5D7C3F4AED
:1054E000294C522C6BCDD2BDA11352293F4E3466AC
:1054F000314FEBAA67808B8B13A2639188E03F0C3E
:105500006A26976241AD3078975C887D995CD38B31
:10551000E401D0667AE7614DAFA596921E7413C080
:10552000B5B67F9DD68173BCFB70C461A4B08F26D5
:105530005F8C02F11C4D2CC1406F72D60938C488B3
:105540005DC2E28F63AD57DA55749180605B2605CA
:1055500054007358A784909F2530FC48C5C9A39672
:105560009399E918B99F5510234065D5427D659CF4
:10557000640A65FFC9BEA9B42105F4B66D96DEF5CF
:10558000BAE13683ACF99A1ED5625464EC9FF400FC
:10559000968C7F55997ED5988052A8AED43CDC6716
:1055A000D823579BA4664CD6E3509E7E60E9FEB696
:1055B0007D044C590C1529CD539935394F249949FF
:1055C00034EDC3A92AC769966B99A1C76198137A6C
:1055D00022279FC8F53EDE2B5E914BF5550F5DD916
:1055E000F1DBF03B42C61C3C488E3A9DAB1FCBE53D
:1055F0003EC8CB1E566F4DBD7F79BE322D2A169DFB
:10560000E2C5B361B5D406964E58D60F5921E68748
:10561000FFE323F343957567FF758B57819CD7187C
:105620009EB9A51EECC946DE4BC4CD2D4A1F4BDBEF
:10563000035403CC025A8244014F85A1547E1506BF
:10564000EF1BCFE646F6AAB4E3BB81B90AA1D91293
:10565000BF0FF5B226D456D765D07E9B083394EAA7
:10566000DE5A4B55CA46BDE6F3E97922889C807123
:10567000E0D306EE6AA0E014AE380AE3B0935F60B0
:10568000CFE033C16B3CEE46D691A5AB4DD0E5E003
:10569000A4F383EDBFFBC98FB163C08355CF8B03E8
:1056A000861CBA62FFA17693932D1DE0CF3E1AE5CA
:1056B000092B66844EA08CE341B5774C30F5AC36AF
:1056C000292261030DB5A740A96632994C392FFCF8
:1056D00049DA9213AC5034963609322776E3FAC091
:1056E000B84FE6EFBC50CD8861FAFAEDD58E9B9BA2
:1056F0000FBA7D1800E2F27C070A9F94F9D3403B71
:1057000033D872F123E24C01F7472B05365427605A
:1057100010D11562E3A403263C876B0C8413C6C723
:10572000F7425755027D6E6952C69BBBD0C2C291EB
:10573000A556B8A65CE515DC55254C035699046EB4
:1057400068C3CF572970346069BC6E560C6F9E9643
:1057500088EC9C8F4DB6F415D77A6E38EDFFC0CC2F
:10576000E427CAABC2629889F0A3C8C94D74360D4C
:10577000FAEE14C4F28AE4C5A49EA908680EAFF23A
:1057800000365F4D00B7A8E5AEAC3465DF7BDB418A
:1057900083C8BE22D3B279188BAD931139C62712B4
:1057A0008728D82397C3A30D2795A4CB1C7F42A499
:1057B0008262B9A0668AEDBEDCCD24C71E38E25FE6
:1057C0002E01AFFBD1FF66473566DB588AC6AACFEC
:1057D0001BB7A8102BDC8798851C6318DC4727347F
:1057E0004AB1A5E99F2705CE8C9B532A6FF9BD9F2F
:1057F000C0ED5DA646DA2167D69C495DFD17289F5E
:105800009ED500332BAABE43D0FEFB7B03124A85F4
:105810000B019332FA84735CBBF368648D3B3F8F5A
:105820001CAF219C165CB7D2E33A1F38831C850F4E
:1058300060E679123DD84BCB19C410C6C566B08A54
:10584000A2CDAD2F9F37B0D75A8F0385253BE8CC2B
:10585000F983824E6BE751848A143384035ED9DE68
:10586000655188F80897C8644AB303E0ECFEF8BBBA
:105870000C9517C105CC7F55BEAE1792DCA78CF9ED
:10588000C03BA028D20C5AE219ED98C816FEE5904C
:10589000B869FBA829ADBDEC9A9FC3A1D848C7EA57
:1058A000103D598B034894EC0936D6377FA9DF5455
:1058B0000C46C1F9C7BC48CD5B6E9AEC66AB16537B
:1058C0002EBB07C64162CA74E2FFFAAC2B15958461
:1058D0004CC68A0CCA4AFBA5515B50ECF44B20EE37
:1058E0000392697DFA92D50FBC819B247E9A3B6717
:1058F000FEF74B56C0A6C46DBCCC9217D7378FD3DA
:1059000023C036BC11A742F1D70076FEF3EA5C2B28
:10591000062F8E4F795EFB1395BC55AB31E2B34138
:1059200055187CFA9B282A2DE2A6FF7AE183256F81
:1059300097738A52C078AA9804094ADEFD5078010C
:10594000A71F4127061340BA46A556AA05FDEBBF7F
:10595000562C51358F3E997E34F6A80AFAB20B08C0
:10596000E55D2D014DB957A0A40B0FE9CBDDE57620
:105970005791E7678BF4B2BB5FEC1451325432F8A5
:105980006BD973938F493510B2042D93D3D9D9DCD9
:10599000B6522FDFC5DA177DA12FCC2F97F587A937
:1059A000AAF7C8C307F7180D9A52DDE45E0C756AB2
:1059B000D34E75B7EC61BD0C58C775F4F4CCEE98B6
:1059C000001A62F94D5E6D52EADF90957848865F65
:1059D000B05183B2973BD588896177BD20ABD56440
:1059E000457AA6973DBC68E89C559D28889DDCF9C2
:1059F000D84C0C3CFFC2ADFCD4E70B1AA636FBB367
:105A0000FED788EBDEB7F4FEE3F0D0647F660525B1
:105A1000799ABDD53C4A3AEC76BB3EEA8E94EA864A
:105A2000ACF1BDE1B17703784AD1B6E4015FAADDFC
:105A30009003722A865419BC3B93065234FB3218E9
:105A4000C3F6CD0CA087D09CEF8BF4DF95EDB1FCB5
:105A50000461AAF64FCF9EE824DC016AABF148B09E
:105A600065B3766E6B3FC222915B2224B4A625F209
:105A70005B65B1FE064F86CC4487030C82B857CCD9
:105A8000B8CBE56915CD4202234B4D02F0F5A129B3
:105A900078DAE5F06BBF15875B6319B855484D435D
:105AA00023DEE4A42889B0F8DEE5CCB2535D0CE730
:105AB0003F01307051A76B7085D8A1C3D3CEFEFCD7
:105AC0004BA38DF90F37640325A11F02E39A82C40B
:105AD000E7EFBADCDFE4B80E015F802D42D845BCA9
:105AE00062FA87BA56ED6A539B514E5430E6C1AB09
:105AF000B02785A7C37EF43333950F73ADEE2D39F0
:105B000001E94F2A2287E71CD7FACC213CB0FA7C66
:105B1000C3CBA99D7D5D179B436E123F4EB72CA250
:105B20006AE27CC2E7F35DFE83E6E17BF19FDBC4C2
:105B300094DE1A4ABEA62ABAE481C1D13285201465
:105B40000ADF887FCB029F8F2C9C241722C97E44BA
:105B50002B151F9B338B8146BD84F6E3C91C0C18A3
:105B6000C848E3C0FC959D0931207677261B5FA8C5
:105B7000DFDBF05FD0AEE33946463E7860D1D954E2
:105B8000DD1C4B0CA7F110E82773A74140E47038E7
:105B900076998394AEE5F1A5E04DC6F10CABA8591A
:105BA0006C592E0F5436CAA27317CACC259C3AF2F0
:105BB00013ADD2AD8A1A65E956B60BBA5FE73D213F
:105BC000E1B4603E6A2D8747FDE62C87B7AD21B66C
:105BD00006F0F2BC0CBCDF48EA09B8B940B5095D73
:105BE000C993EEB2CB7FC7B0869EAAAAED5CAA503D
:105BF000ADB8B89F0F02E6BE5AC81550CC5BAEEEEA
:105C00003B1D970474B64CE1573E82FCF42FFC71A7
:105C1000D1716B54F0DA62BA576F0EBA7EA591F269
:105C2000039671737F3C1F5F71DA2B9B87BFD26233
:105C3000418B9BE527186CC22DCAE91F923158474A
:105C4000FAC612A845895802C7500DA323CD94E285
:105C50002893AE9B9110BB65FFDAD2C63879EC92DF
:105C600041713606839E1C3ECA5F9FD74E12AF5CC1
:105C70000CAC0E53E7A0175B6F66707D5D8C935E76
:105C8000847218EF3260A3406D1FC465CE6757ED74
:105C9000E11C1B1955EDCA5CFD9249AFE5E57DA5F8
:105CA00032B7762FCE6398BF43A537817FBF904E22
:105CB000EA4779E85C59F26F343F37EF2F86106C72
:105CC0000FFEEEE1CB52B9E2CAB48685C1B348CF2C
:105CD0006F52B9F817E4FA1801F4B64E06D24DFC2B
:105CE0008A547E42121BEA901A5187DB7DBDFAFB73
:105CF0000FE8712432D70D0AB3612E233249BB5D00
:105D000057613E748E13A0479BB23D658B82F47938
:105D10004E6D5A7D4125A35B55C94C8DE133C14081
:105D2000798C7CF02EEA932D91D2227C529ECA4A25
:105D3000437AF6D5ABB2F71106B51C5991A37BF89F
:105D400072EE25652FD130311D9713A71DB53A3559
:105D5000FD0AC252BBB0965703F2B735D14DC761A9
:105D600033CBE9CB9B8AE883B989C4B11CB595963E
:105D7000A643DEA172B91E63A8F9574C252599FFE9
:105D8000A01ACAF7AD77523FC8648A22BCDA735BA7
:105D9000256799A5E62F0DD5C39167E9FF21B205C7
:105DA0009B00146F7C3DF2D0FA905A6FB26C111DBB
:105DB000F299507B26783CEF5110612DB8E165CD0A
:105DC0006D6C58B4430D834EAD255C0B58FCE5D18A
:105DD0002C901A244A9B8BCE315AB6A2EEBB0850A7
:105DE0007BAA0B8DC338C925123298DD4469C4994A
:105DF0009ABC4BFD35F28385EB94F09F2C714E9449
:105E0000FB83DACA3BC82C6646FF3593CB335BE590
:105E100053F1BCCAA0DD173BB1451CEBCD8E292840
:105E2000A0DC093BC1BBCE3AEF63BB9F9A2B531F4B
:105E300029D99D214761C8AC6A0C81A95D087446C7
:105E4000F3A057042672DB5F4ACEFD6F6DD2A385A7
:105E5000D92CB21E257AF527E8C48409A3F4B6BC70
:105E600033FBBD5248C95BCD7E55E5C45A529352AF
:105E7000B078218089944FA3A42E95D9BD2FDC45FD
:105E80007A846705B76968F537F4670C1509CCD0D3
:105E90008BD1174EC316904750A76CFCB57138587C
:105EA000ABA0EACB0005AC7E496E0A7A5006629D33
:105EB000DE1957B575CB83BE2995E012FF01144F4B
:105EC000B99DD17407B6D3E4CC50B76DA88EC16725
:105ED000EB6E59AF304D07EBAF682382C3EF9C22C6
:105EE000856EACB73E414B7DE023AE0F52A7F288E2
:105EF0001C84FA4EC6D6BEF4CABB236D0D30C30D4A
:105F000044B1967C987DEA8F798F7040ADDE372959
:105F100017FE1FD3EF2FE9FD020CF4EC8DCDCD223F
:105F2000A95F8B62EE2AA22BD503B8D0AADCC3DB13
:105F3000841DC0B3976944205E1E00D60708BBB01D
:105F4000948F5F8CE45BDF8AC5809BC7EF073AC301
:105F5000E27727CBE4AEA9BA17EE4DC62976638F58
:105F6000193BB4ED3FA596BA76732519D63F24B5F3
:105F700040FEF98D6661F4B4454E3A8F115E27C834
:105F800007242A0734D5AA48291D537523463E966F
:105F9000017ADB086A6EFDFB2D7201AE4B711B9519
:105FA00036472FCEE46A5949CC653B8091DF4A637E
:105FB0009714EDF140D9D83BAEB0C6665808D44E20
:105FC0006685FEADFF9636418ED2AA48EFB755A63C
:105FD000357E451E5F867A7245B9EAF5289E69507E
:105FE0006C80AF9AF11DC5F3AD08378C7A78CCA2DE
:105FF000424BC6D54692CEED6EA058B801C547B803
:106000003B8CCBD2480B077543D75B1431AEDD8197
:10601000A7D27F02F812B44DD973476066390CFDE0
:1060200063D823922833A3CCF83C8180751D864E1B
:106030001B60D1FB6E3D36267F5BC8B1A4F9FB2007
:10604000504B6980DF13CE1735DA686BFE3DCCD834
:1060500022A6071C7ADBE88E4D698C697B3C4BC419
:10606000436410B680D62C7786B3C4D47917F12751
:106070007E8992CC7F83063BFE3CA522DEFC68D560
:106080001199A919514EAC966313610FB7B612124C
:106090000D83054E50BC84A6EEFF415B60811872F3
:1060A000939881B8757F36AF96E8C8E781FEC32B19
:1060B000AB8FE0E7AAF2EE7848D07160C20C50B71F
:1060C000A72F0A359F479C3BF6BAD31EF37CD45BBF
:1060D00009CC240B399B5341A0243176AD9B5E1B28
:1060E000C4AC3DB3F11AB3ED5EEB040F07F001D77A
:1060F0006FB41B7A89F590C58731DF6F79EEE41AAA
:106100006888420CF1A227C72C8D7C69436BC15F64
:10611000E4A9C3078486E5A4778A32BC6A5B234E70
:10612000D58E77EB0579BC0755314E9AAB10A05050
:106130005A3F43D4CAE8D502693F444BCA4FA180B5
:106140003424D24BD667B9D6017D50499A91EAECF6
:10615000D9EF620D91D9A37F0EF92D2CD2E9F74129
:106160000D11F9D642DAD4F86724D64FE5D29C1F38
:106170000C025F8E04573F227AF3DF41CC184A2984
:106180007801DB59ECEDB8D64A04B1B0E820F8D874
:1061900076A6FD6ABE44D9A90FC2BD015FF4A8E985
:1061A000269EDD784FA8E994BAA26A1443EE0784CC
:1061B000FFFB93CEF561C300E77FD8D81587594E12
:1061C00033A15209737824F81FD2D63E6D0BDA75CD
:1061D000A1C75F9558CC94B33D8CA7FFDDAC1426C6
:1061E000D3994BAD87F46367DA1064D24B48C08E05
:1061F000062695021B952BDEBD950CAFE53A69137B
:1062000082661809F711931AE923218BE7BB118ADB
:106210006926F9CB3F2C54396EEE91AA372D649A3A
:10622000D0345F65D4CF27F2B3E4C4845BF0C8AD4B
:1062300088A18426F9103664C3DD293FFDAFF595AA
:10624000D7996B72BACAFB74F493CD2AA330E1E8F4
:10625000E682AB71ABF7E66AE06D024D56C651D3EC
:10626000D1A035A35D8AACDAE8AD53B9FDE2550C97
:1062700071870F60D759CDDC3FB8B28D4A17204CDB
:106280001AE5088EE74E2914E6BF3C3788289FC7D9
:106290003612A3CBB209CB156C43EC6493ED4D7968
:1062A0009CFA6FB465500EA125AEDFC316F439CC4D
:1062B00018972E73ED4E8BF220DE00FE4C116D70A0
:1062C0004524B09406FAE4AC510E5EAF6F2ADA7D35
:1062D000B2E31E863B822395BDE0A62B649ECCBF15
:1062E00089A938ECD2EC48A0955AEBC834133696FD
:1062F000B829F1413D24A3805B3A91C02F8A893CA3
:10630000A2034A72C6071422F9A07DE076A73D4594
:1063100003BF1A5A90E3ED6CD099B3E059AFE03067
:10632000AD0FCD7D2FC96337E6D061740F5FD7C73E
:1063300010E3F1902D8CB4C775AD24FA3E7F062C86
:106340007DB85FD4077966B293F040D0925662343C
:1063500020F9EEE30DF2938F2B68F101B64FA74EB3
:1063600000595CD95105454D3F13CDD866F5D1563E
:106370008A3498677008116BB576099489C9AC4066
:10638000D6A3B7BD740EC3EC8D806722A563934C72
:106390000874351AF5AD740E314BCF78E83F672796
:1063A0004061A146510046E25D59B46A2777CA6050
:1063B000A9DC039150D360AF6510486FB4FE9925F6
:1063C0007B9197CAC4CC003AC7DF276EDB7E3A5771
:1063D0004FB2D92ECE737E9D9D122CE34F1B935846
:1063E000F6B0F375F6A90F76DA853EA8E24BDB6DC1
:1063F0009DF91425570E57D4A3A412CB3CDDE3011D
:106400002C8437343C2F3EEE6D3C583A8D3330D5DA
:1064100039E85C35278D94B950F019391D71AE28D3
:106420006C3EA344BC1A1EECA7EB548467E020B872
:1064300028E7F55E9465B7C671983E5DE35957321B
:106440005CA9B8565F14629F3AF42C53AA354C8C61
:10645000A1DCC0D57B4510CA3DA0C618250CB17380
:10646000E1ADF5DE3AC2F1A6849850580FB3FAE0D8
:106470002DBC765C42A6AA7079F3814AEAABB132B0
:106480008E20F799FC94626A3F547CC5DB2A26CAA9
:10649000D6F74CF37C3486594687BAF1914CB0B9A3
:1064A000CF4104D721FFBCE0B0EA48F33656BC4EDA
:1064B000FEA021C6E9991474669016B841E24A8597
:1064C0005DF0C66F2AB658D11EAAFAA5A46969075D
:1064D0000E7879ECFC1F7331A50ED54E1024254E95
:1064E000EFAFFA0289D2B41A03D1DCA91E686B5847
:1064F000CAF44756D35FD94C0954D17E61196A0753
:106500008A536B4950204F41FBF2BE54CEAC42D867
:10651000FFDF84FCB5C1A10A8557D9A0047F2F787D
:10652000EAB776166F0D6C1CA1B8F53D86FC58FADB
:10653000E68D53E0980562B66D816AF03F8E1BF3DD
:10654000314DEBE15CDD07C40C4AB6116FDB28C9A5
:106550008A20BE163BB02563D01E659147B5A26C5C
:10656000C37233CD18C715CD0BD87624F2B507AD5D
:1065700092D7523BE02E495745209DAD3344A95652
:10658000888CCDDF9A68F02C670B72949DEDF6B67F
:106590002C8DD4EE1C2AA16DDAAF582D91FA241C53
:1065A000865FB7D08E9D4DD4A39BAF64DEB5FAFD58
:1065B000935A386D977D7FE22007E9EB6D6F8CBDB4
:1065C0004BECD8A38E00EE16B9B4A7B995EE7B02BA
:1065D0009A5C8EDC4626A37B1F01511C55A298AE07
:1065E00057D816F0EF1CACDE6B725939DE3F8FAB1B
:1065F000AA7CBACB106237B4F5128D3D4656D696BA
:106600005866C0AF8C9339B6CF63094ECAB00F2419
:106610002B4080EFFE3E0E42B10A643CB836B6878E
:1066200036CD4FEB80DD3FC6359925FD26393C63DD
:10663000C29B8B89AAFB2E4A71642F51D49B4BA21B
:106640005FF716CEE133E8A213E588217E26DC460B
:106650004BE31A96CE8AFDDD946D3405AAC31A94D5
:10666000DB953BBDE0EC6A5F5A92AFE68F530A714F
:1066700088B4CC70E8DC380FA54FF557CCFBBBCC09
:1066800044FA988E235E58A386F11B040B643CF8F1
:1066900082FF606D70242CB512497DBBC2F9328334
:1066A000CC07DEFA6B38341B0E70D579869CB61990
:1066B00084B513814DAD7BD49E0FDFC05FE410A481
:1066C0003EB12B03ECB046EABD379FCFDC7ED967E5
:1066D00066205536BCA8FB822FD2A60C0212BA0C3B
:1066E0008FB8C4450447A3B8AD5329FE5B7AA221F5
:1066F00066AD4B2895BCDFE3A30EB7CB26238626D9
:10670000DFFA7C4275763424E5C41CB0F89E663B03
:1067100060E44A421CCC3E333950B5942F7E27E0CA
:1067200061D4D4F4BB3FEEFA5379CEFC718D719FE6
:1067300041EEC29D0E8235E3F3642F7B98C63AE4A6
:106740006ABEA412B0B3CA898714ADBDFEE10D11B3
:106750005F994D30838B6E734901254864EE723624
:10676000A218A0AF0A27BE3A39DE99F9BC086CF628
:10677000BEF702B1BC48FF4FE9630E9ECF1203ED96
:10678000555F3ECB84A5F274C11D6FBB5A05688A64
:106790003F74012ED44DDADE2A6361A51A3D96328C
:1067A000D592A522CBAD08AA70B4532CD0EAF79CA1
:1067B0006479BA40DB77F7451E7DCC1085EDD7783C
:1067C00082747098E75950ECFCAC47B4AE840F214A
:1067D0008E71328B9658AA2F1C9E1F859956143A9B
:1067E0005F529923B546C901591F3F61F26AEAE039
:1067F0000C1DA20A38311874F7179BC9F96DDA0914
:10680000652224DEF30E21D6BB0D6E89F78E227C25
:106810009618E5D83FAF93AEE7C1B05C7D01C7C91C
:10682000D6D203B8478A35191B4277576FA696F020
:10683000AAA6943B97498603B90C6A5108C5CC2B8C
:10684000AA2B3D0EFCF4F2D139DEE514D1EB040F96
:106850005994B9F9800907270A0C060BDD9C2BDA3D
:10686000409D1199BEA72F7D314289A334CD61F49B
:10687000FE265F042A2378E11A2A928814A7733E21
:10688000448602FA56ED99D5BACC87144EBA24A3A1
:106890001ABE832574B6711D5CCEC7DA3223027C22
:1068A0006AC1709F0BDF61773AD42FE320C09984CF
:1068B00027367CE06F4B235C7CE800793B2FE5605A
:1068C00071D195BA4D175524D79F2C98F2623FD5B8
:1068D0004DD214E6D0EC1BBECF3D93E1E6CD61A5D1
:1068E000C213956B0EBCFD859E64E619066122C33A
:1068F00044875239A270505DCFBBE84705A10CE92F
:1069000099F6638E568525A75346FFC6D853886CE3
:10691000A33CECBBF5C2B9B1ACD146D976F0526418
:10692000BC16889C02C47C0079C1DDE8BDA9523147
:10693000218B67287968A8F86A07DC3791BB6D243A
:1069400071BEB234452DF678AF41777671596978CA
:106950009454500C572E343747FDFDC856A5EE69A8
:106960009C888040B3DAE712B4B604413ECEDC8E98
:1069700086CCCC80E9C095D998578B1923F4329DE9
:106980003356C8BE31439975A456CD50153F01F416
:1069900003FC8AA249BEDE1C791ABEEAB17DFBE582
:1069A000F2209D9B8B003C6AB0B35720432159BC19
:1069B000B8BFDE9916701D3C8684EE6E61E1ED2451
:1069C0000BACFDE7B6CE9F5E9E90BC233FEB6CF117
:1069D0002546CBDA8E1487498C9EDD7ADDE0142FB4
:1069E00000DE4363E477F09C344CDC9C5A3ED6973F
:1069F000B25F8B65C4D033ED18CD006F1E2925F72B
:106A0000EF2A70B8B12A3E7FAB406B9DB3B7EFC49D
:106A1000A45864D0134C0D55F2122656567D80585A
:106A2000ACB7EED4DD9ADC354FFB8E49CD174DE186
:106A3000468B25E320C2279F4D60B6A3E0E0E40625
:106A4000FB03278792F17D5A4231EDBD9E2E8E4584
:106A5000ABBBF6731762CE01A001D92535E59ED7F1
:106A6000797EDD9F5E563F73AF1372163F7AF03D1D
:106A7000CF3377710D31AE5A4030362FFC27495D48
:106A800034485A082B9821C9BFCB018849BFC16A35
:106A900069CBA91813576F4D3E30DF7B2A81D05840
:106AA000BC016F59A594FC038A41C1CC3136C85250
:106AB000DFE092FAF7127E445249A29CF34B09663A
:106AC00094B8BC94C6A6E67C755FADBFBACA7C8498
:106AD000B92A2B148344E343D227091AE10B2789EF
:106AE0003DD0B3FA9FFB76BDFDBAF7E2C7554DE73F
:106AF0007E21CB9D0C27A865A772DF61E67661B287
:106B000099F5599181E0A4F2ADD410D94A6EDA50CA
:106B10008A64D8E084187B01B4443277925203DC53
:106B2000E3EAC7D7C19EC7260F6B9B3DC3106880A1
:106B30009A807040D7F5409766269F0E65FD7ED3FC
:106B4000B77377ECEE21DF583EACDF13405F77BDC3
:106B500093FB4763704EA73CB99E65B753FBF84D56
:106B60008F7B2915DE7BC319BE8DB0077526C1C288
:106B700077DE73190F09D2588925E0B090203FCEF7
:106B80004619E6856E8F4981FA79A56A374EE22A61
:106B9000357B9FAC5631043D802D35D043EEAD2D75
:106BA00076D5B9C3AF15D064CD4184CC01B2F423FE
:106BB0007BEA2FCAF4A633E1F9C01B5FE5603ABD5A
:106BC000A855528665714EED336121707535631796
:106BD0006E2A11BD00684F9B7EE692B1F2D8C36B5E
:106BE0002E42B31356C2AE99BFFB992483D9497084
:106BF000AD8FB288219AF7279C86BBBE1CE47C1718
:106C0000F350BC9CB191A382A458B5CF6FB489DD79
:106C100083F2698150B40442D988C9C409B51CA85B
:106C2000742BD0CC4277AFD6054111857289C3BB96
:106C30005856C428B9EEF08DA6E08D18FA7DAC79CF
:106C4000E173A45A22CA3554660E112D9E02643D8A
:106C5000574C0C9B2DB59AA7FB4986563587B28DAC
:106C6000E4F744DDACDB5DA2EFD1007B08325800D5
:106C70002CF51E012ACAE540F2E0D7818306608226
:106C8000FB9F15B2CB5E1483FEFF9489A4559969CE
:106C90006F433512256FBBE6FA80746F3B11456474
:106CA00011E5DED0A2004FFA51E2FE5BEABACF8BCB
:106CB0003E8826776AF19914100791D5553C822AAF
:106CC00069EEF8E6F26C03256C11AC3118F6104F42
:106CD0000E6C808A9974C621EC9D97B34FF9A9BEBA
:106CE0002656C098FCD6B2346F9BE355DF9C42A871
:106CF0002E2D93AD9A4B48B3A7730E5728C35BF95B
:106D000083F8A335B6FEB699BEF4BB4D30CA793DC3
:106D10006743F06FDB40B89F17A0F250E79AFC443E
:106D20001B600D462F05BD20A0A96CCD500BB6F2FF
:106D3000F78974786E62ED9D8E9D79B5AB3ED6373E
:106D40005F2CD86A728995012D553FA6A1AB53F4EB
:106D500065FA49F541B5704EA5590C12CF9638D653
:106D60009F3872EE015265A6333E5D5A9F2A330D5D
:106D700053EBBB32DD9CC74913AC9D56365C839107
:106D8000E7D7672A91BAD44EC5676F223956D28D9C
:106D90008CFEEAB99D1647E8DCFFE12B313D819579
:106DA0003AA4C669193F3D5F271CE0A746ADB185EF
:106DB00018BB1E01165B2C0A70284AE72AE4AEB7FE
:106DC000775697167857695A66B26B3AA05E33CEFB
:106DD00093904BD54D21AC90849B6B1121B4A3D0E3
:106DE00080C191418F52A4DB768AF6884A2F8D416B
:106DF000D538B15CD3BD044042F9AD601D9C5164EF
:106E00003BF0C9418BF22BC5B530436F58BB367A86
:106E100013412F953F3BE41FD0B3177217AEE83EE6
:106E2000F96E1DFBEA40331F00D110B34BACB647DF
:106E3000AA589892AD74F523667EDD5ACD39DF9954
:106E4000184D18FA940F6C2F1CB95108E4DFCDDAF5
:106E5000AC762E41D4F534A294D37951FBECA8E75B
:106E6000BB0D6A94D79C8F4A0FA290D691FD522DEC
:106E70009E5AFF01A8211440FE7F957378D5D5BE98
:106E8000697A0E4F2BA4454CF4653D28DACC10529C
:106E90008FD007253FB8FF382FFE4C7D57FC647715
:106EA000091CA7503ADC4923F4ED213C6B2BF7CBAE
:106EB000BE7812E0F8BB0CCCA8953D9993A54ABECC
:106EC00095FB53F4C27B7D523EEB050501352392C1
:106ED00085B188934C9D44B0B3D5DE0804428CBF85
:106EE0007947227C6228232EF4E05F240BD13DD821
:106EF000EEDC75FF06CC10BF9778E07881B5AA9BD1
:106F0000F5738985F75B92CB8AE112080699CB81EC
:106F1000CDCFA30599178E4825550F5A33BACD9E6C
:106F200094FD7CA488C05EEC32CB5F9223D866C50A
:106F30004668C0AB978332DFCF0B972F7DF3D73EE8
:106F40004A79EB21465483AAB0FB906A09E60020F7
:106F5000803A01A702CF09FD7644310F23E1481999
:106F60001C40CB6A4201BF243B77AD20B0ED4117F6
:106F7000A5DFBD3D72D8D3786C307E27BAA5962D9B
:106F800013D73DB95E7A01FDAB2D673917397F8F75
:106F900053228DC2D73AECF301DE7F88ECEE82E516
:106FA000257D70E9071EDB994BB5324FC7C36ACF09
:106FB00012E16FBEDB05E47334085BE2494AEB2E55
:106FC00088736F7A5D9A1B8ED9359F1D57615CA0BF
:106FD000EC5534BAB6064088CE10646EB558E8AEAB
:106FE000DB6DF3EC57B70219E5045E54BAEABEC68E
:106FF0004EB514EAD6FAC73284D6B0641F13B5353D
:1070000022AEB6A529CEDCEF32D1A87F2703FBA1A3
:107010003601B1C25F8A1FBFBD3BAC371B3E317228
:107020008E29572ADD87646100C566CB38D0EFD73B
:107030002BD380FDF58A1908EA90E050955F9508FA
:107040008375360109EB6C89A3D6410F87D73B4B7B
:107050008496ECB3454357969DEC0D43FE464CB2E7
:10706000E3F4A9D559F412D78CFD7695F19F230A44
:10707000EE13D6843915FCB2064354B3A0D5891655
:107080003F9BD2A42A1DB75676AB0A8A7482959B81
:107090003F7B5F00B6BAA6F338D4CF1EE20863F593
:1070A00033B91917126DB9D8CF70E48E41C675C0C7
:1070B00038BC94EBEC14719691E8C525F347931D09
:1070C00006A6E65287C7D4163014BC6C3D5F374C19
:1070D0004CBA87845281FCFF33BB6DADC5923572CB
:1070E0001D4F6F0276B85615C35E3E103182609D0B
:1070F0009B8BDF9390C276CA142BBD6D3C77AD207D
:107100005E9C90DE7AEE38FE79D0D94BF5620606A9
:107110000AC767ACBEEBDDFFD7E70875A306575576
:1071200068F1885E21F648AA9560A9FCAD03FE507F
:10713000187A52F82684149BFBB607BAEFB5525161
:107140008D0855FBE3FC0252E1CBFA3AB2D960BCA0
:10715000CB9834BBF3EE92E321F5F12F95E5A66DC4
:10716000D866BC4B68A32F5F552B4D8D3C4A2A9A9D
:10717000A6EBCDA64091FB9E0847B5CA927AD18373
:107180001691AE821A386ACDDB45927739EA52926F
:10719000C1D7F96A25CEE915F249E04DB1E9B71436
:1071A00039BE4CF1B751F4E68858537B3727454632
:1071B000EE25791E886E8F42CBE9EB4CB48A97BCE2
:1071C0001D24A5B45699EABCAD9F0F3B22D7211AC6
:1071D00098AB4B6448793FDFCAACB479A8657609AF
:1071E000E501E3C3C9D021D9226A785D636FF75FF7
:1071F0006FF4966976164B5864762BD0DF02A03375
:107200001FB1154BBE7960C0005179C37A06B90031
:10721000D51204F0672E689C72503F6A6D9525B9AF
:107220003E293E1CE99BD76B129BFA38003F0EA506
:107230003493B311C3C8021CC3B2C584E0198DAE28
:10724000A57B79ADBDC2DE7E58908A15EB2298D021
:10725000368E51B7A00A8324F107CE74BDC3C2098C
:10726000218C9258B31A4751992FF0675168916653
:107270001C1B49549EB8D5A86B9795203F82DE37DA
:1072800010DB879637D35CD738AD12409415DABE41
:10729000A82B2990328F0F109642A8D261EBDF9A6B
:1072A00057B6B8AA334AB35A31B071EAB10D738AEE
:1072B000BC3A0215F1BEA673F8551E6A66935D824C
:1072C00023D9FE8729633D084979BE6CDB86439C40
:1072D000BEC67ACC1FA5432F93E9FB96FA13DD9027
:1072E000393E5F534F80DCC79E22A6B1EF2DAC5BC9
:1072F000065877D653C38F6AB5464474D9CFE7167C
:1073000007B503D54A4EF4D9276BD235EE1DC9CF48
:107310003AE24DE7864815092FF283F9856AC80AD3
:1073200021D0DF0F8A24F6158008A8E16686FED7F3
:107330008685837004EB11BE6CA3E35E5BF660860A
:107340003709F344EAE82589F2129FDB97A7A242A6
:10735000104548D1D23152D0795A3BD1C4026CA5E4
:10736000AF5871C5979073BA07181A31549120031A
:107370000108176848484935D9BD6A5445E55E1289
:1073800056ED5AB78B3EFA8992AB6AB65DDE8ABC7F
:1073900045BE923A9A4B2952E5B62C2276CD14740A
:1073A000A473128D4A0A243599E0BF7D55E32C0061
:1073B000B810E57B8CF62418BFFE91C3C986B5A72B
:1073C00045900C73E8A9F07A3A11A9E8BE19C7CC28
:1073D000DD60414DB97FFE770E13A8F4A098DAEA7C
:1073E000A46D3CFCD9357086317CF014A8DC3DDE00
:1073F000F3286B62C3884AE4F10BD80A0E5630A218
:10740000784D784B2F8B2DBB1A6CA2867E3C422A7E
:10741000D5CBB0F66EBC345DE91412879580403D43
:10742000BBF1385E94D5F34B7385DD8E2C2C984FD1
:10743000DBA645944B743CFF710021DED03DDC5C43
:1074400082A14E30D01F6633A1B12B08B3E589F578
:107450000FBDEA4BEF9366A71773D51A94524ADD16
:107460003D4037433A7CAEDE060C42B8CBD466D002
:10747000BFEBE366F011A04B7C051A47E033C6C4AE
:10748000F364DCCC008495D958627BD3810D5032F3
:10749000343C9E077EE7383C3FE432E82D43A5CAE2
:1074A000DFC5679CD38A7880DBC1321DD58D17A6D6
:1074B0004B4EC934F1D6FE967408C2577552431B21
:1074C000AB0D32BF965C517B864A754C31EF053966
:1074D0005AD21609AD7AE723BD4150BE2D61D2EED6
:1074E00053841DEA9FE1D38F919C623D32C88B8A01
:1074F00067D5E1E595DB50092216351FEB180E65BF
:10750000E53399B840A836D736B2CC9B6762A3E57D
:10751000E984033239852BBB5334C61AC7180E4A87
:107520004BD59F518C3DB4DA29638C5E77FD55FEB7
:107530006E9CE2BB74908C839A4C8D8FE12156EB4C
:10754000CEC3825BE28466964A62A01148FA752D2A
:107550002BE6268BD04DC0ACFFA99823C3353672DD
:10756000564E8A646DF8BBF20AF8A2F6BE0F57F5C4
:10757000EEABBA81EC13FCCC0C412253FD9FF6A577
:1075800060858A24F7E6BE33852586CA2798F81DCC
:1075900024AB37CA63C8559A4825ABF2446E5303EF
:1075A000191095C7AD8D23BF5563EF86022AB12E02
:1075B0005AF2C45A691A3AF1533F6F12B9ECF553B3
:1075C000B00372AB20CE3B8F05D762819CD13ED6F3
:1075D000D7F95D9C3CBBD06E863275C8D9C7BC63F9
:1075E0002AABAA352DBB0BFE14257DD484BB48C520
:1075F000D1E5670DE79C08F7F518CA92D5AC916400
:10760000124245BBE9154F6B2854321FE33A8A4AB0
:107610006A166CC85A0BB6EED098E3BEAA1C3DF9A8
:107620009AF73A8E8DE3D84A13C22C6F087B4192A9
:107630005A83F8905AFA468519BC566C0F6620A9F1
:10764000874D6A949375CA3A8CFCF15702D097958E
:1076500083E832BC71AD864A42842AC0C96EFAE61C
:10766000CA78DE577FCF6982C99EFCA70BA54392DB
:107670002810944417C5824DFC32E866F213D8876F
:10768000B84A45F522A194633D060357DBB9C7A567
:1076900053207AB62C05D089BBC9693390923A221F
:1076A000FC3AA5D39A88CF12534C6D24795767DFE3
:1076B0002457A9D636447F3D9E161AD0C89B7EB467
:1076C0008B9A60A216C5577F123B901880354DD516
:1076D000E9F766AA2364676462AE2B901B4E4E8660
:1076E000CE6CD6988EB63D26ECC127CCB1A30E2C1D
:1076F000F5694CD86E7A5C270F76C59A9DDF3A11F2
:107700009919BBDBAB3A60767F76AFD63BFD41ADD6
:1077100031D9FADE35BBCC0E039BB57B424E77697F
:107720000024439B5FFE7B15CBC36343870C384C1F
:10773000EFB4F1D2395039E603DD8E2EDFB8ACBBA1
:107740001CC81B72FA6D8CBA6D1CC5A744D508AD58
:107750005D48C179B283F40D8B2C8328BBA70989BE
:10776000BED7DE21E15EE6301337129CA53B5FB742
:10777000B0B0AE4FBB329767E3CCF9D5E366816D0D
:10778000C4522B8BD4094A968BDA9F6E0FF5A386D1
:1077900061B27E660A22300AFD3DF3BA14679C4D41
:1077A0003A781E9078FA65749C31DC1CA64F95617E
:1077B0004181FA1F1F168826637654219003962272
:1077C00036E905DD0081BAD849B0150520E8BFB11A
:1077D000BF48EDC4D9F2025C836636327190DA8814
:1077E000B6E0DC3875AC9DBAA4F269671C80B6CBF4
:1077F000A31F2A51C71E2D7AC78C425E38A0E81CF1
:1078000009CCF75A6C1735B067E356190B1AD4F93F
:10781000231D9DC7180AC2A882394FEC822FD92098
:10782000F761E61946B6E2EF488A5ED2F576B2ED28
:107830003E0C480B80732CE66DF2527DE1B58F7BD8
:107840005DA2BDA479B89538167040D069FF434851
:10785000C69DCB0F864870B743211FEB56FB6E6B5E
:1078600054639F605B096844D7E0394E43466A1011
:107870005D8A0E8D0167BEC913ABF4566966297B1C
:10788000AD5B4A84205DC3650E5ED73952A1CAE85C
:10789000A6368F270496726B01D3018784B29D2F81
:1078A000E983C2714CEC8A7ADEBD4ABD9647AF00CF
:1078B0004BC4E5E3BDDCFEEE492161B73776ECF65B
:1078C000C65ACFA5531CF478FBF0018D46EE59EB58
:1078D0002A0572A332B35A1F88569545295AC07695
:1078E000CF29C4022D82662DEED0EBDCB2C88B29E5
:1078F000E3974E51CE3ACA7EC1F91E7A4F010CACC5
:1079000027DA07B77F1B4CCB06351D5B2128928FEA
:10791000A029F435C157A8EFBE7C6AE4CE91F3C22A
:10792000937434DB6EEE11C5BDF17EB420142B1AB6
:1079300032533D340C0A9928547FE51DC28D1691AF
:10794000D5B96B21643787ACB7DFBA934C965FAF7C
:107950003BC7BF45713EBFADD7BF8DEB01C4FF1123
:107960005D5A8AC79568E134D116356EB725B4D50E
:1079700021A8A6A16822CB67358154E72185278DF0
:107980002A6AF17FBCEB0989B4E105B4FB95FCBD23
:10799000ED6FA3C0BF211AA093A0FABAACADB12C71
:1079A000B5189A33CB1D23D469AE268C83124EA60C
:1079B000055FC1BB5AF88ABC3B5A8CCCEEB9707CCF
:1079C000B6DCB4CA337513DE5F42AE822DD71B65B9
:1079D00052301922B4C5435022DEA940169776646E
:1079E00070DC672523F33B229B3B06D3263C61FBDF
:1079F000EF42366990716334765F993E71846338E3
:00000001FF
